{
    "_id": "gB9WkJtH88jJQa5Z",
    "data": {
        "attributes": {
            "ac": {
                "value": 10
            },
            "hardness": 0,
            "hasHealth": false,
            "hp": {
                "details": "",
                "max": 0,
                "temp": 0,
                "tempmax": 0,
                "value": 0
            },
            "stealth": {
                "details": "<p>(master) to hear the echoes of a faraway object crashing into the ground</p>",
                "value": 30
            }
        },
        "creatureType": "",
        "details": {
            "description": "<p>Four vengeful spirits grab interlopers and toss them off the edge of a nearby 120-foot-tall cliff.</p>",
            "disable": "<p>DC 40 Athletics (trained) to push back so forcefully that the spirits fear being thrown off the cliff, or DC 40 Religion (expert) to temporarily seal the spirits away</p>",
            "isComplex": false,
            "level": {
                "value": 15
            },
            "reset": "<p>1 hour</p>",
            "routine": ""
        },
        "saves": {
            "fortitude": {
                "saveDetail": "",
                "value": 0
            },
            "reflex": {
                "saveDetail": "",
                "value": 0
            },
            "will": {
                "saveDetail": "",
                "value": 0
            }
        },
        "source": {
            "value": "Pathfinder Gamemastery Guide"
        },
        "statusEffects": [],
        "traits": {
            "ci": [],
            "di": {
                "custom": "",
                "selected": {},
                "value": []
            },
            "dr": [],
            "dv": [],
            "rarity": "common",
            "size": {
                "value": "med"
            },
            "traits": {
                "custom": "",
                "value": [
                    "haunt"
                ]
            }
        }
    },
    "effects": [],
    "flags": {},
    "img": "systems/pf2e/icons/default-icons/hazard.svg",
    "items": [
        {
            "_id": "i9qsvHuq9IdeRohO",
            "data": {
                "actionCategory": {
                    "value": ""
                },
                "actionType": {
                    "value": "reaction"
                },
                "actions": {
                    "value": null
                },
                "description": {
                    "value": "<p data-visibility=\"gm\"><strong>Trigger</strong> A creature approaches within 15 feet of the edge of the cliff.</p>\n<p><strong>Effect</strong> Each spirit attempts to throw a creature within 60 feet of the cliff's edge off the cliff by attempting a check with a +26 modifier against the target's Fortitude DC. If the haunt succeeds, the target is thrown over the edge of the cliff, where it then falls 120 feet to the ground. Until the haunt is defeated, each creature within 60 feet of the cliff's edge must attempt a @Check[type:will|dc:40] save each time they would spend an action or reaction to Arrest a Fall, Fly, Grab an Edge, or otherwise avoid falling; if they fail the save, the action is disrupted. The haunt automatically attempts to counteract spells that would slow a fall or mitigate the effects of falling, such as <i>feather fall</i>, with a counteract modifier of +32.</p>"
                },
                "requirements": {
                    "value": ""
                },
                "rules": [],
                "slug": null,
                "source": {
                    "value": ""
                },
                "traits": {
                    "custom": "",
                    "rarity": "common",
                    "value": [
                        "divine",
                        "abjuration"
                    ]
                },
                "trigger": {
                    "value": ""
                },
                "weapon": {
                    "value": ""
                }
            },
            "effects": [],
            "flags": {},
            "img": "systems/pf2e/icons/actions/Reaction.webp",
            "name": "Call of the Ground",
            "sort": 100000,
            "type": "action"
        }
    ],
    "name": "Plummeting Doom",
    "token": {
        "disposition": 0,
        "height": 1,
        "img": "systems/pf2e/icons/default-icons/hazard.svg",
        "name": "Plummeting Doom",
        "width": 1
    },
    "type": "hazard"
}
