{
    "_id": "SbvhfCo5gFVt1DgD",
    "content": "<h1>Acrobat</h1>\n<p>You have trained your body to perform incredible, seemingly superhuman feats of grace. You move in ways that leave your opponents caught off guard and fumbling for a response, turning every fight into performance art.</p>\n<h2 style=\"text-align: left;\">@Compendium[pf2e.feats-srd.Acrobat Dedication]{Acrobat Dedication} Feat 2</h2>\n<p><strong>Prerequisites</strong> trained in Acrobatics</p>\n<hr />\n<p>You become an expert in Acrobatics. At 7th level, you become a master in Acrobatics, and at 15th level, you become legendary in Acrobatics. Whenever you critically succeed at an Acrobatics check to Tumble Through an enemy's space, you don't treat the enemy's space as difficult terrain.</p>\n<p><strong>Special</strong> You can't select another dedication feat until you have gained two other feats from the acrobat archetype.</p>\n<h2>@Compendium[pf2e.feats-srd.Contortionist]{Contortionist} Feat 4</h2>\n<p><strong>Prerequisites</strong> Acrobat Dedication</p>\n<hr />\n<p>You can squeeze out of tight situations surprisingly quickly, gaining an advantage against foes that try to pin you down. You gain the Quick Squeeze skill feat, and if you're a master in Acrobatics, you can Squeeze at full Speed. Whenever you successfully Escape using Acrobatics, the creature you Escaped from is flat-footed against the next attack you make against it before the end of your next turn.</p>\n<h2>@Compendium[pf2e.feats-srd.Dodge Away]{Dodge Away} Feat 6</h2>\n<p><strong>Prerequisites</strong> Acrobat Dedication</p>\n<p><strong>Trigger</strong> You are the target of a melee attack.</p>\n<p><strong>Requirements</strong> You're aware of the attack and aren't flat‑footed.</p>\n<hr />\n<p>You use your acrobatic prowess to evade an attack, using momentum to keep yourself moving, if you choose. You gain a +1 circumstance bonus to AC against the triggering attack. If the attack misses you, you can Step after the Strike. If you're a master in Acrobatics, you can move 10 feet on this Step instead of 5 feet.</p>\n<h2>@Compendium[pf2e.feats-srd.Graceful Leaper]{Graceful Leaper} Feat 7</h2>\n<p><strong>Prerequisites</strong> Acrobat Dedication, master in Acrobatics</p>\n<hr />\n<p>Mass and muscle are meaningless when you leap; only grace and balance matter. You can roll an Acrobatics check instead of an Athletics check when making a High Jump or Long Jump.</p>\n<h2>@Compendium[pf2e.feats-srd.Tumbling Strike]{Tumbling Strike} Feat 8</h2>\n<p><strong>Prerequisites</strong> Acrobat Dedication</p>\n<p><strong>Requirements</strong> You are adjacent to an enemy.</p>\n<hr />\n<p>Attempt an Acrobatics check against the Reflex DC of an enemy adjacent to you.</p>\n<hr />\n<p><strong>Critical Success</strong> You move through the enemy's space to an unoccupied space on the other side of the enemy from your starting position. This movement doesn't trigger reactions. You can't move farther than your Speed, and you must end your movement adjacent to the enemy whose space you moved through. After moving, you make a melee Strike against the enemy whose space you moved through, and the enemy is flat-footed against that Strike.</p>\n<p><strong>Success</strong> As critical success, but the enemy isn't flat-footed against the Strike.</p>\n<p><strong>Failure</strong> You remain in your original space but can still Strike.</p>\n<p><strong>Critical Failure</strong> No effect.</p>\n<h2>@Compendium[pf2e.feats-srd.Tumbling Opportunist]{Tumbling Opportunist} Feat 10</h2>\n<p><strong>Prerequisites</strong> Acrobat Dedication</p>\n<p><strong>Frequency</strong> once per minute</p>\n<p><strong>Requirements</strong> Your most recent action was to Tumble Through or Tumbling Strike, and you successfully moved through an enemy's space.</p>\n<p>You use a burst of stamina to perform a breathtaking feat of Acrobatics as you speed through a foe's space, leaving your foe lying flat on their back. You attempt to Trip the enemy whose space you moved through. You can use Acrobatics instead of Athletics for this check.</p>",
    "flags": {},
    "name": "Acrobat",
    "permission": {
        "default": 0
    }
}
