{
    "_id": "4D2KBtexWXa6oUMR",
    "data": {
        "active": true,
        "alsoApplies": {
            "linked": [],
            "unlinked": []
        },
        "base": "Drained",
        "description": {
            "value": "<p>When a creature successfully drains you of blood or life force, you become less healthy. Drained always includes a value. You take a status penalty equal to your drained value on Constitution-based checks, such as Fortitude saves. You also lose a number of Hit Points equal to your level (minimum 1) times the drained value, and your maximum Hit Points are reduced by the same amount. For example, if you're hit by an effect that inflicts drained 3 and you're a 3rd-level character, you lose 9 Hit Points and reduce your maximum Hit Points by 9. Losing these Hit Points doesn't count as taking damage.</p>\n<p>Each time you get a full night's rest, your drained value decreases by 1. This increases your maximum Hit Points, but you don't immediately recover the lost Hit Points.</p>"
        },
        "duration": {
            "perpetual": true,
            "text": "",
            "value": 0
        },
        "group": "abilities",
        "hud": {
            "img": {
                "useStatusName": true,
                "value": "systems/pf2e/icons/conditions-2/drained.webp"
            },
            "selectable": true,
            "statusName": "drained"
        },
        "modifiers": [],
        "overrides": [],
        "references": {
            "children": [],
            "immunityFrom": [],
            "overriddenBy": [],
            "overrides": []
        },
        "removable": true,
        "rules": [
            {
                "key": "FlatModifier",
                "selector": "con-based",
                "type": "status",
                "value": "-1 * @item.badge.value"
            },
            {
                "key": "FlatModifier",
                "selector": "hp",
                "type": "status",
                "value": "-1 * @actor.level * @item.badge.value"
            },
            {
                "key": "LoseHitPoints",
                "value": "@actor.level * @item.badge.value"
            }
        ],
        "source": {
            "value": ""
        },
        "sources": {
            "hud": true,
            "values": []
        },
        "traits": {
            "custom": "",
            "rarity": "common",
            "value": []
        },
        "value": {
            "immutable": false,
            "isValued": true,
            "modifiers": [],
            "value": 1
        }
    },
    "effects": [],
    "flags": {
        "pf2e": {
            "condition": true
        }
    },
    "img": "systems/pf2e/icons/conditions/drained.webp",
    "name": "Drained",
    "type": "condition"
}
