{
    "_id": "sHC4quiLAzdUe2uT",
    "content": "<p>You were once secretly certain that this character stole a cherished valuable from you. You were determined to steal it back, until you learned that this character wasn't in fact to blame and you'd only misplaced the item.</p>\n<p>Add the @Compendium[pf2e.feats-srd.Pickpocket]{Pickpocket} skill feat to your background options.</p>",
    "flags": {},
    "name": "Accusation of Theft",
    "permission": {
        "default": 0
    }
}
