{
    "_id": "LekxXsOgEwMODqCS",
    "content": "<p>When you and this character were younger, you worked together to nurse sick animals back to health.</p>\n<p>Add the @Compendium[pf2e.feats-srd.Train Animal]{Train Animal} skill feat to your background options</p>",
    "flags": {},
    "name": "Animal Helpers",
    "permission": {
        "default": 0
    }
}
