{
    "_id": "e4nkDjB1Y6nqaK2G",
    "content": "<p>A friend or family member whom you trusted more than anyone else betrayed you.</p>\n<p>Add the @Compendium[pf2e.feats-srd.Lie To Me]{Lie To Me} skill feat to your background options.</p>",
    "flags": {},
    "name": "Betrayed",
    "permission": {
        "default": 0
    }
}
