{
    "_id": "xmgvqyfwYPBXVELo",
    "content": "<p>When you were a child, you made contact with a magical creature, such as a dragon, unicorn, genie, pixie, or similar creature.</p>\n<p>Add the @Compendium[pf2e.feats-srd.Recognize Spell]{Recognize Spell} skill feat to your background options.</p>",
    "flags": {},
    "name": "Met a Fantastic Creature",
    "permission": {
        "default": 0
    }
}
