{
    "_id": "y4quheEoo2bcmM6g",
    "content": "<p>You never seemed to capture the attention of the crowds at the tavern as easily as this character did, so you worked hard to practice your showmanship.</p>\n<p>Add the @Compendium[pf2e.feats-srd.Impressive Performance]{Impressive Performance} skill feat to your background options.</p>",
    "flags": {},
    "name": "Seeking Accolades",
    "permission": {
        "default": 0
    }
}
