{
    "_id": "8NKe8N5NsULPShPX",
    "content": "<p>One of your greatest influences was a sapient undead creature, such as a ghost, lich, graveknight, or vampire. Through this strange relationship, you learned of its mortal life, giving you perspective on your own life.</p>\n<p>Add a Constitution ability boost to your background options.</p>",
    "flags": {},
    "name": "The Dead One",
    "permission": {
        "default": 0
    }
}
