{
    "_id": "IFHYbU6Nu8BiTsRa",
    "data": {
        "boosts": {
            "0": {
                "value": [
                    "dex",
                    "str"
                ]
            },
            "1": {
                "value": [
                    "cha",
                    "con",
                    "dex",
                    "int",
                    "str",
                    "wis"
                ]
            }
        },
        "description": {
            "value": "<p>In a circus or on the streets, you earned your pay by performing as an acrobat. You might have turned to adventuring when the money dried up, or simply decided to put your skills to better use.</p>\n<p>Choose two ability boosts. One must be to <strong>Strength</strong> or <strong>Dexterity</strong>, and one is a free ability boost.</p>\n<p>You're trained in the Acrobatics skill and the Circus Lore skill. You gain the @Compendium[pf2e.feats-srd.Steady Balance]{Steady Balance} skill feat.</p>"
        },
        "items": {
            "c4lrh": {
                "id": "CnqMJR8e9jqJR7MM",
                "img": "systems/pf2e/icons/features/feats/feats.webp",
                "level": "1",
                "name": "Steady Balance",
                "pack": "pf2e.feats-srd"
            }
        },
        "rules": [],
        "source": {
            "value": "Pathfinder Core Rulebook"
        },
        "trainedLore": "Circus",
        "trainedSkills": {
            "value": [
                "acr"
            ]
        },
        "traits": {
            "custom": "",
            "rarity": "common",
            "value": []
        }
    },
    "effects": [],
    "flags": {},
    "img": "systems/pf2e/icons/default-icons/background.svg",
    "name": "Acrobat",
    "type": "background"
}
