{
    "_id": "4aVFnYyRajog0mNl",
    "data": {
        "boosts": {
            "0": {
                "value": [
                    "dex",
                    "wis"
                ]
            },
            "1": {
                "value": [
                    "cha",
                    "con",
                    "dex",
                    "int",
                    "str",
                    "wis"
                ]
            }
        },
        "description": {
            "value": "<p><strong>Prerequisite</strong> Region - High Seas</p>\n<hr />\n<p>At least one of your parents is a member of the notorious Red Mantis assassins, merciless killers for hire who rarely fail to claim their marks. Whether on purpose or by simple exposure, you were trained from a young age in the art of stalking and killing people.</p>\n<p>Choose two ability boosts. One must be to <strong>Dexterity</strong> or <strong>Wisdom</strong>, and one is a free ability boost.</p>\n<p>You're trained in the Stealth skill and the Assassin Lore skill. You gain the @Compendium[pf2e.feats-srd.Assurance]{Assurance} skill feat with Stealth.</p>"
        },
        "items": {
            "2a5o3": {
                "id": "W6Gl9ePmItfDHji0",
                "img": "systems/pf2e/icons/features/feats/feats.webp",
                "level": "1",
                "name": "Assurance",
                "pack": "pf2e.feats-srd"
            }
        },
        "rules": [],
        "source": {
            "value": "Pathfinder Lost Omens: World Guide"
        },
        "trainedLore": "Assassin Lore",
        "trainedSkills": {
            "value": [
                "ste"
            ]
        },
        "traits": {
            "custom": "",
            "rarity": "common",
            "value": []
        }
    },
    "effects": [],
    "flags": {},
    "img": "systems/pf2e/icons/default-icons/background.svg",
    "name": "Mantis Scion",
    "type": "background"
}
