{
    "_id": "HNdGlDHkcczqNw2U",
    "data": {
        "boosts": {
            "0": {
                "value": [
                    "cha",
                    "dex"
                ]
            },
            "1": {
                "value": [
                    "cha",
                    "con",
                    "dex",
                    "int",
                    "str",
                    "wis"
                ]
            }
        },
        "description": {
            "value": "<p>Ever since you were young, you've been almost supernaturally skilled in a particular type of music. The people around you were sure you'd grow up to perform at royal courts or to become a world-famous composer, but you've chosen a life of adventure instead. You might have given up on those dreams to find your own meaning, or you might find that adventuring allows you to experience unfiltered emotions and exploits that you can translate into a wondrous symphony some day.</p>\n<p>Choose two ability boosts. One must be to <strong>Dexterity</strong> or <strong>Charisma</strong>, and one is a free ability boost.</p>\n<p>You're trained in Performance and Music Lore. You gain the @Compendium[pf2e.feats-srd.Virtuosic Performer]{Virtuosic Performer} skill feat.</p>\n<hr />\n<p><em>Note: You will have to select the correct virtuosic performer feat for your style.</em></p>"
        },
        "items": {
            "2crdn": {
                "id": "TnF9hfOywfD8cE2v",
                "img": "systems/pf2e/icons/features/feats/feats.webp",
                "level": 1,
                "name": "Virtuosic Performer (Dance)",
                "pack": "pf2e.feats-srd"
            },
            "4axod": {
                "id": "PpMybW2sh3yjfVJz",
                "img": "systems/pf2e/icons/features/feats/feats.webp",
                "level": 1,
                "name": "Virtuosic Performer (Oratory)",
                "pack": "pf2e.feats-srd"
            },
            "4ruar": {
                "id": "FmfVehPphZWyrgX1",
                "img": "systems/pf2e/icons/features/feats/feats.webp",
                "level": 1,
                "name": "Virtuosic Performer (Singing)",
                "pack": "pf2e.feats-srd"
            },
            "fl523": {
                "id": "Y5ASDpZ574Pn9CEx",
                "img": "systems/pf2e/icons/features/feats/feats.webp",
                "level": 1,
                "name": "Virtuosic Performer (Comedy)",
                "pack": "pf2e.feats-srd"
            },
            "hp5q9": {
                "id": "sYYmBpRlRtWf5Tbh",
                "img": "systems/pf2e/icons/features/feats/feats.webp",
                "level": 1,
                "name": "Virtuosic Performer (Strings)",
                "pack": "pf2e.feats-srd"
            },
            "j4cer": {
                "id": "noRMXU5xs133vEFB",
                "img": "systems/pf2e/icons/features/feats/feats.webp",
                "level": 1,
                "name": "Virtuosic Performer (Keyboards)",
                "pack": "pf2e.feats-srd"
            },
            "q9z6c": {
                "id": "zhIaJewomiJTkKFV",
                "img": "systems/pf2e/icons/features/feats/feats.webp",
                "level": 1,
                "name": "Virtuosic Performer (Winds)",
                "pack": "pf2e.feats-srd"
            },
            "rv5ay": {
                "id": "PmUK6NQlbSqZM3aY",
                "img": "systems/pf2e/icons/features/feats/feats.webp",
                "level": 1,
                "name": "Virtuosic Performer (Acting)",
                "pack": "pf2e.feats-srd"
            },
            "uo47r": {
                "id": "nmwk8yShqoYPW1QG",
                "img": "systems/pf2e/icons/features/feats/feats.webp",
                "level": 1,
                "name": "Virtuosic Performer (Percussion)",
                "pack": "pf2e.feats-srd"
            }
        },
        "rules": [],
        "source": {
            "value": "Pathfinder Secrets of Magic"
        },
        "trainedLore": "Music Lore",
        "trainedSkills": {
            "custom": "",
            "value": [
                "prf"
            ]
        },
        "traits": {
            "custom": "",
            "rarity": "common",
            "value": []
        }
    },
    "effects": [],
    "flags": {},
    "img": "systems/pf2e/icons/default-icons/background.svg",
    "name": "Musical Prodigy",
    "type": "background"
}
