{
    "_id": "ECKic2p6yIyoGYod",
    "data": {
        "boosts": {
            "0": {
                "value": [
                    "cha",
                    "int"
                ]
            },
            "1": {
                "value": [
                    "cha",
                    "con",
                    "dex",
                    "int",
                    "str",
                    "wis"
                ]
            }
        },
        "description": {
            "value": "<p>You are a pupil of Argakoa the Songsinger, Otter House leader and Mammoth Lord. Argakoa has been the Broken Tusk's foremost songsinger for many winters, and she sees in you a promising disciple who can carry the torch when it's time for her to pass it. The role of songsinger is a great distinction. These chanters, musicians, and poets are responsible for recording, preserving, and sharing the Broken Tusk's oral history. As one of these songsingers, it's up to you to decide which stories are worthy of passing on and which should be left along the migration trail.</p>\n<p>Choose two ability boosts. One must be to <strong>Intelligence</strong> or <strong>Charisma</strong>, and one is a free ability boost.</p>\n<p>You're trained in the Performance skill and the Genealogy Lore skill. You gain the @Compendium[pf2e.feats-srd.Impressive Performance]{Impressive Performance} skill feat.</p>"
        },
        "items": {
            "xg485": {
                "id": "xqAdXRd2gSQcqp5E",
                "img": "systems/pf2e/icons/features/feats/feats.webp",
                "level": 1,
                "name": "Impressive Performance",
                "pack": "pf2e.feats-srd"
            }
        },
        "rules": [],
        "source": {
            "value": "Pathfinder: Quest for the Frozen Flame Player's Guide"
        },
        "trainedLore": "Geneaology",
        "trainedSkills": {
            "custom": "",
            "value": [
                "prf"
            ]
        },
        "traits": {
            "custom": "",
            "rarity": "uncommon",
            "value": []
        }
    },
    "effects": [],
    "flags": {},
    "img": "systems/pf2e/icons/default-icons/background.svg",
    "name": "Songsinger in Training",
    "type": "background"
}
