{
    "_id": "uwZ0emSBFNMGA74j",
    "data": {
        "boosts": {
            "0": {
                "value": [
                    "cha",
                    "con"
                ]
            },
            "1": {
                "value": [
                    "cha",
                    "con",
                    "dex",
                    "int",
                    "str",
                    "wis"
                ]
            }
        },
        "description": {
            "value": "<p>You've ridden a tornado, lassoed a river, mooned a dragon under a full moon, and shot six zombies with one bullet. That's what the stories say, anyway, and even if people don't strictly believe them, they are curious about you. Certainly, the stories keep spreading, and it would appear that you either have a unique destiny or are trying to convince the world that you do.</p>\n<p>Choose two ability boosts. One must be to <strong>Constitution</strong> or <strong>Charisma</strong>, and one is a free ability boost.</p>\n<p>You're trained in Performance. You gain the @Compendium[pf2e.feats-srd.Impressive Performance]{Impressive Performance} skill feat. You can gain the @Compendium[pf2e.feats-srd.Connections]{Connections} skill feat later without being expert in Society or having Courtly Graces-this represents less traditional social connections and more the way that your legend has spread, and you've learned to leverage your legend, with people wanting to meet you and see you for themselves.</p>"
        },
        "items": {
            "xvz64": {
                "id": "xqAdXRd2gSQcqp5E",
                "img": "systems/pf2e/icons/features/feats/feats.webp",
                "level": 1,
                "name": "Impressive Performance",
                "pack": "pf2e.feats-srd"
            }
        },
        "rules": [],
        "source": {
            "value": ""
        },
        "trainedLore": "",
        "trainedSkills": {
            "custom": "",
            "value": [
                "prf"
            ]
        },
        "traits": {
            "custom": "",
            "rarity": "rare",
            "value": []
        }
    },
    "effects": [],
    "flags": {},
    "img": "systems/pf2e/icons/default-icons/background.svg",
    "name": "Tall Tale",
    "type": "background"
}
