{
    "_id": "m1vRLRHTpCrgk89G",
    "data": {
        "boosts": {
            "0": {
                "value": [
                    "cha",
                    "int"
                ]
            },
            "1": {
                "value": [
                    "cha",
                    "con",
                    "dex",
                    "int",
                    "str",
                    "wis"
                ]
            }
        },
        "description": {
            "value": "<p><strong>Prerequisite</strong> Region - Old Cheliax</p>\n<hr />\n<p>Despite the setbacks Cheliax has suffered recently, your loyalties lie with the devil-backed House Thrune. You consider the current queen to be the rightful ruler of your homeland, and you are willing to act against her enemies.</p>\n<p>Choose two ability boosts. One must be to <strong>Intelligence</strong> or <strong>Charisma</strong>, and one is a free ability boost.</p>\n<p>You're trained in the Religion skill and the Hell Lore skill You gain the @Compendium[pf2e.feats-srd.Student of the Canon]{Student of the Canon} skill feat.</p>"
        },
        "items": {
            "nl2mz": {
                "id": "x7EMZNMavris2aHY",
                "img": "systems/pf2e/icons/features/feats/feats.webp",
                "level": "1",
                "name": "Student of the Canon",
                "pack": "pf2e.feats-srd"
            }
        },
        "rules": [],
        "source": {
            "value": "Pathfinder Lost Omens: World Guide"
        },
        "trainedLore": "Hell Lore",
        "trainedSkills": {
            "value": [
                "rel"
            ]
        },
        "traits": {
            "custom": "",
            "rarity": "common",
            "value": []
        }
    },
    "effects": [],
    "flags": {},
    "img": "systems/pf2e/icons/default-icons/background.svg",
    "name": "Thrune Loyalist",
    "type": "background"
}
