{
    "_id": "MBF9bZCwkJp2RZoN",
    "data": {
        "baseItem": null,
        "brokenThreshold": {
            "value": 0
        },
        "bulkCapacity": {
            "value": ""
        },
        "collapsed": {
            "value": false
        },
        "containerId": {
            "value": ""
        },
        "description": {
            "value": "<p>This mid-sized, silver cauldron is a boon within areas where access to fresh food is limited, for it can be commanded to fill itself with hearty (and delicious) vegetable stew. It can also be put to a much greater use in the pursuit of crafting certain items. When used to Craft alchemical items, potions, or oils, a bountiful cauldron grants a +2 item bonus to the Crafting check.</p>\n<p><strong>Activate</strong> <span class=\"pf2-icon\">T</span> command, Interact</p>\n<p><strong>Frequency</strong> once per day</p>\n<p><strong>Effect</strong> You stir the cauldron, and it casts a 4th-level <em>@Compendium[pf2e.spells-srd.Create Food]{Create Food}</em> spell, filling itself with enough delicious vegetable stew to feed 12 Medium creatures.</p>\n<hr />\n<p>Automatically applied effects:</p>\n<ul>\n<li>+2 item bonus to the Crafting check for alchemical items</li>\n</ul>"
        },
        "equippedBulk": {
            "value": ""
        },
        "hardness": {
            "value": 0
        },
        "hp": {
            "value": 0
        },
        "identification": {
            "misidentified": {},
            "status": "identified",
            "unidentified": {
                "data": {
                    "description": {
                        "value": ""
                    }
                },
                "img": "",
                "name": ""
            }
        },
        "invested": {
            "value": false
        },
        "level": {
            "value": 9
        },
        "maxHp": {
            "value": 0
        },
        "negateBulk": {
            "value": "0"
        },
        "preciousMaterial": {
            "value": ""
        },
        "preciousMaterialGrade": {
            "value": ""
        },
        "price": {
            "value": "680 gp"
        },
        "quantity": {
            "value": 1
        },
        "rules": [],
        "size": {
            "value": "med"
        },
        "source": {
            "value": "Pathfinder #147: Tomorrow Must Burn"
        },
        "stackGroup": {
            "value": ""
        },
        "traits": {
            "custom": "",
            "rarity": "uncommon",
            "value": [
                "conjuration",
                "magical"
            ]
        },
        "usage": {
            "value": "held-in-one-hand"
        },
        "weight": {
            "value": "2"
        }
    },
    "effects": [],
    "flags": {},
    "img": "systems/pf2e/icons/equipment/adventuring-gear/bountiful-cauldron.webp",
    "name": "Bountiful Cauldron",
    "type": "equipment"
}
