{
    "_id": "Yguqipt5N29Bkz0d",
    "data": {
        "baseItem": null,
        "brokenThreshold": {
            "value": 0
        },
        "bulkCapacity": {
            "value": ""
        },
        "collapsed": {
            "value": false
        },
        "containerId": {
            "value": ""
        },
        "description": {
            "value": "<p>A <em>bullhook</em> is a stout rod about 4 feet long with a blunt hook on the end. Too dull to be useful as a weapon, a <em>bullhook</em> is instead used to direct animals in training or in performing their tasks. A <em>bullhook</em> grants you a +2 item bonus to Nature checks to Command an Animal while you are holding it.</p>\n<p><strong>Activate</strong> <span class=\"pf2-icon\">D</span> command, Interact</p>\n<p><strong>Frequency</strong> once per day</p>\n<p><strong>Effect</strong> You wave the <em>bullhook</em> to produce the effects of a fifth level <em>@Compendium[pf2e.spells-srd.Command]{Command}</em> spell (DC 30). This spell loses the linguistic trait and can target only animals.</p>\n<p><strong>Craft Requirements</strong> Supply a casting of <em>command</em> of the appropriate level.</p>\n<hr />\n<p>Automatically applied effects:</p>\n<ul>\n<li>+2 item bonus to Nature checks to Command an Animal</li>\n</ul>"
        },
        "equippedBulk": {
            "value": ""
        },
        "hardness": {
            "value": 0
        },
        "hp": {
            "value": 0
        },
        "identification": {
            "misidentified": {},
            "status": "identified",
            "unidentified": {
                "data": {
                    "description": {
                        "value": ""
                    }
                },
                "img": "",
                "name": ""
            }
        },
        "invested": {
            "value": false
        },
        "level": {
            "value": 12
        },
        "maxHp": {
            "value": 0
        },
        "negateBulk": {
            "value": ""
        },
        "preciousMaterial": {
            "value": ""
        },
        "preciousMaterialGrade": {
            "value": ""
        },
        "price": {
            "value": "1,900 gp"
        },
        "quantity": {
            "value": 1
        },
        "rules": [
            {
                "key": "FlatModifier",
                "label": "Bullhook (Command an Animal)",
                "predicate": {
                    "any": [
                        "action:command-an-animal"
                    ]
                },
                "selector": "nature",
                "type": "item",
                "value": 2
            }
        ],
        "size": {
            "value": "med"
        },
        "source": {
            "value": "Pathfinder #152: Legacy of the Lost God"
        },
        "stackGroup": {
            "value": ""
        },
        "traits": {
            "custom": "",
            "rarity": "uncommon",
            "value": [
                "enchantment",
                "magical"
            ]
        },
        "usage": {
            "value": "held-in-one-hand"
        },
        "weight": {
            "value": "1"
        }
    },
    "effects": [],
    "flags": {},
    "img": "systems/pf2e/icons/equipment/held-items/bullhook.webp",
    "name": "Bullhook (Greater)",
    "type": "equipment"
}
