{
    "_id": "v9tI40skGswMQTVN",
    "data": {
        "baseItem": null,
        "brokenThreshold": {
            "value": 0
        },
        "bulkCapacity": {
            "value": ""
        },
        "collapsed": {
            "value": false
        },
        "containerId": {
            "value": null
        },
        "description": {
            "value": "<p>Paper-thin interlocking gears and winding cogs make up this bronze cloak.</p>\n<hr />\n<p><strong>Activate</strong><span class=\"pf2-icon\">r</span> Interact</p>\n<p><strong>Frequency</strong> once per day</p>\n<p><strong>Trigger</strong> You're struck by a melee attack with a held weapon</p>\n<p><strong>Effect</strong> You deflect the blow and attempt to catch the weapon in the cloak's gears. Make an Athletics check to @Compendium[pf2e.actionspf2e.Disarm]{Disarm} the weapon.</p>\n<hr />\n<p><strong>Activate</strong> <span class=\"pf2-icon\">2</span> Interact</p>\n<p><strong>Effect</strong> You wrap the cloak around yourself and the winding gears decelerate your body, causing you to enter standby mode. While in standby mode you don't need to eat, drink, or sleep. You remain aware of your surroundings but take a -4 penalty to Perception checks. You can stay in standby mode indefinitely, although your body ages normally. You can leave standby mode as a <span class=\"pf2-icon\">f</span>. If you do so to initiate combat, you gain a +2 item bonus to your initiative roll.</p>\n<p>@Compendium[pf2e.equipment-effects.Effect: Clockwork Cloak]{Effect: Clockwork Cloak}</p>"
        },
        "equippedBulk": {
            "value": ""
        },
        "hardness": {
            "value": 0
        },
        "hp": {
            "value": 0
        },
        "identification": {
            "misidentified": {},
            "status": "identified",
            "unidentified": {
                "data": {
                    "description": {
                        "value": ""
                    }
                },
                "img": "",
                "name": ""
            }
        },
        "invested": {
            "value": null
        },
        "level": {
            "value": 18
        },
        "maxHp": {
            "value": 0
        },
        "negateBulk": {
            "value": "0"
        },
        "preciousMaterial": {
            "value": null
        },
        "preciousMaterialGrade": {
            "value": null
        },
        "price": {
            "value": "20000 gp"
        },
        "quantity": {
            "value": 1
        },
        "rules": [],
        "size": {
            "value": "med"
        },
        "source": {
            "value": "Pathfinder #161: Belly of the Black Whale"
        },
        "stackGroup": {
            "value": ""
        },
        "traits": {
            "custom": "",
            "rarity": "uncommon",
            "value": [
                "clockwork",
                "invested",
                "magical"
            ]
        },
        "usage": {
            "value": "worncloak"
        },
        "weight": {
            "value": "L"
        }
    },
    "effects": [],
    "flags": {},
    "img": "systems/pf2e/icons/equipment/worn-items/other-worn-items/clockwork-cloak.webp",
    "name": "Clockwork Cloak",
    "type": "equipment"
}
