{
    "_id": "ItLZL9Bd6xwgfeB8",
    "data": {
        "baseItem": null,
        "brokenThreshold": {
            "value": 0
        },
        "bulkCapacity": {
            "value": ""
        },
        "collapsed": {
            "value": false
        },
        "containerId": {
            "value": ""
        },
        "description": {
            "value": "<p>This leather satchel contains empty vials, a pair of tweezers, a supply of small linen cloths, a set of brass calipers and a knotted string for measuring distances, several pieces of chalk, a pen, and a blank notebook for keeping notes.</p>\n<p>Every component of a detective's kit is of exceeding quality, and thus a detective's kit adds a +1 item bonus to checks to investigate a crime scene, a clue, or similar details.</p>\n<hr />\n<p><strong>Automatically applied effects</strong></p>\n<ul>\n<li>+1 item bonus to checks to investigate</li>\n</ul>"
        },
        "equippedBulk": {
            "value": ""
        },
        "hardness": {
            "value": 0
        },
        "hp": {
            "value": 0
        },
        "identification": {
            "misidentified": {},
            "status": "identified",
            "unidentified": {
                "data": {
                    "description": {
                        "value": ""
                    }
                },
                "img": "",
                "name": ""
            }
        },
        "invested": {
            "value": false
        },
        "level": {
            "value": 3
        },
        "maxHp": {
            "value": 0
        },
        "negateBulk": {
            "value": "0"
        },
        "preciousMaterial": {
            "value": ""
        },
        "preciousMaterialGrade": {
            "value": ""
        },
        "price": {
            "value": "25 gp"
        },
        "quantity": {
            "value": 1
        },
        "rules": [
            {
                "key": "FlatModifier",
                "label": "Detective's Kit (to investigate)",
                "predicate": {
                    "all": [
                        "action:investigate"
                    ]
                },
                "selector": "skill-check",
                "type": "item",
                "value": 1
            },
            {
                "key": "FlatModifier",
                "label": "Detective's Kit (to investigate)",
                "predicate": {
                    "all": [
                        "action:investigate"
                    ]
                },
                "selector": "perception",
                "type": "item",
                "value": 1
            }
        ],
        "size": {
            "value": "med"
        },
        "source": {
            "value": "Pathfinder Advanced Player's Guide"
        },
        "stackGroup": {
            "value": ""
        },
        "traits": {
            "custom": "",
            "rarity": "common",
            "value": []
        },
        "usage": {
            "value": "held-in-two-hands"
        },
        "weight": {
            "value": "1"
        }
    },
    "effects": [],
    "flags": {},
    "img": "systems/pf2e/icons/equipment/adventuring-gear/detectives-kit.webp",
    "name": "Detective's Kit",
    "type": "equipment"
}
