{
    "_id": "g5TZguADBpi6hDnv",
    "data": {
        "armor": {
            "value": 1
        },
        "baseItem": null,
        "brokenThreshold": {
            "value": 6
        },
        "bulkCapacity": {
            "value": ""
        },
        "category": "shield",
        "check": {
            "value": 0
        },
        "collapsed": {
            "value": false
        },
        "containerId": {
            "value": null
        },
        "description": {
            "value": "<p>The burnished red faces of djezet‑alloy shields attract effects made of pure magic.</p>\n<p>While you have a djezet shield Raised, you can use the @Compendium[pf2e.feats-srd.Shield Block]{Shield Block} reaction when you would take energy damage in addition to the reaction's usual trigger. When taking energy damage from a spell, the shield's listed Hardness doubles.</p>\n<p><strong>Craft Requirements</strong> djezet worth at least 75 gp</p>"
        },
        "dex": {
            "value": 0
        },
        "equippedBulk": {
            "value": ""
        },
        "group": null,
        "hardness": {
            "value": 3
        },
        "hp": {
            "value": 12
        },
        "identification": {
            "misidentified": {},
            "status": "identified",
            "unidentified": {
                "data": {
                    "description": {
                        "value": ""
                    }
                },
                "img": "",
                "name": ""
            }
        },
        "invested": {
            "value": null
        },
        "level": {
            "value": 9
        },
        "maxHp": {
            "value": 0
        },
        "negateBulk": {
            "value": "0"
        },
        "potencyRune": {
            "value": 0
        },
        "preciousMaterial": {
            "value": null
        },
        "preciousMaterialGrade": {
            "value": null
        },
        "price": {
            "value": "600 gp"
        },
        "propertyRune1": {
            "value": ""
        },
        "propertyRune2": {
            "value": ""
        },
        "propertyRune3": {
            "value": ""
        },
        "propertyRune4": {
            "value": ""
        },
        "quantity": {
            "value": 1
        },
        "resiliencyRune": {
            "value": ""
        },
        "rules": [],
        "size": {
            "value": "med"
        },
        "source": {
            "value": "Pathfinder Lost Omens: The Grand Bazaar"
        },
        "speed": {
            "value": 0
        },
        "stackGroup": {
            "value": ""
        },
        "strength": {
            "value": 0
        },
        "traits": {
            "custom": "",
            "rarity": "rare",
            "value": []
        },
        "usage": {
            "value": "held-in-one-hand"
        },
        "weight": {
            "value": "L"
        }
    },
    "effects": [],
    "flags": {},
    "img": "systems/pf2e/icons/default-icons/armor.svg",
    "name": "Djezet Buckler (Standard Grade)",
    "type": "armor"
}
