{
    "_id": "R1I1MEKwDYtCfZr3",
    "data": {
        "armor": {
            "value": 1
        },
        "baseItem": null,
        "brokenThreshold": {
            "value": 10
        },
        "bulkCapacity": {
            "value": ""
        },
        "category": "shield",
        "check": {
            "value": 0
        },
        "collapsed": {
            "value": false
        },
        "containerId": {
            "value": ""
        },
        "description": {
            "value": "<p>Dragonhide shields are each immune to one damage type based on the type of dragon.</p>\n<table class=\"pf2-table\">\n<thead>\n<tr>\n<th>Dragon Type</th>\n<th>Immunity</th>\n</tr>\n</thead>\n<tbody>\n<tr>\n<td>Black or copper</td>\n<td>acid</td>\n</tr>\n<tr>\n<td>Blue or bronze</td>\n<td>electricity</td>\n</tr>\n<tr>\n<td>Brass, Red, or Gold</td>\n<td>fire</td>\n</tr>\n<tr>\n<td>Green</td>\n<td>poison</td>\n</tr>\n<tr>\n<td>Silver or white</td>\n<td>cold</td>\n</tr>\n</tbody>\n</table>\n<p>The shield has Hardness 5, HP 20, and BT 10.</p>\n<p><strong>Craft Requirements</strong> dragonhide worth at least 4,000 gp</p>"
        },
        "dex": {
            "value": 0
        },
        "equippedBulk": {
            "value": ""
        },
        "group": null,
        "hardness": {
            "value": 5
        },
        "hp": {
            "value": 20
        },
        "identification": {
            "misidentified": {},
            "status": "identified",
            "unidentified": {
                "data": {
                    "description": {
                        "value": ""
                    }
                },
                "img": "",
                "name": ""
            }
        },
        "invested": {
            "value": false
        },
        "level": {
            "value": 16
        },
        "maxHp": {
            "value": 20
        },
        "negateBulk": {
            "value": "0"
        },
        "potencyRune": {
            "value": 0
        },
        "preciousMaterial": {
            "value": "dragonhide"
        },
        "preciousMaterialGrade": {
            "value": "high"
        },
        "price": {
            "value": "8000 gp"
        },
        "propertyRune1": {
            "value": ""
        },
        "propertyRune2": {
            "value": ""
        },
        "propertyRune3": {
            "value": ""
        },
        "propertyRune4": {
            "value": ""
        },
        "quantity": {
            "value": 1
        },
        "resiliencyRune": {
            "value": ""
        },
        "rules": [],
        "size": {
            "value": "med"
        },
        "source": {
            "value": "Pathfinder Core Rulebook"
        },
        "speed": {
            "value": 0
        },
        "stackGroup": {
            "value": ""
        },
        "strength": {
            "value": 0
        },
        "traits": {
            "custom": "",
            "rarity": "uncommon",
            "value": []
        },
        "usage": {
            "value": "held-in-one-hand"
        },
        "weight": {
            "value": "L"
        }
    },
    "effects": [],
    "flags": {},
    "img": "systems/pf2e/icons/equipment/shields/precious-material-shields/dragonhide-buckler.webp",
    "name": "Dragonhide Buckler (High-Grade)",
    "type": "armor"
}
