{
    "_id": "QrjeT3xBssyjvEHQ",
    "data": {
        "activation": {
            "condition": "",
            "cost": 0,
            "type": ""
        },
        "autoDestroy": {
            "_deprecated": true,
            "value": true
        },
        "autoUse": {
            "_deprecated": true,
            "value": true
        },
        "baseItem": null,
        "brokenThreshold": {
            "value": 0
        },
        "bulkCapacity": {
            "value": ""
        },
        "charges": {
            "_deprecated": true,
            "max": 0,
            "value": 0
        },
        "collapsed": {
            "value": false
        },
        "consumableType": {
            "value": "other"
        },
        "consume": {
            "_deprecated": true,
            "value": ""
        },
        "containerId": {
            "value": null
        },
        "description": {
            "value": "<p><strong>Activate</strong> <span class=\"pf2-icon\">1</span> Interact</p>\n<hr />\n<p>While some unscrupulous chefs claim that this savory pudding is made with real dragon's blood, its crimson color and acrid smell actually come from bloody mandrake paste, ginger root, and distilled terrap sap. This potent combination singes the nostrils and throat, removing effects that make you sluggish. When you consume the pudding, it attempts a counteract check with a [[/r {1d20+20}#Counteract Check]]{+20} counteract modifier to remove the @Compendium[pf2e.conditionitems.Slowed]{Slowed} condition from a single source, using the source of that condition to determine the counteract level and DC. You also become @Compendium[pf2e.conditionitems.Quickened]{Quickened} for 1 round. While taking the additional action from being quickened, you scream, as a result of both the flavor and the mandrake paste's properties. You can use the additional action to Step, Stride, Strike, or Demoralize. If you choose to Demoralize, you gain a +3 item bonus to the Intimidation check.</p>\n<p>@Compendium[pf2e.equipment-effects.Effect: Dragon's Blood Pudding (Greater)]{Effect: Dragon's Blood Pudding (Greater)}</p>"
        },
        "duration": {
            "units": "",
            "value": null
        },
        "equippedBulk": {
            "value": ""
        },
        "hardness": {
            "value": 0
        },
        "hp": {
            "value": 0
        },
        "identification": {
            "misidentified": {},
            "status": "identified",
            "unidentified": {
                "data": {
                    "description": {
                        "value": ""
                    }
                },
                "img": "",
                "name": ""
            }
        },
        "level": {
            "value": 13
        },
        "maxHp": {
            "value": 0
        },
        "negateBulk": {
            "value": "0"
        },
        "preciousMaterial": {
            "value": null
        },
        "preciousMaterialGrade": {
            "value": null
        },
        "price": {
            "value": "425 gp"
        },
        "quantity": {
            "value": 1
        },
        "range": {
            "long": null,
            "units": "",
            "value": null
        },
        "rules": [],
        "size": {
            "value": "med"
        },
        "source": {
            "value": "Pathfinder Lost Omens: The Grand Bazaar"
        },
        "spell": {
            "data": null,
            "heightenedLevel": null
        },
        "stackGroup": {
            "value": ""
        },
        "target": {
            "type": "",
            "units": "",
            "value": null
        },
        "traits": {
            "custom": "",
            "rarity": "uncommon",
            "value": [
                "alchemical",
                "consumable"
            ]
        },
        "usage": {
            "value": "held-in-one-hand"
        },
        "uses": {
            "autoDestroy": true,
            "autoUse": true,
            "max": 0,
            "per": null,
            "value": 0
        },
        "weight": {
            "value": "L"
        }
    },
    "effects": [],
    "flags": {},
    "img": "systems/pf2e/icons/equipment/consumables/other-consumables/dragons-blood-pudding.webp",
    "name": "Dragon's Blood Pudding (Greater)",
    "type": "consumable"
}
