{
    "_id": "d8wTwHiA09HP45IM",
    "data": {
        "baseItem": null,
        "brokenThreshold": {
            "value": 0
        },
        "bulkCapacity": {
            "value": ""
        },
        "collapsed": {
            "value": false
        },
        "containerId": {
            "value": ""
        },
        "description": {
            "value": "<p>This small, diamond-tipped stylus allows you to inscribe a magical symbol on a golem's body and possibly gain control over it.</p>\n<p><strong>Activate</strong> <span class=\"pf2-icon\">D</span> Interact</p>\n<p><strong>Frequency</strong> one per hour</p>\n<p><strong>Effect</strong> You make a quick inscription on an adjacent golem creature of 11th level or lower. The golem must succeed at a @Check[type:reflex|dc:27] saving throw or you immediately gain control over the golem for 1 minute. A controlled golem is helpful toward you and follows your orders to the best of its ability as long as it is under your control. If the golem's original controller is within 60 feet of the golem and can see the golem, that controller can attempt a counteract check (DC 27) as a reaction to counteract this effect; on a success, the inscription disappears and the golem reverts to its pre-inscription state. The inscription can also be counteracted with <em>@Compendium[pf2e.spells-srd.Dispel Magic]{Dispel Magic}</em>.</p>\n<p>If the golem you are targeting has already been inscribed with a <em>golem stylus</em>, you must attempt a counteract check against the previous inscription as part of activating the item, using your golem stylus's item level or your Arcana skill check modifier as your counteract check modifier. If successful, you modify the existing inscription so that the golem falls under your control.</p>"
        },
        "equippedBulk": {
            "value": ""
        },
        "hardness": {
            "value": 0
        },
        "hp": {
            "value": 0
        },
        "identification": {
            "misidentified": {},
            "status": "identified",
            "unidentified": {
                "data": {
                    "description": {
                        "value": ""
                    }
                },
                "img": "",
                "name": ""
            }
        },
        "invested": {
            "value": false
        },
        "level": {
            "value": 10
        },
        "maxHp": {
            "value": 0
        },
        "negateBulk": {
            "value": ""
        },
        "preciousMaterial": {
            "value": ""
        },
        "preciousMaterialGrade": {
            "value": ""
        },
        "price": {
            "value": "850 gp"
        },
        "quantity": {
            "value": 1
        },
        "rules": [],
        "size": {
            "value": "med"
        },
        "source": {
            "value": "Pathfinder #153: Life's Long Shadow"
        },
        "stackGroup": {
            "value": ""
        },
        "traits": {
            "custom": "",
            "rarity": "uncommon",
            "value": [
                "invested",
                "magical",
                "transmutation"
            ]
        },
        "usage": {
            "value": "held-in-one-hand"
        },
        "weight": {
            "value": "L"
        }
    },
    "effects": [],
    "flags": {},
    "img": "systems/pf2e/icons/equipment/held-items/golem-stylus.webp",
    "name": "Golem Stylus",
    "type": "equipment"
}
