{
    "_id": "qUnDHEXteUQGE8yp",
    "data": {
        "baseItem": null,
        "brokenThreshold": {
            "value": 0
        },
        "bulkCapacity": {
            "value": ""
        },
        "collapsed": {
            "value": false
        },
        "containerId": {
            "value": ""
        },
        "description": {
            "value": "<p>When your attack roll with this weapon is a critical hit and gains the critical specialization effect, you gain an additional benefit depending on the weapon group.</p>\n<p><strong>Axe</strong> You can damage a third creature, with the same restrictions.</p>\n<p><strong>Bow</strong> The Athletics check to pull the missile free is DC 20.</p>\n<p><strong>Brawling</strong> The target takes a -4 circumstance penalty to its save.</p>\n<p><strong>Club</strong> You can knock the target up to 15 feet away.</p>\n<p><strong>Dart</strong> The base pers@Compendium[pf2e.conditionitems.Persistent Damage]{Persistent Bleed Damage} increases to 2d6.</p>\n<p><strong>Flail</strong> You move the target 5 feet. You can't move it away from you, but you can move it in another direction of your choice.</p>\n<p><strong>Hammer</strong> You can also knock the target 5 feet away from you.</p>\n<p><strong>Knife</strong> The target takes a -5-foot status penalty to its Speed while it has the @Compendium[pf2e.conditionitems.Persistent Damage]{Persistent Bleed Damage}.</p>\n<p><strong>Pick</strong> The extra damage from the critical specialization effect increases to 4 per weapon damage die.</p>\n<p><strong>Polearm</strong> You can move the target up to 10 feet.</p>\n<p><strong>Shield</strong> You can knock the target up to 10 feet away.</p>\n<p><strong>Sling</strong> The target also takes a -10-foot status penalty to its Speed for 1 round if it fails the save.</p>\n<p><strong>Spear</strong> The clumsy condition lasts for 2 rounds.</p>\n<p><strong>Sword</strong> The target is flat-footed until the end of your next turn.</p>"
        },
        "equippedBulk": {
            "value": ""
        },
        "hardness": {
            "value": 0
        },
        "hp": {
            "value": 0
        },
        "identification": {
            "misidentified": {},
            "status": "identified",
            "unidentified": {
                "data": {
                    "description": {
                        "value": ""
                    }
                },
                "img": "",
                "name": ""
            }
        },
        "invested": {
            "value": false
        },
        "level": {
            "value": 9
        },
        "maxHp": {
            "value": 0
        },
        "negateBulk": {
            "value": "0"
        },
        "preciousMaterial": {
            "value": ""
        },
        "preciousMaterialGrade": {
            "value": ""
        },
        "price": {
            "value": "700 gp"
        },
        "quantity": {
            "value": 1
        },
        "rules": [],
        "size": {
            "value": "med"
        },
        "source": {
            "value": "Pathfinder Core Rulebook"
        },
        "stackGroup": {
            "value": ""
        },
        "traits": {
            "custom": "",
            "rarity": "common",
            "value": [
                "enchantment",
                "magical"
            ]
        },
        "usage": {
            "value": "etched-onto-a-weapon"
        },
        "weight": {
            "value": "-"
        }
    },
    "effects": [],
    "flags": {},
    "img": "systems/pf2e/icons/equipment/runes/weapon-property-runes/weapon-property-runes.webp",
    "name": "Grievous",
    "type": "equipment"
}
