{
    "_id": "Qx6CAAbSQ0RpruJH",
    "data": {
        "activation": {
            "condition": "",
            "cost": 0,
            "type": ""
        },
        "autoDestroy": {
            "_deprecated": true,
            "value": true
        },
        "autoUse": {
            "_deprecated": true,
            "value": true
        },
        "baseItem": null,
        "brokenThreshold": {
            "value": 0
        },
        "bulkCapacity": {
            "value": ""
        },
        "charges": {
            "_deprecated": true,
            "max": 0,
            "value": 0
        },
        "collapsed": {
            "value": false
        },
        "consumableType": {
            "value": "snare"
        },
        "consume": {
            "_deprecated": true,
            "value": ""
        },
        "containerId": {
            "value": null
        },
        "description": {
            "value": "<p>This snare consists of several narrow, sharpened stakes, each over a foot long, clustered together and pointing upward. The snare is patently obvious unless planted amid tall reeds or grasses or in someplace dark. Medium and smaller creatures can pass among the stakes easily; unlike most snares, the hoof stakes snare triggers only when a Large or larger creature enters its square. The snare deals [[/r {2d6}[piercing]]]{2d6 piercing damage} to the triggering creature, which must attempt a @Check[type:reflex|dc:18] save.</p>\n<hr />\n<p><strong>Critical Success</strong> The creature is unaffected.</p>\n<p><strong>Success</strong> The creature takes half damage, and it takes a -5-foot circumstance penalty to its Speed for 1 minute, or until the creature or an ally spends three Interact actions to carefully remove the stakes.</p>\n<p><strong>Failure</strong> The triggering creature takes full damage. The creature takes a -5-foot circumstance penalty to its Speed, and any time it deals damage with a foot Strike (including as part of Trample or a similar ability), the creature takes [[/r {2d6}[piercing]]]{2d6 piercing damage}. The effect lasts for 1 minute, or until the creature or an ally spends three Interact actions to carefully remove the stakes.</p>\n<p><strong>Critical Failure</strong> As failure, but the circumstance penalty to its Speed is -10 feet, and the creature takes [[/r {4d6}[piercing]]]{4d6 piercing damage} whenever it deals damage with a foot Strike.</p>"
        },
        "duration": {
            "units": "",
            "value": null
        },
        "equippedBulk": {
            "value": ""
        },
        "hardness": {
            "value": 0
        },
        "hp": {
            "value": 0
        },
        "identification": {
            "misidentified": {},
            "status": "identified",
            "unidentified": {
                "data": {
                    "description": {
                        "value": ""
                    }
                },
                "img": "",
                "name": ""
            }
        },
        "level": {
            "value": 3
        },
        "maxHp": {
            "value": 0
        },
        "negateBulk": {
            "value": "0"
        },
        "preciousMaterial": {
            "value": null
        },
        "preciousMaterialGrade": {
            "value": null
        },
        "price": {
            "value": "10 gp"
        },
        "quantity": {
            "value": 1
        },
        "range": {
            "long": null,
            "units": "",
            "value": null
        },
        "rules": [],
        "size": {
            "value": "med"
        },
        "source": {
            "value": "Pathfinder #175: Broken Tusk Moon"
        },
        "spell": {
            "data": null,
            "heightenedLevel": null
        },
        "stackGroup": {
            "value": ""
        },
        "target": {
            "type": "",
            "units": "",
            "value": null
        },
        "traits": {
            "custom": "",
            "rarity": "uncommon",
            "value": [
                "consumable",
                "mechanical",
                "snare",
                "trap"
            ]
        },
        "usage": {
            "value": "held-in-one-hand"
        },
        "uses": {
            "autoDestroy": true,
            "autoUse": true,
            "max": 0,
            "per": null,
            "value": 0
        },
        "weight": {
            "value": "-"
        }
    },
    "effects": [],
    "flags": {},
    "img": "systems/pf2e/icons/default-icons/consumable.svg",
    "name": "Hoof Stakes Snare",
    "type": "consumable"
}
