{
    "_id": "RkI3jKKrCozvEvfr",
    "data": {
        "activation": {
            "condition": "",
            "cost": 0,
            "type": ""
        },
        "autoDestroy": {
            "_deprecated": true,
            "value": true
        },
        "autoUse": {
            "_deprecated": true,
            "value": true
        },
        "baseItem": null,
        "brokenThreshold": {
            "value": 0
        },
        "bulkCapacity": {
            "value": ""
        },
        "charges": {
            "_deprecated": true,
            "max": 1,
            "value": 1
        },
        "collapsed": {
            "value": false
        },
        "consumableType": {
            "value": "poison"
        },
        "consume": {
            "_deprecated": true,
            "value": ""
        },
        "containerId": {
            "value": ""
        },
        "description": {
            "value": "<p>King's sleep is an insidious long-term poison that can seem like a disease or even death from natural causes on a venerable target. The drained condition from king's sleep is cumulative with each failed save and can't be removed while the poison lasts.</p>\n<hr />\n<p><strong>Activate</strong> <span class=\"pf2-icon\">A</span> Interact (Ingested)</p>\n<p><strong>Saving Throw</strong> @Check[type:fortitude|dc:41]</p>\n<p><strong>Onset</strong> 1 day</p>\n<p><strong>Stage 1</strong> @Compendium[pf2e.conditionitems.Drained]{Drained 1} (1 day)</p>\n<p><strong>Stage 2</strong> drained 1 (1 day)</p>\n<p><strong>Stage 3</strong> drained 2 (1 day)</p>"
        },
        "duration": {
            "units": "",
            "value": null
        },
        "equippedBulk": {
            "value": ""
        },
        "hardness": {
            "value": 0
        },
        "hp": {
            "value": 0
        },
        "identification": {
            "misidentified": {},
            "status": "identified",
            "unidentified": {
                "data": {
                    "description": {
                        "value": ""
                    }
                },
                "img": "",
                "name": ""
            }
        },
        "level": {
            "value": 18
        },
        "maxHp": {
            "value": 0
        },
        "negateBulk": {
            "value": "0"
        },
        "preciousMaterial": {
            "value": ""
        },
        "preciousMaterialGrade": {
            "value": ""
        },
        "price": {
            "value": "4,000 gp"
        },
        "quantity": {
            "value": 1
        },
        "range": {
            "long": null,
            "units": "",
            "value": null
        },
        "rules": [],
        "size": {
            "value": "med"
        },
        "source": {
            "value": "Pathfinder Core Rulebook"
        },
        "spell": {
            "data": null,
            "heightenedLevel": null
        },
        "stackGroup": {
            "value": ""
        },
        "target": {
            "type": "",
            "units": "",
            "value": null
        },
        "traits": {
            "custom": "",
            "rarity": "common",
            "value": [
                "alchemical",
                "consumable",
                "ingested",
                "poison",
                "virulent"
            ]
        },
        "usage": {
            "value": "held-in-one-hand"
        },
        "uses": {
            "autoDestroy": true,
            "autoUse": true,
            "max": 0,
            "per": null,
            "value": 0
        },
        "weight": {
            "value": "L"
        }
    },
    "effects": [],
    "flags": {},
    "img": "systems/pf2e/icons/equipment/alchemical-items/alchemical-poisons/kings-sleep.webp",
    "name": "King's Sleep",
    "type": "consumable"
}
