{
    "_id": "cSrCTi2zE5OU5ylH",
    "data": {
        "activation": {
            "condition": "",
            "cost": 0,
            "type": ""
        },
        "autoDestroy": {
            "_deprecated": true,
            "value": true
        },
        "autoUse": {
            "_deprecated": true,
            "value": true
        },
        "baseItem": null,
        "brokenThreshold": {
            "value": 0
        },
        "bulkCapacity": {
            "value": ""
        },
        "charges": {
            "_deprecated": true,
            "max": "1",
            "value": "1"
        },
        "collapsed": {
            "value": false
        },
        "consumableType": {
            "value": "poison"
        },
        "consume": {
            "_deprecated": true,
            "value": null
        },
        "containerId": {
            "value": ""
        },
        "description": {
            "value": "<p><strong>Activate</strong> <span class=\"pf2-icon\">2</span> Interact</p>\n<p>This black slime is carefully culled from coffins and sarcophagi used by the undead, and is then distilled and combined with necromantic energy, creating a dangerous sludge that leeches life force as aggressively as it rots flesh.</p>\n<hr />\n<p><strong>Saving Throw</strong> @Check[type:fortitude|dc:35]</p>\n<p><strong>Maximum Duration</strong> 6 rounds</p>\n<p><strong>Stage 1</strong> [[/r {5d6}[negative]]]{5d6 negative damage} and [[/r {3d6}[poison]]]{3d6 poison damage} (1 round)</p>\n<p><strong>Stage 2</strong> [[/r {6d6}[negative]]]{6d6 negative damage} and [[/r {4d6}[poison]]]{4d6 poison damage} (1 round)</p>\n<p><strong>Stage 3</strong> [[/r {7d6}[negative]]]{7d6 negative damage} and [[/r {5d6}[poison]]]{5d6 poison damage} (1 round)</p>\n<hr />\n<p><strong>Craft Requirements</strong> Supply one casting of 8th-level <em>@Compendium[pf2e.spells-srd.Harm]{Harm}</em>.</p>"
        },
        "duration": {
            "units": "",
            "value": null
        },
        "equippedBulk": {
            "value": ""
        },
        "hardness": {
            "value": 0
        },
        "hp": {
            "value": 0
        },
        "identification": {
            "misidentified": {},
            "status": "identified",
            "unidentified": {
                "data": {
                    "description": {
                        "value": ""
                    }
                },
                "img": "",
                "name": ""
            }
        },
        "level": {
            "value": 15
        },
        "maxHp": {
            "value": 0
        },
        "negateBulk": {
            "value": "0"
        },
        "preciousMaterial": {
            "value": ""
        },
        "preciousMaterialGrade": {
            "value": ""
        },
        "price": {
            "value": "1,100 gp"
        },
        "quantity": {
            "value": 1
        },
        "range": {
            "long": null,
            "units": "",
            "value": null
        },
        "rules": [],
        "size": {
            "value": "med"
        },
        "source": {
            "value": "Pathfinder #160: Assault on Hunting Lodge Seven"
        },
        "spell": {
            "data": null,
            "heightenedLevel": null
        },
        "stackGroup": {
            "value": ""
        },
        "target": {
            "type": "",
            "units": "",
            "value": null
        },
        "traits": {
            "custom": "",
            "rarity": "uncommon",
            "value": [
                "consumable",
                "divine",
                "injury",
                "poison",
                "virulent"
            ]
        },
        "usage": {
            "value": "held-in-two-hands"
        },
        "uses": {
            "autoDestroy": true,
            "autoUse": true,
            "max": 0,
            "per": null,
            "value": 0
        },
        "weight": {
            "value": "L"
        }
    },
    "effects": [],
    "flags": {},
    "img": "systems/pf2e/icons/equipment/alchemical-items/alchemical-poisons/lifeblight-residue.webp",
    "name": "Lifeblight Residue",
    "type": "consumable"
}
