{
    "_id": "lL50lfx5tBosb1s3",
    "data": {
        "baseItem": "staff",
        "brokenThreshold": {
            "value": 0
        },
        "bulkCapacity": {
            "value": ""
        },
        "collapsed": {
            "value": false
        },
        "containerId": {
            "value": ""
        },
        "description": {
            "value": "<p>This gnarled staff is covered with thorns and coated with a glistening lacquer that acts as a minor irritant. While holding the staff, you aren't affected by its coating or thorns, and you reduce the DC of your flat checks to overcome persistent poison damage from 15 to 5.</p>\n<hr />\n<p><strong>Activate</strong> @Compendium[pf2e.actionspf2e.Cast a Spell]{Cast a Spell}</p>\n<p><strong>Effect</strong> You expend a number of charges from the staff to cast a spell from its list.</p>\n<hr />\n<ul>\n<li><strong>Cantrips</strong> <em>@Compendium[pf2e.spells-srd.Guidance]{Guidance}</em></li>\n<li><strong>1st</strong> <em>@Compendium[pf2e.spells-srd.Detect Poison]{Detect Poison}</em>, <em>@Compendium[pf2e.spells-srd.Spider Sting]{Spider Sting}</em></li>\n<li><strong>2nd</strong> <em>@Compendium[pf2e.spells-srd.Enhance Victuals]{Enhance Victuals}</em>, <em>@Compendium[pf2e.spells-srd.Imp Sting]{Imp Sting}</em></li>\n<li><strong>3rd</strong> <em>@Compendium[pf2e.spells-srd.Neutralize Poison]{Neutralize Poison}</em>, <em>@Compendium[pf2e.spells-srd.Stinking Cloud]{Stinking Cloud}</em></li>\n<li><strong>4th</strong> <em>@Compendium[pf2e.spells-srd.Swarming Wasp Stings]{Swarming Wasp Stings}</em></li>\n<li><strong>5th</strong> <em>@Compendium[pf2e.spells-srd.Cloudkill]{Cloudkill}</em></li>\n<li><strong>6th</strong> <em>@Compendium[pf2e.spells-srd.Purple Worm Sting]{Purple Worm Sting}</em></li>\n</ul>\n<hr />\n<p><strong>Craft Requirements</strong> Supply one casting of all listed levels of all listed spells.</p>"
        },
        "equippedBulk": {
            "value": ""
        },
        "hardness": {
            "value": 0
        },
        "hp": {
            "value": 0
        },
        "identification": {
            "misidentified": {},
            "status": "identified",
            "unidentified": {
                "data": {
                    "description": {
                        "value": ""
                    }
                },
                "img": "",
                "name": ""
            }
        },
        "invested": {
            "value": false
        },
        "level": {
            "value": 14
        },
        "maxHp": {
            "value": 0
        },
        "negateBulk": {
            "value": "0"
        },
        "preciousMaterial": {
            "value": ""
        },
        "preciousMaterialGrade": {
            "value": ""
        },
        "price": {
            "value": "4000 gp"
        },
        "quantity": {
            "value": 1
        },
        "rules": [],
        "size": {
            "value": "med"
        },
        "source": {
            "value": "Pathfinder #160: Assault on Hunting Lodge Seven"
        },
        "stackGroup": {
            "value": ""
        },
        "traits": {
            "custom": "",
            "rarity": "uncommon",
            "value": [
                "conjuration",
                "magical",
                "necromancy",
                "staff"
            ]
        },
        "usage": {
            "value": "held-in-one-hand"
        },
        "weight": {
            "value": "1"
        }
    },
    "effects": [],
    "flags": {},
    "img": "systems/pf2e/icons/equipment/staves/poisoners-staff.webp",
    "name": "Poisoner's Staff (Major)",
    "type": "equipment"
}
