{
    "_id": "z6eQdPTgSxTLR1Qr",
    "data": {
        "baseItem": null,
        "brokenThreshold": {
            "value": 0
        },
        "bulkCapacity": {
            "value": ""
        },
        "collapsed": {
            "value": false
        },
        "containerId": {
            "value": ""
        },
        "description": {
            "value": "<p>A shining wayfinder is a polished silver compass blessed by the power of benevolent deities. It has the usual functions of a @Compendium[pf2e.equipment-srd.Wayfinder]{Wayfinder}, except instead of an activation to cast light, the shining wayfinder has the following two activations.</p>\n<hr />\n<p><strong>Activate</strong> <span class=\"pf2-icon\">2</span> command, Interact</p>\n<p><strong>Effect</strong> You hold the wayfinder and ask for guidance. The wayfinder casts <em>@Compendium[pf2e.spells-srd.Guidance]{Guidance}</em> on you.</p>\n<hr />\n<p><strong>Activate</strong> <span class=\"pf2-icon\">2</span> command, Interact</p>\n<p><strong>Frequency</strong> once per day</p>\n<p><strong>Effect</strong> You call upon the wayfinder's divine blessings for yourself and your allies. The wayfinder casts <em>@Compendium[pf2e.spells-srd.Bless]{Bless}</em>, with an emanation centered on itself. Once per turn, you can use a single action, which has the concentrate trait, to increase the emanation's radius by 5 feet.</p>"
        },
        "equippedBulk": {
            "value": ""
        },
        "hardness": {
            "value": 0
        },
        "hp": {
            "value": 0
        },
        "identification": {
            "misidentified": {},
            "status": "identified",
            "unidentified": {
                "data": {
                    "description": {
                        "value": ""
                    }
                },
                "img": "",
                "name": ""
            }
        },
        "invested": {
            "value": false
        },
        "level": {
            "value": 4
        },
        "maxHp": {
            "value": 0
        },
        "negateBulk": {
            "value": ""
        },
        "preciousMaterial": {
            "value": ""
        },
        "preciousMaterialGrade": {
            "value": ""
        },
        "price": {
            "value": "100 gp"
        },
        "quantity": {
            "value": 1
        },
        "rules": [],
        "size": {
            "value": "med"
        },
        "source": {
            "value": "Pathfinder Lost Omens: Character Guide"
        },
        "stackGroup": {
            "value": ""
        },
        "traits": {
            "custom": "",
            "rarity": "uncommon",
            "value": [
                "abjuration",
                "divination",
                "evocation",
                "invested",
                "magical"
            ]
        },
        "usage": {
            "value": "worn"
        },
        "weight": {
            "value": "-"
        }
    },
    "effects": [],
    "flags": {},
    "img": "systems/pf2e/icons/equipment/worn-items/other-worn-items/shining-wayfinder.webp",
    "name": "Shining Wayfinder",
    "type": "equipment"
}
