{
    "_id": "u4mB03FhvuJ7DcX8",
    "data": {
        "baseItem": null,
        "brokenThreshold": {
            "value": 0
        },
        "bulkCapacity": {
            "value": ""
        },
        "collapsed": {
            "value": false
        },
        "containerId": {
            "value": null
        },
        "description": {
            "value": "<p>St. Alkitarem's Eye is a simple silver chain bearing a brass housing with tiny brass wings. At the center of the housing is a <em>@Compendium[pf2e.equipment-srd.Aeon Stone (Clear Spindle)]{Clear Spindle Aeon Stone}</em>, positioned so it resembles an open eye. This is necklace is known as <em>St. Alkitarem's Eye</em>. The housing can bear a single aeon stone in the same manner as a wayfinder, allowing the necklace's wearer to benefit from the aeon stone just as though it were orbiting their head. The necklace can bear only a <em>clear spindle aeon stone</em>, not other types of aeon stones. It allows the bearer to use the aeon stone's resonant power and doesn't restrict the wearer from investing other aeon stones (even those slotted in a wayfinder). <em>St. Alkitarem's Eye</em> otherwise has the same statistics (including Price) as a wayfinder.</p>"
        },
        "equippedBulk": {
            "value": ""
        },
        "hardness": {
            "value": 0
        },
        "hp": {
            "value": 0
        },
        "identification": {
            "misidentified": {},
            "status": "identified",
            "unidentified": {
                "data": {
                    "description": {
                        "value": ""
                    }
                },
                "img": "",
                "name": ""
            }
        },
        "invested": {
            "value": null
        },
        "level": {
            "value": 2
        },
        "maxHp": {
            "value": 0
        },
        "negateBulk": {
            "value": "0"
        },
        "preciousMaterial": {
            "value": null
        },
        "preciousMaterialGrade": {
            "value": null
        },
        "price": {
            "value": "28 gp"
        },
        "quantity": {
            "value": 1
        },
        "rules": [],
        "size": {
            "value": "med"
        },
        "source": {
            "value": "Pathfinder #152: Legacy of the Lost God"
        },
        "stackGroup": {
            "value": ""
        },
        "traits": {
            "custom": "",
            "rarity": "unique",
            "value": [
                "evocation",
                "invested",
                "magical"
            ]
        },
        "usage": {
            "value": "wornnecklace"
        },
        "weight": {
            "value": "-"
        }
    },
    "effects": [],
    "flags": {},
    "img": "systems/pf2e/icons/default-icons/equipment.svg",
    "name": "St. Alkitarem's Eye",
    "type": "equipment"
}
