{
    "_id": "ykJFhTnqSMEVNFB0",
    "data": {
        "baseItem": null,
        "brokenThreshold": {
            "value": 0
        },
        "bulkCapacity": {
            "value": ""
        },
        "collapsed": {
            "value": false
        },
        "containerId": {
            "value": null
        },
        "description": {
            "value": "<p>This crooked staff is made from twisting acacia wood and has a sphere of rough sandstone embedded in the top, to channel the magic of the desert. When wielding this staff in deserts, you gain a +1 circumstance bonus to Survival checks to Subsist, Track, and Cover Tracks.</p>\n<p><strong>Activate</strong> Cast a Spell</p>\n<p><strong>Effect</strong> You expend a number of charges from the staff to cast a spell from the staff's list.</p>\n<hr />\n<ul>\n<li><strong>Cantrip</strong> <em>@Compendium[pf2e.spells-srd.Know Direction]{Know Direction}</em></li>\n<li><strong>1st</strong> <em>@Compendium[pf2e.spells-srd.Create Water]{Create Water}</em>, <em>@Compendium[pf2e.spells-srd.Pass Without Trace]{Pass Without Trace}</em></li>\n<li><strong>2nd</strong> <em>@Compendium[pf2e.spells-srd.Endure Elements]{Endure Elements}</em>, <em>@Compendium[pf2e.spells-srd.Enhance Victuals]{Enhance Victuals}</em></li>\n</ul>\n<hr />\n<p><strong>Craft Requirements</strong> Supply one casting of all listed levels of all listed spells</p>"
        },
        "equippedBulk": {
            "value": ""
        },
        "hardness": {
            "value": 0
        },
        "hp": {
            "value": 0
        },
        "identification": {
            "misidentified": {},
            "status": "identified",
            "unidentified": {
                "data": {
                    "description": {
                        "value": ""
                    }
                },
                "img": "",
                "name": ""
            }
        },
        "invested": {
            "value": null
        },
        "level": {
            "value": 6
        },
        "maxHp": {
            "value": 0
        },
        "negateBulk": {
            "value": "0"
        },
        "preciousMaterial": {
            "value": null
        },
        "preciousMaterialGrade": {
            "value": null
        },
        "price": {
            "value": "230 gp"
        },
        "quantity": {
            "value": 1
        },
        "rules": [
            {
                "key": "FlatModifier",
                "predicate": {
                    "any": [
                        "action:subsist",
                        "action:track",
                        "action:cover-tracks"
                    ]
                },
                "selector": "survival",
                "type": "circumstance",
                "value": 1
            }
        ],
        "size": {
            "value": "med"
        },
        "source": {
            "value": "Pathfinder Secrets of Magic"
        },
        "stackGroup": {
            "value": ""
        },
        "traits": {
            "custom": "",
            "rarity": "common",
            "value": [
                "abjuration",
                "magical",
                "staff"
            ]
        },
        "usage": {
            "value": "held-in-one-hand"
        },
        "weight": {
            "value": "1"
        }
    },
    "effects": [],
    "flags": {},
    "img": "systems/pf2e/icons/default-icons/equipment.svg",
    "name": "Staff of the Desert Winds",
    "type": "equipment"
}
