{
    "_id": "imBDGoQJnvfWYuLC",
    "data": {
        "baseItem": null,
        "brokenThreshold": {
            "value": 0
        },
        "bulkCapacity": {
            "value": ""
        },
        "collapsed": {
            "value": false
        },
        "containerId": {
            "value": ""
        },
        "description": {
            "value": "<p>This loop of adamantine can be slung on a chain to be worn as a necklace, but must be held to convey its benefits. A creature that can't cast either arcane or occult spells takes 8d6 mental damage just from picking up the item, and they take that damage again at the start of each of their turns if they continue to hold it.</p>\n<p>If the wielder can cast arcane or occult spells, they can use the talisman of the sphere to more easily control a sphere of annihilation. This reduces the DC of the check to control the sphere or Sustain the Activation by 10.</p>\n<p><strong>Destruction</strong> The talisman of the sphere is destroyed if touched by a sphere of annihilation.</p>"
        },
        "equippedBulk": {
            "value": ""
        },
        "hardness": {
            "value": 0
        },
        "hp": {
            "value": 0
        },
        "identification": {
            "misidentified": {},
            "status": "identified",
            "unidentified": {
                "data": {
                    "description": {
                        "value": ""
                    }
                },
                "img": "",
                "name": ""
            }
        },
        "invested": {
            "value": false
        },
        "level": {
            "value": 20
        },
        "maxHp": {
            "value": 0
        },
        "negateBulk": {
            "value": ""
        },
        "preciousMaterial": {
            "value": ""
        },
        "preciousMaterialGrade": {
            "value": ""
        },
        "price": {
            "value": "0 gp"
        },
        "quantity": {
            "value": 1
        },
        "rules": [],
        "size": {
            "value": "med"
        },
        "source": {
            "value": "Pathfinder Gamemastery Guide"
        },
        "stackGroup": {
            "value": ""
        },
        "traits": {
            "custom": "",
            "rarity": "rare",
            "value": [
                "artifact",
                "evocation",
                "magical"
            ]
        },
        "usage": {
            "value": "held-in-one-hand"
        },
        "weight": {
            "value": "-"
        }
    },
    "effects": [],
    "flags": {},
    "img": "systems/pf2e/icons/equipment/artifacts/talisman-of-the-sphere.webp",
    "name": "Talisman of the Sphere",
    "type": "equipment"
}
