{
    "_id": "Z9TThSU2KtCX9gfD",
    "data": {
        "MAP": {
            "value": ""
        },
        "baseItem": "alchemical-bomb",
        "bonus": {
            "value": 1
        },
        "bonusDamage": {
            "value": 0
        },
        "brokenThreshold": {
            "value": 0
        },
        "bulkCapacity": {
            "value": ""
        },
        "category": "martial",
        "collapsed": {
            "value": false
        },
        "containerId": {
            "value": null
        },
        "damage": {
            "damageType": "mental",
            "dice": 2,
            "die": "d6",
            "value": ""
        },
        "description": {
            "value": "<p><strong>Activate</strong> <span class=\"pf2-icon\">1</span> Strike</p>\n<hr />\n<p>This flask contains a fine red powder made from toxic berries. You gain a +1 item bonus to attack rolls. A moderate vexing vapor bomb deals [[/r {2d6}[mental]]]{2d6 mental damage} and [[/r {2}[splash,mental]]]{2 mental splash damage}. On a hit, the target must succeed at a @Check[type:flat|dc:5] check before taking actions with the concentrate trait. This lasts until the end of its next turn (1 minute on a critical hit).</p>"
        },
        "equippedBulk": {
            "value": ""
        },
        "group": "bomb",
        "hands": {
            "value": false
        },
        "hardness": {
            "value": 0
        },
        "hp": {
            "value": 0
        },
        "identification": {
            "misidentified": {},
            "status": "identified",
            "unidentified": {
                "data": {
                    "description": {
                        "value": ""
                    }
                },
                "img": "",
                "name": ""
            }
        },
        "invested": {
            "value": null
        },
        "level": {
            "value": 3
        },
        "maxHp": {
            "value": 0
        },
        "negateBulk": {
            "value": "0"
        },
        "potencyRune": {
            "value": 0
        },
        "preciousMaterial": {
            "value": null
        },
        "preciousMaterialGrade": {
            "value": null
        },
        "price": {
            "value": "12 gp"
        },
        "property1": {
            "critDamage": "",
            "critDamageType": "",
            "critDice": 0,
            "critDie": "",
            "criticalConditionType": "",
            "criticalConditionValue": null,
            "damageType": "",
            "dice": 0,
            "die": "",
            "strikeConditionType": "",
            "strikeConditionValue": null,
            "value": ""
        },
        "propertyRune1": {
            "value": null
        },
        "propertyRune2": {
            "value": null
        },
        "propertyRune3": {
            "value": null
        },
        "propertyRune4": {
            "value": null
        },
        "quantity": {
            "value": 1
        },
        "range": 10,
        "reload": {
            "value": ""
        },
        "rules": [
            {
                "key": "Note",
                "outcome": [
                    "success"
                ],
                "selector": "{item|_id}-damage",
                "text": "<p class='compact-text'>@Localize[PF2E.BombNotes.VexingVapor.Moderate.success]</p>"
            },
            {
                "key": "Note",
                "outcome": [
                    "criticalSuccess"
                ],
                "selector": "{item|_id}-damage",
                "text": "<p class='compact-text'>@Localize[PF2E.BombNotes.VexingVapor.Moderate.criticalSuccess]</p>"
            }
        ],
        "size": {
            "value": "med"
        },
        "source": {
            "value": "Pathfinder Lost Omens: The Grand Bazaar"
        },
        "specific": {
            "value": false
        },
        "splashDamage": {
            "value": 2
        },
        "stackGroup": {
            "value": ""
        },
        "strikingRune": {
            "value": ""
        },
        "traits": {
            "custom": "",
            "rarity": "uncommon",
            "value": []
        },
        "usage": {
            "value": "held-in-one-hand"
        },
        "weight": {
            "value": "L"
        }
    },
    "effects": [],
    "flags": {},
    "img": "systems/pf2e/icons/equipment/alchemical-items/alchemical-bombs/vexing-vapor.webp",
    "name": "Vexing Vapor (Moderate)",
    "type": "weapon"
}
