{
    "_id": "6xaxxKfvXED6LfIY",
    "data": {
        "baseItem": null,
        "brokenThreshold": {
            "value": 0
        },
        "bulkCapacity": {
            "value": ""
        },
        "collapsed": {
            "value": false
        },
        "containerId": {
            "value": ""
        },
        "description": {
            "value": "<p>Originally created as a means of slaying the legendary jabberwock, <em>vorpal</em> weapons prove equally effective against nearly any foe with a head.</p>\n<p><strong>Activate</strong> <span class=\"pf2-icon\">R</span> envision (death, incapacitation)</p>\n<p><strong>Frequency</strong> You roll a natural 20 on a Strike with the weapon, critically succeed, and deal slashing damage. The target must have a head</p>\n<p><strong>Effect</strong> The target must succeed at a @Check[type:fortitude|dc:37] save or be decapitated. This kills any creature except ones that don't require a head to live. For creatures with multiple heads, this usually kills the creature only if you sever its last head.</p>"
        },
        "equippedBulk": {
            "value": ""
        },
        "hardness": {
            "value": 0
        },
        "hp": {
            "value": 0
        },
        "identification": {
            "misidentified": {},
            "status": "identified",
            "unidentified": {
                "data": {
                    "description": {
                        "value": ""
                    }
                },
                "img": "",
                "name": ""
            }
        },
        "invested": {
            "value": false
        },
        "level": {
            "value": 17
        },
        "maxHp": {
            "value": 0
        },
        "negateBulk": {
            "value": "0"
        },
        "preciousMaterial": {
            "value": ""
        },
        "preciousMaterialGrade": {
            "value": ""
        },
        "price": {
            "value": "15,000 gp"
        },
        "quantity": {
            "value": 1
        },
        "rules": [],
        "size": {
            "value": "med"
        },
        "source": {
            "value": "Pathfinder Core Rulebook"
        },
        "stackGroup": {
            "value": ""
        },
        "traits": {
            "custom": "",
            "rarity": "rare",
            "value": [
                "evocation",
                "magical"
            ]
        },
        "usage": {
            "value": "held-in-one-hand"
        },
        "weight": {
            "value": "-"
        }
    },
    "effects": [],
    "flags": {},
    "img": "systems/pf2e/icons/equipment/runes/weapon-property-runes/weapon-property-runes.webp",
    "name": "Vorpal",
    "type": "equipment"
}
