{
    "_id": "8zR1Gmv6rIlsWsTR",
    "data": {
        "attributes": {
            "ac": {
                "value": 30
            },
            "hardness": 18,
            "hasHealth": true,
            "hp": {
                "details": "",
                "max": 70,
                "temp": 0,
                "value": 70
            },
            "stealth": {
                "details": "<p>(Master)</p>",
                "value": 25
            }
        },
        "creatureType": "",
        "details": {
            "description": "<p>The Caul is a thin layer of transparent, moist webbing clinging to the manor's exterior surfaces. The stuff feels slippery and unnaturally cold to the touch, and it clings and stretches when a finger or other object used to touch the Caul is pulled away.</p>",
            "disable": "<p>DC 32 Occultism (master) or DC 34 Religion (expert) to exorcise the caul</p>",
            "isComplex": false,
            "level": {
                "value": 10
            },
            "reset": "<p>1 week; putting Xarwin's ghost to rest permanently destroys the haunt.</p>",
            "routine": ""
        },
        "saves": {
            "fortitude": {
                "saveDetail": "",
                "value": 22
            },
            "reflex": {
                "saveDetail": "",
                "value": 16
            },
            "will": {
                "saveDetail": "",
                "value": 24
            }
        },
        "source": {
            "value": "Pathfinder Adventure: Malevolence"
        },
        "statusEffects": [],
        "traits": {
            "ci": [],
            "di": {
                "custom": "",
                "selected": {},
                "value": [
                    "precision",
                    "critical-hits",
                    "object-immunities"
                ]
            },
            "dr": [],
            "dv": [
                {
                    "label": "Positive",
                    "type": "positive",
                    "value": "10"
                }
            ],
            "rarity": "common",
            "size": {
                "value": "med"
            },
            "traits": {
                "custom": "",
                "value": [
                    "haunt"
                ]
            }
        }
    },
    "effects": [],
    "flags": {},
    "img": "systems/pf2e/icons/default-icons/hazard.svg",
    "items": [
        {
            "_id": "gC6DuEJGIr039QO0",
            "data": {
                "actionCategory": {
                    "value": "offensive"
                },
                "actionType": {
                    "value": "reaction"
                },
                "actions": {
                    "value": null
                },
                "description": {
                    "value": "<p data-visibility=\"gm\"><strong>Trigger</strong> A creature opens any door or window into Xarwin Manor, or any creature or object passes through the caul from outside into the manor</p>\n<p><strong>Effect</strong> The caul immediately bursts like an oily bubble, vanishing in an instant of foul-smelling smoke. A wave of susurration creeps through the area, and all sapient creatures experience a sudden sensation of utter hatred toward birdlife for the span of a single heartbeat. All natural avians within a @Template[type:emanation|distance:300] from Xarwin Manor (but not those within the manor or underground) take [[/r {15d6}[mental]]]{15d6 mental damage} (@Check[type:fortitude|dc:33|basic:true|name:Xarwin Caul] save).</p>"
                },
                "requirements": {
                    "value": ""
                },
                "rules": [],
                "slug": null,
                "source": {
                    "value": ""
                },
                "traits": {
                    "custom": "",
                    "rarity": "common",
                    "value": [
                        "mental",
                        "emotion"
                    ]
                },
                "trigger": {
                    "value": ""
                },
                "weapon": {
                    "value": ""
                }
            },
            "effects": [],
            "flags": {},
            "img": "systems/pf2e/icons/actions/Reaction.webp",
            "name": "Burst of Hatrid",
            "sort": 0,
            "type": "action"
        }
    ],
    "name": "Xarwin Caul",
    "token": {
        "disposition": 0,
        "height": 1,
        "img": "systems/pf2e/icons/default-icons/hazard.svg",
        "name": "Xarwin Caul",
        "width": 1
    },
    "type": "hazard"
}
