{
    "_id": "neNlIrZOs6zOODoe",
    "data": {
        "attributes": {
            "ac": {
                "value": 0
            },
            "hardness": 0,
            "hasHealth": true,
            "hp": {
                "details": "",
                "max": 0,
                "temp": 0,
                "value": 0
            },
            "stealth": {
                "details": "<p>DC 32 (master)</p>",
                "value": 32
            }
        },
        "creatureType": "",
        "details": {
            "description": "<p>A hard-to-reach rune is placed on the lock's tumbler. It emits a blast of force when the door is jostled.</p>",
            "disable": "<p>DC 32 Thievery (master) to disarm the rune, or <em>@Compendium[pf2e.spells-srd.Dispel Magic]{Dispel Magic}</em> (5th level; counteract DC 28) to counteract the rune's magic.</p>",
            "isComplex": false,
            "level": {
                "value": 10
            },
            "reset": "<p>The rune resets 1 minute after it triggers.</p>",
            "routine": ""
        },
        "saves": {
            "fortitude": {
                "saveDetail": "",
                "value": 0
            },
            "reflex": {
                "saveDetail": "",
                "value": 0
            },
            "will": {
                "saveDetail": "",
                "value": 0
            }
        },
        "source": {
            "value": "Pathfinder #165: Eyes of Empty Death"
        },
        "statusEffects": [],
        "traits": {
            "ci": [],
            "di": {
                "custom": "",
                "selected": {},
                "value": []
            },
            "dr": [],
            "dv": [],
            "rarity": "common",
            "size": {
                "value": "med"
            },
            "traits": {
                "custom": "",
                "value": [
                    "magical",
                    "mechanical",
                    "trap"
                ]
            }
        }
    },
    "effects": [],
    "flags": {},
    "img": "systems/pf2e/icons/default-icons/hazard.svg",
    "items": [
        {
            "_id": "OlnYDBwZvO3CeHG3",
            "data": {
                "actionCategory": {
                    "value": "offensive"
                },
                "actionType": {
                    "value": "reaction"
                },
                "actions": {
                    "value": null
                },
                "description": {
                    "value": "<p data-visibility=\"gm\"><strong>Trigger</strong> A non‑undead creature opens the door or critically fails an attempt to disarm or dispel the rune</p>\n<p><strong>Effect</strong> A 30‑foot cone of force issues forth from the lock. Creatures within the cone must succeed a @Check[type:fortitude|dc:29|basic:true] saving throw or take [[/r {8d12}[force]]]{8d12 force damage}. Those who fail the save are pushed 10 feet, and those who critically fail are pushed 20 feet and are @Compendium[pf2e.conditionitems.Stunned]{Stunned 2}.</p>"
                },
                "requirements": {
                    "value": ""
                },
                "rules": [],
                "slug": null,
                "source": {
                    "value": ""
                },
                "traits": {
                    "custom": "",
                    "rarity": "common",
                    "value": [
                        "evocation",
                        "force",
                        "occult"
                    ]
                },
                "trigger": {
                    "value": ""
                },
                "weapon": {
                    "value": ""
                }
            },
            "effects": [],
            "flags": {},
            "img": "systems/pf2e/icons/actions/Reaction.webp",
            "name": "Force Blast",
            "sort": 100000,
            "type": "action"
        }
    ],
    "name": "Blast Tumbler",
    "token": {
        "disposition": 0,
        "height": 1,
        "img": "systems/pf2e/icons/default-icons/hazard.svg",
        "name": "Blast Tumbler",
        "width": 1
    },
    "type": "hazard"
}
