{
    "_id": "PH7M0jJ88cdGaNq9",
    "data": {
        "attributes": {
            "ac": {
                "value": 0
            },
            "hardness": 0,
            "hasHealth": true,
            "hp": {
                "details": "",
                "max": 0,
                "temp": 0,
                "value": 0
            },
            "stealth": {
                "details": "<p>(expert)</p>",
                "value": 14
            }
        },
        "creatureType": "",
        "details": {
            "description": "<p>The pile of bones transforms into a Large silver dragon, while the PCs appear to transform into dark, shadowy figures of alien physique. The dragon's flesh appears to slowly dissolve into lines of black smoke, which trail away toward the PCs and appear to be absorbed into their bodies. Once the dragon is stripped of flesh, its skeleton explodes in a shower of bone fragments.</p>",
            "disable": "<p>@Check[type:religion|dc:23|name:Exorcise the Spirit|traits:haunt] (trained) to exorcise the spirit (two actions), or @Check[type:diplomacy|dc:26|name:Calm the Spirit|traits:haunt] (trained) to calm the spirit momentarily (two actions).</p>",
            "isComplex": false,
            "level": {
                "value": 5
            },
            "reset": "<p>1 minute, as the bone fragments slowly move back into a neat pile with the skull on top.</p>",
            "routine": "<p data-visibility=\"gm\"><strong>Trigger</strong> A creature comes within 15 feet of the dragon skull</p>\n<p><strong>Effect</strong> All living creatures within 20 feet of the nest are peppered with bone shards and take [[/r {4d8+10}[slashing]]]{4d8+10 slashing damage} (@Check[type:reflex|dc:22|basic:true|name:Dragon's Death|traits:haunt,divine,necromancy] save).</p>\n<p data-visibility=\"gm\">On a critical failure, the creature is @Compendium[pf2e.conditionitems.Blinded]{Blinded} for [[/br 1d4 #hours]]{1d4 hours}.</p>"
        },
        "saves": {
            "fortitude": {
                "saveDetail": "",
                "value": 0
            },
            "reflex": {
                "saveDetail": "",
                "value": 0
            },
            "will": {
                "saveDetail": "",
                "value": 0
            }
        },
        "source": {
            "value": "Pathfinder Society Scenario 2-01: Citadel of Corruption"
        },
        "statusEffects": [],
        "traits": {
            "ci": [],
            "di": {
                "custom": "",
                "selected": {},
                "value": []
            },
            "dr": [],
            "dv": [],
            "rarity": "common",
            "size": {
                "value": "med"
            },
            "traits": {
                "custom": "",
                "value": [
                    "haunt"
                ]
            }
        }
    },
    "effects": [],
    "flags": {},
    "img": "systems/pf2e/icons/default-icons/hazard.svg",
    "items": [],
    "name": "Dragon's Death (3-4)",
    "token": {
        "disposition": 0,
        "height": 1,
        "img": "systems/pf2e/icons/default-icons/hazard.svg",
        "name": "Dragon's Death",
        "width": 1
    },
    "type": "hazard"
}
