{
    "_id": "871jo3ZGnybF6dC8",
    "data": {
        "actionCategory": {
            "value": "defensive"
        },
        "actionType": {
            "value": "passive"
        },
        "actions": {
            "value": null
        },
        "description": {
            "value": "<p>@Template[type:emanation|distance:10]{10 feet} @Compendium[pf2e.bestiary-ability-glossary-srd.Aura]{Aura}</p>\n<hr />\n<p>The lich is accompanied by a constant echo of blasphemous murmurs and tainted whispers.</p>\n<p>A creature in the aura takes a -2 circumstance penalty to saves against mental effects and can't take actions that have the concentrate trait unless they succeed at a @Check[type:flat|dc:10] check. Failing this check wastes the action.</p>\n<p>@Compendium[pf2e.bestiary-effects.Effect: Blasphemous Utterances]{Effect: Blasphemous Utterances}</p>"
        },
        "requirements": {
            "value": ""
        },
        "rules": [],
        "source": {
            "value": "Pathfinder Bestiary"
        },
        "traits": {
            "custom": "",
            "rarity": "common",
            "value": [
                "arcane",
                "aura",
                "enchantment",
                "mental"
            ]
        },
        "trigger": {
            "value": ""
        },
        "weapon": {
            "value": ""
        }
    },
    "effects": [],
    "flags": {},
    "img": "systems/pf2e/icons/actions/Passive.webp",
    "name": "(Lich) Blasphemous Utterances",
    "type": "action"
}
