{
    "_id": "wdO3EvDCGoDYW44S",
    "data": {
        "actionCategory": {
            "value": "offensive"
        },
        "actionType": {
            "value": "reaction"
        },
        "actions": {
            "value": null
        },
        "description": {
            "value": "<p data-visibility=\"gm\"><strong>Trigger</strong> The Melfesh Monster dies</p>\n<p><strong>Effect</strong> The Melfesh Monster explodes in a @Template[type:burst|distance:30]. Creatures in the area take [[/r {3d8}[fire]+{3d8}[poison]]]{3d8 fire and 3d8 poison damage} (@Check[type:reflex|dc:24|basic:true|name:Death Throes] save). This ability replaces Reactive Growth.</p>"
        },
        "requirements": {
            "value": ""
        },
        "rules": [],
        "source": {
            "value": "Pathfinder Lost Omens: Monsters of Myth"
        },
        "traits": {
            "custom": "",
            "rarity": "common",
            "value": []
        },
        "trigger": {
            "value": ""
        }
    },
    "effects": [],
    "flags": {},
    "img": "systems/pf2e/icons/actions/Reaction.webp",
    "name": "(Melfish Monster) Death Throes",
    "type": "action"
}
