{
    "_id": "UHuA1hue5xrRM6KK",
    "data": {
        "actionCategory": {
            "value": "interaction"
        },
        "actionType": {
            "value": "passive"
        },
        "actions": {
            "value": null
        },
        "description": {
            "value": "<p>A nymph queen is intrinsically tied to a specific region, such as a forest for a dryad queen. As long as the queen is healthy, the environment is exceptionally resilient, allowing the nymph queen to automatically attempt to counteract spells and rituals such as <em>@Compendium[pf2e.spells-srd.Blight]{Blight}</em> that would harm the environment, using her Spell DC with a counteract level equal to the highest-level druid spell she can cast. When the nymph queen becomes physically or psychologically unhealthy, however, her warded region eventually becomes twisted or unhealthy as well. In that case, restoring the nymph queen swiftly heals the entire region.</p>"
        },
        "requirements": {
            "value": ""
        },
        "rules": [],
        "source": {
            "value": "Pathfinder Core Rulebook"
        },
        "traits": {
            "custom": "",
            "rarity": "common",
            "value": []
        },
        "trigger": {
            "value": ""
        }
    },
    "effects": [],
    "flags": {},
    "img": "systems/pf2e/icons/actions/Passive.webp",
    "name": "(Nymph Queen) Tied to the Land",
    "type": "action"
}
