{
    "_id": "sajLbVE6VpCsR0Kl",
    "data": {
        "actionCategory": {
            "value": "defensive"
        },
        "actionType": {
            "value": "passive"
        },
        "actions": {
            "value": null
        },
        "description": {
            "value": "<p>When the skeleton takes physical damage from a critical hit, one of its bones is pulverized into a fine powder.</p>\n<p>All creatures in a @Template[type:emanation|distance:5] that breathe take [[/r {1d6}[persistent,poison]]] @Compendium[pf2e.conditionitems.Persistent Damage]{Persistent Poison Damage} (plus an additional 1d6 for every 6 levels the skeleton has).</p>"
        },
        "requirements": {
            "value": ""
        },
        "rules": [],
        "source": {
            "value": "Pathfinder Bestiary 3"
        },
        "traits": {
            "custom": "",
            "rarity": "common",
            "value": []
        },
        "trigger": {
            "value": ""
        },
        "weapon": {
            "value": ""
        }
    },
    "effects": [],
    "flags": {},
    "img": "systems/pf2e/icons/actions/Passive.webp",
    "name": "(Skeleton) Bone Powder",
    "type": "action"
}
