{
    "_id": "MAC97gjFcdiqLyhp",
    "data": {
        "actionCategory": {
            "value": "offensive"
        },
        "actionType": {
            "value": "action"
        },
        "actions": {
            "value": 2
        },
        "description": {
            "value": "<p>The skeleton removes its skull and throws it, making a jaws attack with a range of 20 feet. It then attempts to @Compendium[pf2e.actionspf2e.Demoralize]{Demoralize} each foe within 10 feet of the target.</p>\n<p>The head bounces, rolls, or even flies back, returning to the skeleton at the start of its next turn. The skeleton is @Compendium[pf2e.conditionitems.Blinded]{Blinded} until then.</p>"
        },
        "requirements": {
            "value": ""
        },
        "rules": [],
        "source": {
            "value": "Pathfinder Bestiary"
        },
        "traits": {
            "custom": "",
            "rarity": "common",
            "value": [
                "auditory",
                "emotion",
                "fear",
                "mental"
            ]
        },
        "trigger": {
            "value": ""
        },
        "weapon": {
            "value": ""
        }
    },
    "effects": [],
    "flags": {},
    "img": "systems/pf2e/icons/actions/TwoActions.webp",
    "name": "(Skeleton) Screaming Skull",
    "type": "action"
}
