{
    "_id": "zNIjGSxkG8xyDLgR",
    "data": {
        "attributes": {
            "ac": {
                "value": 24
            },
            "hardness": 14,
            "hasHealth": true,
            "hp": {
                "details": "",
                "max": 56,
                "temp": 0,
                "tempmax": 0,
                "value": 56
            },
            "stealth": {
                "details": "<p>or <em>@Compendium[pf2e.spells-srd.Detect Magic]{Detect Magic}</em></p>",
                "value": 0
            }
        },
        "creatureType": "",
        "customModifiers": {},
        "details": {
            "description": "<p>A 10-foot-tall wooden pole topped by a wooden carving of Dahak's head. Each dragon pillar's head has been treated with something to give it a distinct color, as indicated in the specific encounter, but regardless of color, plumes of smoke waft up from the mouth.</p>",
            "disable": "<p>@Check[type:athletics|dc:26|name:Push the Pillar Over|traits:complex,magical,trap,hazard] (expert) to push the pillar over, or @Check[type:thievery|dc:26|name:Erase Magic Runes|traits:complex,magical,trap,hazard] (expert) on the pillar to erase the magic runes that power it, or <em>@Compendium[pf2e.spells-srd.Dispel Magic]{Dispel Magic}</em> (4th level; counteract DC 22) to dispel the pillar's magic.</p>",
            "isComplex": true,
            "level": {
                "value": 6
            },
            "reset": "<p>The dragon pillar deactivates and resets as soon as it perceives no appropriate targets in range.</p>",
            "routine": "<p>(1 action) On its initiative, the dragon pillar fires an eye beam at the closest target within 120 feet.</p>"
        },
        "saves": {
            "fortitude": {
                "saveDetail": "",
                "value": 17
            },
            "reflex": {
                "saveDetail": "",
                "value": 8
            },
            "will": {
                "saveDetail": "",
                "value": 0
            }
        },
        "source": {
            "value": "Pathfinder #146: Cult of Cinders"
        },
        "statusEffects": [],
        "traits": {
            "ci": [],
            "di": {
                "custom": "",
                "selected": {},
                "value": [
                    "critical-hits",
                    "fire",
                    "object-immunities",
                    "precision"
                ]
            },
            "dr": [],
            "dv": [],
            "rarity": "rare",
            "size": {
                "value": "med"
            },
            "traits": {
                "custom": "",
                "value": [
                    "magical",
                    "trap"
                ]
            }
        }
    },
    "effects": [],
    "flags": {},
    "img": "systems/pf2e/icons/default-icons/hazard.svg",
    "items": [
        {
            "_id": "HSs8knjTJuMzsAQr",
            "data": {
                "actionCategory": {
                    "value": "interaction"
                },
                "actionType": {
                    "value": "passive"
                },
                "actions": {
                    "value": null
                },
                "description": {
                    "value": "<p>A dragon pillar can see through its empty eye sockets, and it can recognize Cinderclaws and their allies. A character disguised as a Cinderclaw can trick a dragon pillar into perceiving it as a Cinderclaw ally by using Deception to @Compendium[pf2e.actionspf2e.Impersonate]{Impersonate}. A dragon pillar always uses Perception for initiative.</p>"
                },
                "requirements": {
                    "value": ""
                },
                "rules": [],
                "slug": null,
                "source": {
                    "value": ""
                },
                "traits": {
                    "custom": "",
                    "rarity": "common",
                    "selected": {},
                    "value": []
                },
                "trigger": {
                    "value": ""
                },
                "weapon": {
                    "value": ""
                }
            },
            "effects": [],
            "flags": {},
            "img": "systems/pf2e/icons/actions/Passive.webp",
            "name": "Recognize Ally",
            "sort": 100000,
            "type": "action"
        },
        {
            "_id": "jZsVGuNQlvV5TkQ9",
            "data": {
                "actionCategory": {
                    "value": "interaction"
                },
                "actionType": {
                    "value": "passive"
                },
                "actions": {
                    "value": null
                },
                "description": {
                    "value": "<p><strong>Perception</strong> [[/br 1d20+16 #Perception]]{+16}, @Compendium[pf2e.bestiary-ability-glossary-srd.Darkvision]{Darkvision} 60 feet</p>"
                },
                "requirements": {
                    "value": ""
                },
                "rules": [],
                "slug": null,
                "source": {
                    "value": ""
                },
                "traits": {
                    "custom": "",
                    "rarity": "common",
                    "selected": {},
                    "value": []
                },
                "trigger": {
                    "value": ""
                },
                "weapon": {
                    "value": ""
                }
            },
            "effects": [],
            "flags": {},
            "img": "systems/pf2e/icons/actions/Passive.webp",
            "name": "Perception and Vision",
            "sort": 200000,
            "type": "action"
        },
        {
            "_id": "i7B8yhwnUu48ZFdz",
            "data": {
                "actionCategory": {
                    "value": "defensive"
                },
                "actionType": {
                    "value": "reaction"
                },
                "actions": {
                    "value": null
                },
                "description": {
                    "value": "<p data-visibility=\"gm\"><strong>Trigger</strong> The dragon pillar sees a creature within 120 feet who isn't a recognized Cinderclaw or Cinderclaw ally.</p>\n<p><strong>Effect</strong> The dragon pillar makes an eye beam Strike against the triggering creature, then rolls initiative.</p>"
                },
                "requirements": {
                    "value": ""
                },
                "rules": [],
                "slug": null,
                "source": {
                    "value": ""
                },
                "traits": {
                    "custom": "",
                    "rarity": "common",
                    "selected": {},
                    "value": []
                },
                "trigger": {
                    "value": ""
                },
                "weapon": {
                    "value": ""
                }
            },
            "effects": [],
            "flags": {},
            "img": "systems/pf2e/icons/actions/Reaction.webp",
            "name": "Dragon Pillar Glance",
            "sort": 1200000,
            "type": "action"
        },
        {
            "_id": "HPLwJZH8RwLW9c13",
            "data": {
                "actionCategory": {
                    "value": "offensive"
                },
                "actionType": {
                    "value": "passive"
                },
                "actions": {
                    "value": null
                },
                "description": {
                    "value": "<p>@Check[type:fortitude|dc:24|traits:hazard,trap] save.</p>\n<div data-visibility=\"gm\"><hr />\n<p><strong>Critical Success</strong> The target is unaffected.</p>\n<p><strong>Success</strong> The target is @Compendium[pf2e.conditionitems.Blinded]{Blinded} for 1 round.</p>\n<p><strong>Failure</strong> The target is blinded for 1 hour.</p>\n<p><strong>Critical Failure</strong> The target is blinded for 24 hours.</p>\n</div>"
                },
                "requirements": {
                    "value": ""
                },
                "rules": [],
                "slug": null,
                "source": {
                    "value": ""
                },
                "traits": {
                    "custom": "",
                    "rarity": "common",
                    "value": [
                        "divine",
                        "evocation",
                        "incapacitation"
                    ]
                },
                "trigger": {
                    "value": ""
                },
                "weapon": {
                    "value": ""
                }
            },
            "effects": [],
            "flags": {},
            "img": "systems/pf2e/icons/actions/Passive.webp",
            "name": "Black Eye Beam",
            "sort": 1300000,
            "type": "action"
        },
        {
            "_id": "uapfpdQSjUz13nBn",
            "data": {
                "attack": {
                    "value": ""
                },
                "attackEffects": {
                    "custom": "",
                    "value": []
                },
                "bonus": {
                    "value": 20
                },
                "damageRolls": {},
                "description": {
                    "value": "<p><strong>Effect</strong> The target is subjected to an effect determined by the pillar's color and summarized in the passive actions. On a critical hit, the target's save result is one degree worse.</p>"
                },
                "rules": [],
                "slug": null,
                "source": {
                    "value": ""
                },
                "traits": {
                    "custom": "",
                    "rarity": "common",
                    "value": [
                        "divine",
                        "evocation",
                        "range-120"
                    ]
                },
                "weaponType": {
                    "value": "ranged"
                }
            },
            "effects": [],
            "flags": {},
            "img": "systems/pf2e/icons/default-icons/melee.svg",
            "name": "Eye Beam",
            "sort": 1400000,
            "type": "melee"
        },
        {
            "_id": "Od7nphkGvQM8Iv5L",
            "data": {
                "actionCategory": {
                    "value": "offensive"
                },
                "actionType": {
                    "value": "passive"
                },
                "actions": {
                    "value": null
                },
                "description": {
                    "value": "<p>@Check[type:fortitude|dc:24|traits:trap,hazard] save.</p>\n<div data-visibility=\"gm\"><hr />\n<p><strong>Critical Success</strong> The target is unaffected.</p>\n<p><strong>Success</strong> The target is @Compendium[pf2e.conditionitems.Petrified]{Petrified} for 1 round.</p>\n<p><strong>Failure</strong> The target is petrified for 1 hour.</p>\n<p><strong>Critical Failure</strong> The target is petrified permanently.</p>\n</div>"
                },
                "requirements": {
                    "value": ""
                },
                "rules": [],
                "slug": null,
                "source": {
                    "value": ""
                },
                "traits": {
                    "custom": "",
                    "rarity": "common",
                    "value": [
                        "divine",
                        "evocation",
                        "incapacitation"
                    ]
                },
                "trigger": {
                    "value": ""
                },
                "weapon": {
                    "value": ""
                }
            },
            "effects": [],
            "flags": {},
            "img": "systems/pf2e/icons/actions/Passive.webp",
            "name": "Blue Eye Beam",
            "sort": 1500000,
            "type": "action"
        },
        {
            "_id": "SHZi101TqFOYWlIL",
            "data": {
                "actionCategory": {
                    "value": ""
                },
                "actionType": {
                    "value": "passive"
                },
                "actions": {
                    "value": null
                },
                "description": {
                    "value": "<p>[[/r {6d6}[poison]]]{6d6 poison damage} (@Check[type:reflex|dc:24|basic:true|traits:hazard,trap] save.)</p>"
                },
                "requirements": {
                    "value": ""
                },
                "rules": [],
                "slug": null,
                "source": {
                    "value": ""
                },
                "traits": {
                    "custom": "",
                    "rarity": "common",
                    "value": [
                        "divine",
                        "evocation",
                        "poison"
                    ]
                },
                "trigger": {
                    "value": ""
                },
                "weapon": {
                    "value": ""
                }
            },
            "effects": [],
            "flags": {},
            "img": "systems/pf2e/icons/actions/Passive.webp",
            "name": "Green Eye Beam",
            "sort": 1600000,
            "type": "action"
        },
        {
            "_id": "jI9GCbJaB0b3F4Kw",
            "data": {
                "actionCategory": {
                    "value": "offensive"
                },
                "actionType": {
                    "value": "passive"
                },
                "actions": {
                    "value": null
                },
                "description": {
                    "value": "<p>@Check[type:will|dc:24|traits:hazard,trap] save.</p>\n<div data-visibility=\"gm\"><hr />\n<p><strong>Critical Success</strong> The target is unaffected.</p>\n<p><strong>Success</strong> The target is @Compendium[pf2e.conditionitems.Slowed]{Slowed 1} for 1 round.</p>\n<p><strong>Failure</strong> The target is @Compendium[pf2e.conditionitems.Confused]{Confused} for 1 round.</p>\n<p><strong>Critical Failure</strong> The target is controlled by the dragon pillar and remains within 60 feet of it at all times, defending the dragon pillar from all non-Cinderclaws. While a target is controlled, it is treated as a Cinderclaw ally by the dragon pillar. The dragon pillar can control up to 3 targets at a time; any targets in excess who critically fail this saving throw are instead confused for [[/br 1d4+1 #Confused Rounds]]{1d4+1} rounds. A controlled creature can attempt a new Will save once every 24 hours to escape control, but doing so automatically causes the dragon pillar to attack it with a new eye beam to attempt to re-establish control. The control ends if the pillar is destroyed.</p>\n</div>"
                },
                "requirements": {
                    "value": ""
                },
                "rules": [],
                "slug": null,
                "source": {
                    "value": ""
                },
                "traits": {
                    "custom": "",
                    "rarity": "common",
                    "value": [
                        "divination",
                        "evocation",
                        "incapacitation"
                    ]
                },
                "trigger": {
                    "value": ""
                },
                "weapon": {
                    "value": ""
                }
            },
            "effects": [],
            "flags": {},
            "img": "systems/pf2e/icons/actions/Passive.webp",
            "name": "Indigo Eye Beam",
            "sort": 1700000,
            "type": "action"
        },
        {
            "_id": "Ari4IpvWQTIYV64K",
            "data": {
                "actionCategory": {
                    "value": "offensive"
                },
                "actionType": {
                    "value": "passive"
                },
                "actions": {
                    "value": null
                },
                "description": {
                    "value": "<p>[[/r {6d6}[electricity]]]{6d6 electricity damage} (@Check[type:reflex|dc:24|basic:true|traits:hazard,trap] save.)</p>"
                },
                "requirements": {
                    "value": ""
                },
                "rules": [],
                "slug": null,
                "source": {
                    "value": ""
                },
                "traits": {
                    "custom": "",
                    "rarity": "common",
                    "value": [
                        "divine",
                        "electricity",
                        "evocation"
                    ]
                },
                "trigger": {
                    "value": ""
                },
                "weapon": {
                    "value": ""
                }
            },
            "effects": [],
            "flags": {},
            "img": "systems/pf2e/icons/actions/Passive.webp",
            "name": "Yellow Eye Beam",
            "sort": 1800000,
            "type": "action"
        },
        {
            "_id": "sXWZxvJlU7LZrpHC",
            "data": {
                "actionCategory": {
                    "value": "offensive"
                },
                "actionType": {
                    "value": "passive"
                },
                "actions": {
                    "value": null
                },
                "description": {
                    "value": "<p>[[/r {6d6}[acid]]]{6d6 acid damage} (@Check[type:reflex|dc:24|basic:true|traits:hazard,trap] save.)</p>"
                },
                "requirements": {
                    "value": ""
                },
                "rules": [],
                "slug": null,
                "source": {
                    "value": ""
                },
                "traits": {
                    "custom": "",
                    "rarity": "common",
                    "value": [
                        "acid",
                        "divine",
                        "evocation"
                    ]
                },
                "trigger": {
                    "value": ""
                },
                "weapon": {
                    "value": ""
                }
            },
            "effects": [],
            "flags": {},
            "img": "systems/pf2e/icons/actions/Passive.webp",
            "name": "Orange Eye Beam",
            "sort": 1900000,
            "type": "action"
        },
        {
            "_id": "jNcUglLORusRcA4f",
            "data": {
                "actionCategory": {
                    "value": "offensive"
                },
                "actionType": {
                    "value": "passive"
                },
                "actions": {
                    "value": null
                },
                "description": {
                    "value": "<p>[[/r {6d6}[fire]]]{6d6 fire damage} (@Check[type:reflex|dc:24|basic:true|traits:hazard,trap] save.)</p>"
                },
                "requirements": {
                    "value": ""
                },
                "rules": [],
                "slug": null,
                "source": {
                    "value": ""
                },
                "traits": {
                    "custom": "",
                    "rarity": "common",
                    "value": [
                        "divine",
                        "evocation",
                        "fire"
                    ]
                },
                "trigger": {
                    "value": ""
                },
                "weapon": {
                    "value": ""
                }
            },
            "effects": [],
            "flags": {},
            "img": "systems/pf2e/icons/actions/Passive.webp",
            "name": "Red Eye Beam",
            "sort": 2000000,
            "type": "action"
        },
        {
            "_id": "w5Yk889pfRGklcLm",
            "data": {
                "actionCategory": {
                    "value": "offensive"
                },
                "actionType": {
                    "value": "passive"
                },
                "actions": {
                    "value": null
                },
                "description": {
                    "value": "<p>@Check[type:will|dc:24|traits:hazard,trap] save.</p>\n<div data-visibility=\"gm\"><hr />\n<p><strong>Critical Success</strong> The target is unaffected.</p>\n<p><strong>Success</strong> The target is @Compendium[pf2e.conditionitems.Stunned]{Stunned 1}.</p>\n<p><strong>Failure</strong> The target is @Compendium[pf2e.conditionitems.Stunned]{Stunned 3}.</p>\n<p><strong>Critical Failure</strong> The target is @Compendium[pf2e.conditionitems.Stunned]{Stunned 7}.</p>\n</div>"
                },
                "requirements": {
                    "value": ""
                },
                "rules": [],
                "slug": null,
                "source": {
                    "value": ""
                },
                "traits": {
                    "custom": "",
                    "rarity": "common",
                    "value": [
                        "divine",
                        "evocation",
                        "incapacitation"
                    ]
                },
                "trigger": {
                    "value": ""
                },
                "weapon": {
                    "value": ""
                }
            },
            "effects": [],
            "flags": {},
            "img": "systems/pf2e/icons/actions/Passive.webp",
            "name": "Violet Eye Beam",
            "sort": 2100000,
            "type": "action"
        }
    ],
    "name": "Dragon Pillar",
    "token": {
        "disposition": 0,
        "height": 1,
        "img": "systems/pf2e/icons/default-icons/hazard.svg",
        "name": "Dragon Pillar",
        "width": 1
    },
    "type": "hazard"
}
