{
    "_id": "IdpkEJycZgrkvdSn",
    "data": {
        "attributes": {
            "ac": {
                "value": 0
            },
            "hardness": 0,
            "hasHealth": false,
            "hp": {
                "details": "",
                "max": 0,
                "temp": 0,
                "tempmax": 0,
                "value": 0
            },
            "stealth": {
                "details": "",
                "value": 10
            }
        },
        "creatureType": "",
        "customModifiers": {},
        "details": {
            "description": "<p>The echo of diabolic bells reverberates with a bone-shaking clamor.</p>",
            "disable": "<p>@Check[type:religion|dc:27|name:Recite Against the Power of Hell|traits:auditory,complex,haunt,sonic,hazard] (expert) to break the curse with recitations against the power of Hell (2 actions), or @Check[type:performance|dc:22|name:Perform an Opposing Composition|traits:auditory,complex,haunt,sonic,hazard] (expert) to Perform an opposing composition</p>",
            "isComplex": true,
            "level": {
                "value": 6
            },
            "reset": "<p>The bells cease ringing if there are no living creatures within 30 feet.</p>",
            "routine": "<p>(1 action) The bells toll, dealing [[/r {4d6}[sonic]]]{4d6 sonic damage} to each living creature within @Template[type:emanation|distance:30]{30 feet} (@Check[type:fortitude|dc:24|basic:true|name:Phantom Bells Toll|traits:auditory,complex,haunt,sonic,hazard] save).</p>"
        },
        "saves": {
            "fortitude": {
                "saveDetail": "",
                "value": 0
            },
            "reflex": {
                "saveDetail": "",
                "value": 0
            },
            "will": {
                "saveDetail": "",
                "value": 0
            }
        },
        "source": {
            "value": ""
        },
        "statusEffects": [],
        "traits": {
            "ci": [],
            "di": {
                "custom": "",
                "selected": {},
                "value": []
            },
            "dr": [],
            "dv": [],
            "rarity": "rare",
            "size": {
                "value": "med"
            },
            "traits": {
                "custom": "",
                "value": [
                    "auditory",
                    "haunt",
                    "sonic"
                ]
            }
        }
    },
    "effects": [],
    "flags": {},
    "img": "systems/pf2e/icons/default-icons/hazard.svg",
    "items": [
        {
            "_id": "nPeM50gZBykCKDxe",
            "data": {
                "actionCategory": {
                    "value": "interaction"
                },
                "actionType": {
                    "value": "reaction"
                },
                "actions": {
                    "value": null
                },
                "description": {
                    "value": "<p data-visibility=\"gm\"><strong>Trigger</strong> A living creature approaches within 30 feet.</p>\n<p><strong>Effect</strong> Sounds of creaking metal fill the area as the phantom bells begin to swing and the haunt rolls initiative.</p>"
                },
                "requirements": {
                    "value": ""
                },
                "rules": [],
                "slug": null,
                "source": {
                    "value": ""
                },
                "traits": {
                    "custom": "",
                    "rarity": "common",
                    "value": [
                        "auditory",
                        "sonic"
                    ]
                },
                "trigger": {
                    "value": ""
                },
                "weapon": {
                    "value": ""
                }
            },
            "effects": [],
            "flags": {},
            "img": "systems/pf2e/icons/actions/Reaction.webp",
            "name": "Distant Ringing",
            "sort": 100000,
            "type": "action"
        }
    ],
    "name": "Phantom Bells",
    "token": {
        "disposition": 0,
        "height": 1,
        "img": "systems/pf2e/icons/default-icons/hazard.svg",
        "name": "Phantom Bells",
        "width": 1
    },
    "type": "hazard"
}
