{
    "_id": "eZs6vj4m99XFUVIV",
    "data": {
        "attributes": {
            "hp": {
                "temp": 0,
                "value": null
            }
        },
        "details": {
            "creature": {
                "value": "Nine-Tailed Fox"
            }
        },
        "master": {
            "ability": "int",
            "id": "xGkVkEDCiUrjAfI5"
        },
        "resources": {}
    },
    "effects": [],
    "flags": {},
    "img": "systems/pf2e/icons/iconics/DajiFull.webp",
    "items": [
        {
            "_id": "D8U1Cus37ap3DlEt",
            "data": {
                "badge": null,
                "description": {
                    "value": "<p>You can prepare an additional cantrip, or if you have a repertoire, instead designate a cantrip to add to your repertoire every time you select this ability; you can retrain it but can't otherwise change it. You must be able to prepare cantrips or add them to your repertoire to select this.</p>"
                },
                "duration": {
                    "expiry": "turn-start",
                    "sustained": false,
                    "unit": "unlimited",
                    "value": -1
                },
                "level": {
                    "value": 1
                },
                "rules": [],
                "slug": "cantrip-connection",
                "source": {
                    "value": "Pathfinder Core Rulebook"
                },
                "start": {
                    "initiative": null,
                    "value": -43164
                },
                "target": null,
                "tokenIcon": {
                    "show": false
                },
                "traits": {
                    "custom": "",
                    "rarity": "common",
                    "value": []
                }
            },
            "effects": [],
            "flags": {
                "core": {
                    "sourceId": "Compendium.pf2e.familiar-abilities.rs4Awf4k1e0Mj797"
                }
            },
            "img": "systems/pf2e/icons/actions/Passive.webp",
            "name": "Cantrip Connection",
            "sort": 0,
            "type": "effect"
        },
        {
            "_id": "FMjxHz8N75Pi731Q",
            "data": {
                "badge": null,
                "description": {
                    "value": "<p>Once every 10 minutes, you can use a single action with the concentrate trait to project your senses into your familiar. When you do, you lose all sensory information from your own body, but can sense through your familiar's body for up to 1 minute. You can Dismiss this effect.</p>"
                },
                "duration": {
                    "expiry": "turn-start",
                    "sustained": false,
                    "unit": "unlimited",
                    "value": -1
                },
                "level": {
                    "value": 1
                },
                "rules": [],
                "slug": "share-senses",
                "source": {
                    "value": "Pathfinder Advanced Player's Guide"
                },
                "start": {
                    "initiative": null,
                    "value": -43164
                },
                "target": null,
                "tokenIcon": {
                    "show": false
                },
                "traits": {
                    "custom": "",
                    "rarity": "common",
                    "value": []
                }
            },
            "effects": [],
            "flags": {
                "core": {
                    "sourceId": "Compendium.pf2e.familiar-abilities.gPceRQqO847lvSnb"
                }
            },
            "img": "systems/pf2e/icons/actions/Passive.webp",
            "name": "Share Senses",
            "sort": 0,
            "type": "effect"
        },
        {
            "_id": "4LFPgnSWDr7izqUO",
            "data": {
                "badge": null,
                "description": {
                    "value": "<p>It gains scent (imprecise, 30 feet).</p>"
                },
                "duration": {
                    "expiry": "turn-start",
                    "sustained": false,
                    "unit": "unlimited",
                    "value": -1
                },
                "level": {
                    "value": 1
                },
                "rules": [
                    {
                        "acuity": "imprecise",
                        "key": "Sense",
                        "label": "PF2E.SensesScent",
                        "range": 30,
                        "selector": "scent"
                    }
                ],
                "slug": "scent",
                "source": {
                    "value": ""
                },
                "start": {
                    "initiative": null,
                    "value": -43164
                },
                "target": null,
                "tokenIcon": {
                    "show": false
                },
                "traits": {
                    "custom": "",
                    "rarity": "common",
                    "value": []
                }
            },
            "effects": [],
            "flags": {
                "core": {
                    "sourceId": "Compendium.pf2e.familiar-abilities.FlRUb8U13Crj3NaA"
                }
            },
            "img": "systems/pf2e/icons/actions/Passive.webp",
            "name": "Scent",
            "sort": 0,
            "type": "effect"
        }
    ],
    "name": "Daji (Level 5)",
    "token": {
        "disposition": 1,
        "height": 0.5,
        "img": "systems/pf2e/icons/iconics/Daji.webp",
        "name": "Daji",
        "width": 0.5
    },
    "type": "familiar"
}
