{
    "_id": "BgI1SePPP5QW9wSQ",
    "content": "<table class=\"pf2-table\">\n<thead>\n<tr>\n<th>\n<h3><strong>Name</strong></h3>\n</th>\n<th>\n<h3><strong>Crit Effect</strong></h3>\n</th>\n<th>\n<h3><strong>Type</strong></h3>\n</th>\n</tr>\n</thead>\n<tbody>\n<tr>\n<td>\n<h3>Crushed Trachea</h3>\n</td>\n<td>\n<p>The target is Suffocating <span style=\"color: #191813; font-size: 1.125em;\">until subject to magical healing. It can't speak while it is suffocating.</span></p>\n</td>\n<td>\n<h3>Bludgeoning</h3>\n</td>\n</tr>\n<tr>\n<td>\n<h3>Pierced Elbow</h3>\n</td>\n<td>\n<h3>The target drops one item it is holding (determined randomly by the GM).</h3>\n</td>\n<td>\n<h3>Piercing</h3>\n</td>\n</tr>\n<tr>\n<td>\n<h3>Long Gash</h3>\n</td>\n<td>\n<h3>Normal damage. The target takes 1d4 persistent bleed damage. The DC of the flat check to remove this bleed damage is 5 higher than normal.</h3>\n</td>\n<td>\n<h3>Slashing</h3>\n</td>\n</tr>\n<tr>\n<td>\n<h3>Vulnerability</h3>\n</td>\n<td>\n<h3>The target gains weakness 5 to any damage types dealt by the bomb or spell for 1 minute.</h3>\n</td>\n<td>\n<h3>Bomb or Spell</h3>\n</td>\n</tr>\n</tbody>\n</table>\n<h3 style=\"text-align: left;\"> </h3>",
    "flags": {},
    "name": "Critical Hit Deck #27",
    "permission": {
        "default": 0
    }
}
