{
    "_id": "yBE9e9l5KW7SdHZH",
    "content": "<table class=\"pf2-table\">\n<thead>\n<tr>\n<th>\n<h3><strong>Name</strong></h3>\n</th>\n<th>\n<h3><strong>Crit Effect</strong></h3>\n</th>\n<th>\n<h3><strong>Type</strong></h3>\n</th>\n</tr>\n</thead>\n<tbody>\n<tr>\n<td>Stuck</td>\n<td>Your weapon is lodged into a nearby surface or item. To free it, you must succeed at a DC 20 Athletics check made as and Interact action.</td>\n<td>\n<h3>Melee</h3>\n</td>\n</tr>\n<tr>\n<td>Archer's Elbow</td>\n<td>Until healed, you take a -2 circumstance penalty to ranged attacks.</td>\n<td>\n<h3>Ranged</h3>\n</td>\n</tr>\n<tr>\n<td>Off Balance</td>\n<td>You are slowed 2 until the end of your next turn.</td>\n<td>\n<h3>Unarmed</h3>\n</td>\n</tr>\n<tr>\n<td>Spell Shield</td>\n<td>The target gains a +2 status bonus to saving throws against spells for 1 minute.</td>\n<td>\n<h3>Spell</h3>\n</td>\n</tr>\n</tbody>\n</table>\n<h3 style=\"text-align: left;\"> </h3>",
    "flags": {},
    "name": "Critical Fumble Deck #31",
    "permission": {
        "default": 0
    }
}
