{
    "_id": "lAPaa4MtkDZy6nZN",
    "content": "<table class=\"pf2-table\">\n<thead>\n<tr>\n<th>\n<h3><strong>Name</strong></h3>\n</th>\n<th>\n<h3><strong>Crit Effect</strong></h3>\n</th>\n<th>\n<h3><strong>Type</strong></h3>\n</th>\n</tr>\n</thead>\n<tbody>\n<tr>\n<td>\n<h3>Armor Dent</h3>\n</td>\n<td>\n<h3>Normal damage. Deal the same amount of damage to the target's armor, ignoring that armor's Hardness.</h3>\n</td>\n<td>\n<h3>Bludgeoning</h3>\n</td>\n</tr>\n<tr>\n<td>\n<h3>Eye patch for you</h3>\n</td>\n<td>\n<h3>Triple damage. The target is dazzled until healed.</h3>\n</td>\n<td>\n<h3>Piercing</h3>\n</td>\n</tr>\n<tr>\n<td>\n<h3>Flat-Blade Thwack</h3>\n</td>\n<td>\n<h3>Triple damage. You can deal bludgeoning damage instead of slashing damage.</h3>\n</td>\n<td>\n<h3>Slashing</h3>\n</td>\n</tr>\n<tr>\n<td>\n<h3>Magical Glow</h3>\n</td>\n<td>\n<h3>The target glows for 1 minute with the effect of a faerie fire spell.</h3>\n</td>\n<td>\n<h3>Bomb or Spell</h3>\n</td>\n</tr>\n</tbody>\n</table>\n<h3 style=\"text-align: left;\"> </h3>",
    "flags": {},
    "name": "Critical Hit Deck #38",
    "permission": {
        "default": 0
    }
}
