{
    "_id": "EP333dUdoJ8xdkzq",
    "content": "<table class=\"pf2-table\">\n<thead>\n<tr>\n<th>\n<h3><strong>Name</strong></h3>\n</th>\n<th>\n<h3><strong>Crit Effect</strong></h3>\n</th>\n<th>\n<h3><strong>Type</strong></h3>\n</th>\n</tr>\n</thead>\n<tbody>\n<tr>\n<td>Bad Grip</td>\n<td>You take a -2 circumstance penalty to attack rolls with this weapon until the end of your next turn.</td>\n<td>\n<h3>Melee</h3>\n</td>\n</tr>\n<tr>\n<td>Huh?</td>\n<td><span style=\"color: #191813;\">You are </span>@Compendium[pf2e.conditionitems.Confused]{Confused}</td>\n<td>\n<h3>Ranged</h3>\n</td>\n</tr>\n<tr>\n<td>Eye Strain</td>\n<td>You are dazzled until the end of your next turn.</td>\n<td>\n<h3>Unarmed</h3>\n</td>\n</tr>\n<tr>\n<td>Blastoff</td>\n<td>You must succeed at a Will saving throw or be thrown 1d6x5 feet into the air (or in a random direction determined by the GM if you are flying).</td>\n<td>\n<h3>Spell</h3>\n</td>\n</tr>\n</tbody>\n</table>\n<h3 style=\"text-align: left;\"> </h3>",
    "flags": {},
    "name": "Critical Fumble Deck #5",
    "permission": {
        "default": 0
    }
}
