{
    "_id": "LHEI3E4THLsz0rr0",
    "data": {
        "abilities": {
            "cha": {
                "mod": -2
            },
            "con": {
                "mod": 4
            },
            "dex": {
                "mod": 0
            },
            "int": {
                "mod": -5
            },
            "str": {
                "mod": 8
            },
            "wis": {
                "mod": 1
            }
        },
        "attributes": {
            "ac": {
                "details": "",
                "value": 24
            },
            "allSaves": {
                "value": ""
            },
            "hp": {
                "details": "negative healing",
                "max": 200,
                "temp": 0,
                "value": 200
            },
            "initiative": {
                "ability": "perception"
            },
            "perception": {
                "value": 11
            },
            "speed": {
                "otherSpeeds": [],
                "value": "25"
            }
        },
        "details": {
            "alignment": {
                "value": "NE"
            },
            "blurb": "Variant zombie hulk",
            "creatureType": "Undead",
            "level": {
                "value": 8
            },
            "privateNotes": "",
            "publicNotes": "<p>These towering horrors are animated from the corpses of monstrosities.</p>\n<hr />\n<p>A zombie's only desire is to consume the living. Unthinking and ever-shambling harbingers of death, zombies stop only when they're destroyed.</p>",
            "source": {
                "value": "Pathfinder Society Scenario #3-09: The Secluded Siege"
            }
        },
        "resources": {},
        "saves": {
            "fortitude": {
                "saveDetail": "",
                "value": 18
            },
            "reflex": {
                "saveDetail": "",
                "value": 12
            },
            "will": {
                "saveDetail": "",
                "value": 15
            }
        },
        "traits": {
            "ci": [],
            "di": {
                "custom": "",
                "value": [
                    "death-effects",
                    "disease",
                    "mental",
                    "paralyzed",
                    "poison",
                    "unconscious"
                ]
            },
            "dr": [],
            "dv": [
                {
                    "label": "Positive",
                    "type": "positive",
                    "value": "10"
                },
                {
                    "label": "Slashing",
                    "type": "slashing",
                    "value": "10"
                }
            ],
            "languages": {
                "custom": "",
                "selected": [],
                "value": []
            },
            "rarity": "uncommon",
            "senses": {
                "value": "darkvision"
            },
            "size": {
                "value": "huge"
            },
            "traits": {
                "custom": "",
                "value": [
                    "undead",
                    "zombie"
                ]
            }
        }
    },
    "effects": [],
    "flags": {},
    "img": "systems/pf2e/icons/default-icons/npc.svg",
    "items": [
        {
            "_id": "whmcy3nyapkaz90s",
            "data": {
                "active": true,
                "alsoApplies": {
                    "linked": [],
                    "unlinked": []
                },
                "base": "Slowed",
                "description": {
                    "value": "<p>You have fewer actions. Slowed always includes a value. When you regain your actions at the start of your turn, reduce the number of actions you regain by your slowed value. Because slowed has its effect at the start of your turn, you don't immediately lose actions if you become slowed during your turn.</p>"
                },
                "duration": {
                    "perpetual": true,
                    "text": "",
                    "value": 0
                },
                "group": "",
                "hud": {
                    "img": {
                        "useStatusName": true,
                        "value": "systems/pf2e/icons/conditions-2/slowed.webp"
                    },
                    "selectable": true,
                    "statusName": "slowed"
                },
                "modifiers": [],
                "overrides": [],
                "references": {
                    "children": [],
                    "immunityFrom": [],
                    "overriddenBy": [],
                    "overrides": []
                },
                "removable": true,
                "rules": [],
                "slug": "slowed",
                "source": {
                    "value": ""
                },
                "sources": {
                    "hud": true,
                    "values": []
                },
                "traits": {
                    "custom": "",
                    "rarity": "common",
                    "value": []
                },
                "value": {
                    "immutable": false,
                    "isValued": true,
                    "modifiers": [],
                    "value": 1
                }
            },
            "effects": [],
            "flags": {
                "core": {
                    "sourceId": "Compendium.pf2e.conditionitems.xYTAsEpcJE1Ccni3"
                },
                "pf2e": {
                    "condition": true
                }
            },
            "img": "systems/pf2e/icons/conditions/slowed.webp",
            "name": "Slowed",
            "sort": 100000,
            "type": "condition"
        },
        {
            "_id": "u0GbWrE4hwJyEA08",
            "data": {
                "attack": {
                    "value": ""
                },
                "attackEffects": {
                    "value": []
                },
                "bonus": {
                    "value": 20
                },
                "damageRolls": {
                    "h93snjqhv0gmnq3yitdy": {
                        "damage": "2d10+13",
                        "damageType": "bludgeoning"
                    }
                },
                "description": {
                    "value": ""
                },
                "rules": [],
                "slug": null,
                "source": {
                    "value": ""
                },
                "traits": {
                    "custom": "",
                    "rarity": "common",
                    "value": [
                        "reach-15"
                    ]
                },
                "weaponType": {
                    "value": "melee"
                }
            },
            "effects": [],
            "flags": {},
            "img": "systems/pf2e/icons/default-icons/melee.svg",
            "name": "Hunk Of Meat",
            "sort": 200000,
            "type": "melee"
        },
        {
            "_id": "bftpGvdJeX5iLTfn",
            "data": {
                "attack": {
                    "value": ""
                },
                "attackEffects": {
                    "value": []
                },
                "bonus": {
                    "value": 12
                },
                "damageRolls": {
                    "vq85o4z1y2ey85koh914": {
                        "damage": "2d10+13",
                        "damageType": "bludgeoning"
                    }
                },
                "description": {
                    "value": ""
                },
                "rules": [],
                "slug": null,
                "source": {
                    "value": ""
                },
                "traits": {
                    "custom": "",
                    "rarity": "common",
                    "value": [
                        "thrown-10"
                    ]
                },
                "weaponType": {
                    "value": "ranged"
                }
            },
            "effects": [],
            "flags": {},
            "img": "systems/pf2e/icons/default-icons/melee.svg",
            "name": "Hunk Of Meat",
            "sort": 300000,
            "type": "melee"
        },
        {
            "_id": "qGnxEwt7F2yY8OvT",
            "data": {
                "attack": {
                    "value": ""
                },
                "attackEffects": {
                    "value": []
                },
                "bonus": {
                    "value": 20
                },
                "damageRolls": {
                    "zng6jp2eorphiyyhpzd0": {
                        "damage": "2d6+13",
                        "damageType": "bludgeoning"
                    }
                },
                "description": {
                    "value": ""
                },
                "rules": [],
                "slug": null,
                "source": {
                    "value": ""
                },
                "traits": {
                    "custom": "",
                    "rarity": "common",
                    "value": [
                        "brutal",
                        "range-increment-30"
                    ]
                },
                "weaponType": {
                    "value": "ranged"
                }
            },
            "effects": [],
            "flags": {},
            "img": "systems/pf2e/icons/default-icons/melee.svg",
            "name": "Corpse",
            "sort": 400000,
            "type": "melee"
        },
        {
            "_id": "peHpZeJ7VwkuSurw",
            "data": {
                "actionCategory": {
                    "value": "interaction"
                },
                "actionType": {
                    "value": "passive"
                },
                "actions": {
                    "value": null
                },
                "description": {
                    "value": "<p>@Localize[PF2E.NPC.Abilities.Glossary.Darkvision]</p>"
                },
                "requirements": {
                    "value": ""
                },
                "rules": [],
                "slug": "darkvision",
                "source": {
                    "value": ""
                },
                "traits": {
                    "custom": "",
                    "rarity": "common",
                    "value": []
                },
                "trigger": {
                    "value": ""
                },
                "weapon": {
                    "value": ""
                }
            },
            "effects": [],
            "flags": {
                "core": {
                    "sourceId": "Compendium.pf2e.bestiary-ability-glossary-srd.qCCLZhnp2HhP3Ex6"
                }
            },
            "img": "systems/pf2e/icons/actions/Passive.webp",
            "name": "Darkvision",
            "sort": 500000,
            "type": "action"
        },
        {
            "_id": "krfSpMKEHiRuhWk5",
            "data": {
                "actionCategory": {
                    "value": "interaction"
                },
                "actionType": {
                    "value": "passive"
                },
                "actions": {
                    "value": null
                },
                "description": {
                    "value": "<p>The first time the enduring zombie hulk is critically hit with a melee or ranged Strike, a limb falls off its body and continues to attack. The limb acts on the zombie's initiative; each round it can Stride up to half the zombie's Speed and make a hunk of meat or corpse Strike. The limb uses and contributes to the zombie hulk's multiple attack penalty.</p>"
                },
                "requirements": {
                    "value": ""
                },
                "rules": [],
                "slug": null,
                "source": {
                    "value": ""
                },
                "traits": {
                    "custom": "",
                    "rarity": "common",
                    "value": []
                },
                "trigger": {
                    "value": ""
                }
            },
            "effects": [],
            "flags": {},
            "img": "systems/pf2e/icons/actions/Passive.webp",
            "name": "Persistent Limbs",
            "sort": 600000,
            "type": "action"
        },
        {
            "_id": "TBlBPLZKvFBHjjgU",
            "data": {
                "actionCategory": {
                    "value": "interaction"
                },
                "actionType": {
                    "value": "passive"
                },
                "actions": {
                    "value": null
                },
                "description": {
                    "value": "<p>A zombie is permanently slowed 1 and can't use reactions.</p>"
                },
                "requirements": {
                    "value": ""
                },
                "rules": [],
                "slug": null,
                "source": {
                    "value": ""
                },
                "traits": {
                    "custom": "",
                    "rarity": "common",
                    "value": []
                },
                "trigger": {
                    "value": ""
                },
                "weapon": {
                    "value": ""
                }
            },
            "effects": [],
            "flags": {},
            "img": "systems/pf2e/icons/actions/Passive.webp",
            "name": "Slow",
            "sort": 700000,
            "type": "action"
        },
        {
            "_id": "27wudVSiScZejHwt",
            "data": {
                "actionCategory": {
                    "value": "defensive"
                },
                "actionType": {
                    "value": "passive"
                },
                "actions": {
                    "value": null
                },
                "description": {
                    "value": "<p>@Localize[PF2E.NPC.Abilities.Glossary.NegativeHealing]</p>"
                },
                "requirements": {
                    "value": ""
                },
                "rules": [
                    {
                        "key": "ActiveEffectLike",
                        "mode": "override",
                        "path": "data.attributes.hp.negativeHealing",
                        "value": true
                    }
                ],
                "slug": "negative-healing",
                "source": {
                    "value": ""
                },
                "traits": {
                    "custom": "",
                    "rarity": "common",
                    "value": []
                },
                "trigger": {
                    "value": ""
                },
                "weapon": {
                    "value": ""
                }
            },
            "effects": [],
            "flags": {
                "core": {
                    "sourceId": "Compendium.pf2e.bestiary-ability-glossary-srd.TTCw5NusiSSkJU1x"
                }
            },
            "img": "systems/pf2e/icons/actions/Passive.webp",
            "name": "Negative Healing",
            "sort": 800000,
            "type": "action"
        },
        {
            "_id": "iTAZj4rMOPRWWJDP",
            "data": {
                "actionCategory": {
                    "value": "offensive"
                },
                "actionType": {
                    "value": "passive"
                },
                "actions": {
                    "value": null
                },
                "description": {
                    "value": "<p>A zombie hulk can throw corpses at foes. While any Medium dead body will do, they sometimes throw @Compendium[pf2e.pathfinder-bestiary.Zombie Shambler]{Zombie Shamblers}, who take just as much damage from being thrown as the target they hit. A thrown shambler lands @Compendium[pf2e.conditionitems.Prone]{Prone}, but if it's not destroyed, it can rise and use other actions normally.</p>"
                },
                "requirements": {
                    "value": ""
                },
                "rules": [],
                "slug": null,
                "source": {
                    "value": ""
                },
                "traits": {
                    "custom": "",
                    "rarity": "common",
                    "value": []
                },
                "trigger": {
                    "value": ""
                },
                "weapon": {
                    "value": ""
                }
            },
            "effects": [],
            "flags": {},
            "img": "systems/pf2e/icons/actions/Passive.webp",
            "name": "Corpse Throwing",
            "sort": 900000,
            "type": "action"
        },
        {
            "_id": "GsV4ANLJyoNSzwOX",
            "data": {
                "actionCategory": {
                    "value": "offensive"
                },
                "actionType": {
                    "value": "action"
                },
                "actions": {
                    "value": 2
                },
                "description": {
                    "value": "<p>If the enduring zombie hulk is adjacent to a helpless or @Compendium[pf2e.conditionitems.Unconscious]{Unconscious} creature, or a deceased creature that died in the past hour, the zombie hulk can feast upon its flesh to heal itself. This restores [[/r {8}[healing]]]{8 Hit Points} to the zombie hulk and deals the creature [[/r {2d10+13}[bludgeoning]]]{2d10+13 bludgeoning damage}.</p>"
                },
                "requirements": {
                    "value": ""
                },
                "rules": [],
                "slug": null,
                "source": {
                    "value": ""
                },
                "traits": {
                    "custom": "",
                    "rarity": "common",
                    "value": [
                        "manipulate"
                    ]
                },
                "trigger": {
                    "value": ""
                }
            },
            "effects": [],
            "flags": {},
            "img": "systems/pf2e/icons/actions/TwoActions.webp",
            "name": "Feast",
            "sort": 1000000,
            "type": "action"
        },
        {
            "_id": "DTXq4teaiLU9haNE",
            "data": {
                "actionCategory": {
                    "value": "offensive"
                },
                "actionType": {
                    "value": "action"
                },
                "actions": {
                    "value": 1
                },
                "description": {
                    "value": "<p>The zombie hulk makes a hunk of meat Strike and compares the attack roll result to the AC of up to two foes, each of whom must be within the Strike's reach. This attack counts as two attacks for the zombie hulk's multiple attack penalty.</p>"
                },
                "requirements": {
                    "value": ""
                },
                "rules": [],
                "slug": null,
                "source": {
                    "value": ""
                },
                "traits": {
                    "custom": "",
                    "rarity": "common",
                    "value": []
                },
                "trigger": {
                    "value": ""
                },
                "weapon": {
                    "value": ""
                }
            },
            "effects": [],
            "flags": {},
            "img": "systems/pf2e/icons/actions/OneAction.webp",
            "name": "Wide Swing",
            "sort": 1100000,
            "type": "action"
        },
        {
            "_id": "afeMcOgtbLBWvPs8",
            "data": {
                "description": {
                    "value": ""
                },
                "mod": {
                    "value": 21
                },
                "proficient": {
                    "value": 0
                },
                "rules": [],
                "slug": null,
                "source": {
                    "value": ""
                },
                "traits": {
                    "custom": "",
                    "rarity": "common",
                    "value": []
                }
            },
            "effects": [],
            "flags": {},
            "img": "systems/pf2e/icons/default-icons/lore.svg",
            "name": "Athletics",
            "sort": 1200000,
            "type": "lore"
        }
    ],
    "name": "Enduring Zombie Hulk",
    "token": {
        "disposition": -1,
        "height": 3,
        "img": "systems/pf2e/icons/default-icons/npc.svg",
        "name": "Enduring Zombie Hulk",
        "width": 3
    },
    "type": "npc"
}
