{
    "_id": "b3h3QqvwS5fnaiu1",
    "data": {
        "actionCategory": {
            "value": "offensive"
        },
        "actionType": {
            "value": "reaction"
        },
        "actions": {
            "value": null
        },
        "description": {
            "value": "<p><strong>Trigger</strong> A creature within 30 feet Casts a Spell that has a verbal component or Activates an Item using a command Activation</p>\n<p><strong>Effect</strong> You set off a firework to explode with a loud screech near the creature. The creature must attempt a Will save.</p>\n<hr />\n<p><strong>Success</strong> The creature is unaffected.</p>\n<p><strong>Failure</strong> The creature must use an additional action on the triggering action or activity, or it's disrupted.</p>\n<p><strong>Critical Failure</strong> The triggering action is disrupted.</p>"
        },
        "requirements": {
            "value": ""
        },
        "rules": [],
        "source": {
            "value": ""
        },
        "traits": {
            "custom": "",
            "rarity": "common",
            "value": []
        },
        "trigger": {
            "value": ""
        }
    },
    "effects": [],
    "flags": {},
    "img": "systems/pf2e/icons/actions/Reaction.webp",
    "name": "Banshee Cry",
    "type": "action"
}
