{
    "_id": "k5TASjIxghvGCy7g",
    "data": {
        "actionCategory": {
            "value": "interaction"
        },
        "actionType": {
            "value": "free"
        },
        "actions": {
            "value": null
        },
        "description": {
            "value": "<p>Given by Rite of Knowing</p>\n<p><strong>Frequency</strong> once per day</p>\n<p><strong>Requirements</strong> You are about to attempt a check to Recall Knowledge. You call upon the knowledge of Axis to ensure the accuracy of your information. You roll a second time and use the higher result. If you roll a critical failure, you get a failure instead. If you roll a success, you get a critical success instead.</p>"
        },
        "requirements": {
            "value": ""
        },
        "rules": [],
        "source": {
            "value": "Pathfinder Lost Omens: The Mwangi Expanse"
        },
        "traits": {
            "custom": "",
            "rarity": "common",
            "value": [
                "fortune"
            ]
        },
        "trigger": {
            "value": ""
        },
        "weapon": {
            "value": ""
        }
    },
    "effects": [],
    "flags": {},
    "img": "systems/pf2e/icons/actions/FreeAction.webp",
    "name": "Call to Axis",
    "type": "action"
}
