{
    "_id": "K878asDgf1EF0B9S",
    "data": {
        "actionCategory": {
            "value": ""
        },
        "actionType": {
            "value": "action"
        },
        "actions": {
            "value": null
        },
        "description": {
            "value": "<p>You make an incredibly graceful attack, piercing your foe's Strike with a weapon or unarmed attack that would apply your precise strike damage, with the following failure effect.</p>\n<hr />\n<p><strong>Failure</strong> You deal half your @Compendium[pf2e.classfeatures.Precise Strike]{Precise Strike} damage to the target. This damage type is that of the weapon or unarmed attack you used for the Strike.</p>"
        },
        "requirements": {
            "value": ""
        },
        "rules": [],
        "source": {
            "value": "Pathfinder Advanced Player's Guide"
        },
        "traits": {
            "custom": "",
            "rarity": "common",
            "value": []
        },
        "trigger": {
            "value": ""
        },
        "weapon": {
            "value": ""
        }
    },
    "effects": [],
    "flags": {},
    "img": "systems/pf2e/icons/actions/OneAction.webp",
    "name": "Confident Finisher",
    "type": "action"
}
