{
    "_id": "iBf9uGn5LOHkWpZ6",
    "data": {
        "actionCategory": {
            "value": "interaction"
        },
        "actionType": {
            "value": "passive"
        },
        "actions": {
            "value": null
        },
        "description": {
            "value": "<p><strong>Requirements</strong> Legendary in Crafting</p>\n<hr />\n<p>You use legendary Vudran techniques to craft a disharmonic instrument that incorporates pieces of Kothogaz's heart. This is likely a tanpura, but legends mention other instruments and even voice enhancers. A disharmonic instrument is a virtuoso musical instrument.</p>\n<p>This activity requires seven disharmonic heartslivers, the formula for a disharmonic instrument, 55,000 gp worth of rare materials, and 7 days of work. At the end of the 7 days, attempt a @Check[type:crafting|dc:40|traits:action:craft] check to Craft.</p>\n<hr />\n<p><strong>Critical Success</strong> You masterfully complete the disharmonic instrument. Holding the instrument grants immunity to Kothogaz's tympanic heartbeat and many-eyed blight.</p>\n<p><strong>Success</strong> You complete the disharmonic instrument.</p>\n<p><strong>Failure</strong> You don't complete the disharmonic instrument, and you contract many-eyed blight from the heartslivers.</p>\n<p><strong>Critical Failure</strong> As failure, and whenever you're on the same plane as Kothogaz, it can immediately teleport to you with its Disharmonic Door ability.</p>"
        },
        "requirements": {
            "value": ""
        },
        "rules": [],
        "source": {
            "value": "Pathfinder Lost Omens: Monsters of Myth"
        },
        "traits": {
            "custom": "",
            "rarity": "common",
            "value": [
                "downtime",
                "manipulate"
            ]
        },
        "trigger": {
            "value": ""
        }
    },
    "effects": [],
    "flags": {},
    "img": "systems/pf2e/icons/actions/Passive.webp",
    "name": "Craft Disharmonic Instrument",
    "type": "action"
}
