{
    "_id": "m0f2B7G9eaaTmhFL",
    "data": {
        "actionCategory": {
            "value": ""
        },
        "actionType": {
            "value": "action"
        },
        "actions": {
            "value": 1
        },
        "description": {
            "value": "<p><strong>Frequency</strong> once per round</p>\n<hr />\n<p>You assess a foe's weaknesses in combat and use them to formulate a plan of attack against your enemy. Choose a creature you can see, and roll a d20. If you Strike the chosen creature later this round, you must use the result of the roll you made to Devise a Stratagem for your Strike's attack roll instead of rolling. You make this substitution only for the first Strike you make against the creature this round, not any subsequent attacks.</p>\n<p>When you make this substitution, you can also add your Intelligence modifier to your attack roll instead of your Strength or Dexterity modifier, provided your Strike uses an agile or finesse melee weapon, an agile or finesse unarmed attack, a ranged weapon (which must be agile or finesse if it's a melee weapon with the thrown trait) or @Compendium[pf2e.equipment-srd.Sap]{Sap}.</p>\n<p>If you're aware that the creature you choose is the subject of a lead you're pursuing, you can use this ability as a free action.</p>"
        },
        "requirements": {
            "value": ""
        },
        "rules": [],
        "source": {
            "value": "Pathfinder Advanced Player's Guide"
        },
        "traits": {
            "custom": "",
            "rarity": "common",
            "value": [
                "concentrate",
                "fortune",
                "investigator"
            ]
        },
        "trigger": {
            "value": ""
        },
        "weapon": {
            "value": ""
        }
    },
    "effects": [],
    "flags": {},
    "img": "systems/pf2e/icons/actions/OneAction.webp",
    "name": "Devise a Stratagem",
    "type": "action"
}
