{
    "_id": "h4Tzdhqfryp5m2fO",
    "data": {
        "actionCategory": {
            "value": "offensive"
        },
        "actionType": {
            "value": "reaction"
        },
        "actions": {
            "value": null
        },
        "description": {
            "value": "<p><strong>Requirements</strong> You're inside Kothogaz's body.</p>\n<hr />\n<p>You attempt to steal a section of Kothogaz's heart. Attempt an attack roll or a @Check[type:acrobatics|dc:40], @Check[type:athletics|dc:40], @Check[type:medicine|dc:40], @Check[type:nature|dc:40], @Check[type:occultism|dc:40], or @Check[type:religion|dc:40] check.</p>\n<hr />\n<p><strong>Critical Success</strong> You steal a small disharmonic heartsliver, stow it on your person, and can exit Kothogaz's body.</p>\n<p><strong>Success</strong> As critical success, but you can't exit.</p>\n<p><strong>Failure</strong> You take Kothogaz's Swallow Whole damage.</p>\n<p><strong>Critical Failure</strong> You take double Kothogaz's Swallow Whole damage and are @Compendium[pf2e.conditionitems.Deafened]{Deafened} by its heartbeat for 1 minute.</p>"
        },
        "requirements": {
            "value": ""
        },
        "rules": [],
        "source": {
            "value": "Pathfinder Lost Omens: Monsters of Myth"
        },
        "traits": {
            "custom": "",
            "rarity": "rare",
            "value": [
                "manipulate"
            ]
        },
        "trigger": {
            "value": ""
        }
    },
    "effects": [],
    "flags": {},
    "img": "systems/pf2e/icons/actions/Reaction.webp",
    "name": "Harvest Heartsliver",
    "type": "action"
}
