{
    "_id": "CIqiFw9rqYnuzggq",
    "data": {
        "actionCategory": {
            "value": "interaction"
        },
        "actionType": {
            "value": "passive"
        },
        "actions": {
            "value": null
        },
        "description": {
            "value": "<p><strong>Requirement</strong> You are a conversant or lore-speaker.</p>\n<hr />\n<p>You identify something interesting in the field and perform special research on it. This requires an appropriate check, which the GM will describe when the opportunity arises. The results of the check vary. While they typically include all the benefits of the Study activity, some opportunities for Practical Research also offer unique benefits, such as access to new character options.</p>"
        },
        "requirements": {
            "value": ""
        },
        "rules": [],
        "source": {
            "value": "Pathfinder #169: Kindled Magic"
        },
        "traits": {
            "custom": "",
            "rarity": "common",
            "value": [
                "downtime"
            ]
        },
        "trigger": {
            "value": ""
        },
        "weapon": {
            "value": ""
        }
    },
    "effects": [],
    "flags": {},
    "img": "systems/pf2e/icons/actions/Passive.webp",
    "name": "Practical Research",
    "type": "action"
}
