{
    "_id": "EhLvRWFKhZ3HtrZO",
    "data": {
        "actionCategory": {
            "value": ""
        },
        "actionType": {
            "value": "free"
        },
        "actions": {
            "value": null
        },
        "description": {
            "value": "<p>You spend 10 minutes using techniques you've developed to calm your emotions and bring them back under control. This allows you to access your @Compendium[pf2e.actionspf2e.Catharsis]{Catharsis} again.</p>"
        },
        "requirements": {
            "value": ""
        },
        "rules": [],
        "source": {
            "value": ""
        },
        "traits": {
            "custom": "",
            "rarity": "common",
            "value": [
                "concentrate",
                "emotion",
                "mental"
            ]
        },
        "trigger": {
            "value": ""
        },
        "weapon": {
            "value": ""
        }
    },
    "effects": [],
    "flags": {},
    "img": "systems/pf2e/icons/actions/FreeAction.webp",
    "name": "Settle Emotions",
    "type": "action"
}
