{
    "_id": "AJx8i8QX35vsG5Q4",
    "data": {
        "description": {
            "value": ""
        },
        "duration": {
            "expiry": "turn-start",
            "sustained": false,
            "unit": "unlimited",
            "value": -1
        },
        "level": {
            "value": 1
        },
        "rules": [
            {
                "key": "FlatModifier",
                "label": "Stonethroat Ammunition (Success)",
                "selector": "athletics",
                "type": "status",
                "value": -2
            },
            {
                "key": "FlatModifier",
                "label": "Stonethroat Ammunition (Success)",
                "selector": "jaws-attack",
                "type": "status",
                "value": -2
            },
            {
                "key": "FlatModifier",
                "label": "Stonethroat Ammunition (Success)",
                "selector": "fangs-attack",
                "type": "status",
                "value": -2
            }
        ],
        "source": {
            "value": ""
        },
        "start": {
            "initiative": null,
            "value": 0
        },
        "target": null,
        "tokenIcon": {
            "show": false
        },
        "traits": {
            "custom": "",
            "rarity": "common",
            "value": []
        }
    },
    "effects": [],
    "flags": {},
    "img": "systems/pf2e/icons/default-icons/effect.svg",
    "name": "Effect: Stonethroat Ammunition (Success)",
    "type": "effect"
}
