{
    "_id": "FOZXp7QQDnny1600",
    "data": {
        "description": {
            "value": "<p>You gain resistance 5 to fire and cold for 1 minute.</p>"
        },
        "duration": {
            "expiry": "turn-end",
            "sustained": false,
            "unit": "minutes",
            "value": 1
        },
        "level": {
            "value": 7
        },
        "rules": [
            {
                "key": "Resistance",
                "type": "fire",
                "value": 5
            },
            {
                "key": "Resistance",
                "type": "cold",
                "value": 5
            }
        ],
        "source": {
            "value": ""
        },
        "start": {
            "initiative": null,
            "value": 0
        },
        "target": null,
        "tokenIcon": {
            "show": true
        },
        "traits": {
            "custom": "",
            "rarity": "common",
            "value": []
        }
    },
    "effects": [],
    "flags": {},
    "img": "systems/pf2e/icons/default-icons/effect.svg",
    "name": "Effect: Fire and Iceberg",
    "type": "effect"
}
