{
    "_id": "oiO3cQfqp8MuxR82",
    "data": {
        "description": {
            "value": "<p>For 1 minute, the <em>major blast boots</em> remain active, allowing you to clumsily fly through the air for the duration. You gain a 30-foot Fly speed for the duration, but any time you @Compendium[pf2e.actionspf2e.Fly]{Fly}, you are @Compendium[pf2e.conditionitems.Clumsy]{Clumsy 1} until the start of your next turn.</p>"
        },
        "duration": {
            "expiry": "turn-start",
            "sustained": false,
            "unit": "minutes",
            "value": 1
        },
        "level": {
            "value": 1
        },
        "rules": [
            {
                "key": "BaseSpeed",
                "selector": "fly",
                "value": 30
            }
        ],
        "source": {
            "value": "Pathfinder Guns & Gears"
        },
        "start": {
            "initiative": null,
            "value": 0
        },
        "target": null,
        "tokenIcon": {
            "show": true
        },
        "traits": {
            "custom": "",
            "rarity": "common",
            "value": []
        }
    },
    "effects": [],
    "flags": {},
    "img": "systems/pf2e/icons/default-icons/effect.svg",
    "name": "Effect: Blast Boots (Major)",
    "type": "effect"
}
