{
    "_id": "7dLsA9PAb5ij7Bc6",
    "data": {
        "description": {
            "value": "<p>Granted by using @Compendium[pf2e.equipment-srd.Dueling Cape]{Dueling Cape}</p>\n<hr />\n<p>Automatically applied effects:</p>\n<ul>\n<li>+1 circumstance bonus to Feint</li>\n<li>+1 circumstance bonus to AC</li>\n</ul>"
        },
        "duration": {
            "expiry": "turn-start",
            "sustained": false,
            "unit": "unlimited",
            "value": -1
        },
        "level": {
            "value": 0
        },
        "rules": [
            {
                "key": "FlatModifier",
                "label": "Dueling Cape (Feint)",
                "predicate": {
                    "all": [
                        "action:feint"
                    ]
                },
                "selector": "deception",
                "type": "circumstance",
                "value": 1
            },
            {
                "key": "FlatModifier",
                "selector": "ac",
                "type": "circumstance",
                "value": 1
            }
        ],
        "source": {
            "value": ""
        },
        "start": {
            "initiative": null,
            "value": 0
        },
        "target": null,
        "tokenIcon": {
            "show": true
        },
        "traits": {
            "custom": "",
            "rarity": "common",
            "value": []
        }
    },
    "effects": [],
    "flags": {},
    "img": "systems/pf2e/icons/equipment/adventuring-gear/dueling-cape.webp",
    "name": "Effect: Dueling Cape",
    "type": "effect"
}
