{
    "_id": "Ja3PlqLuD9aSaPNZ",
    "data": {
        "description": {
            "value": "<p>For 1 hour after consumption, you gain a +3 item bonus to saves against death and negative effects.</p>"
        },
        "duration": {
            "expiry": "turn-end",
            "sustained": false,
            "unit": "hours",
            "value": 1
        },
        "level": {
            "value": 14
        },
        "rules": [
            {
                "key": "FlatModifier",
                "label": "Greater Brewer's Regret",
                "predicate": {
                    "any": [
                        "death",
                        "negative"
                    ]
                },
                "selector": "saving-throw",
                "type": "item",
                "value": 3
            }
        ],
        "source": {
            "value": ""
        },
        "start": {
            "initiative": null,
            "value": 0
        },
        "target": null,
        "tokenIcon": {
            "show": false
        },
        "traits": {
            "custom": "",
            "rarity": "common",
            "value": []
        }
    },
    "effects": [],
    "flags": {},
    "img": "systems/pf2e/icons/default-icons/effect.svg",
    "name": "Effect: Brewer's Regret (Greater)",
    "type": "effect"
}
