{
    "_id": "Wk4HyaZtC1j221i1",
    "data": {
        "ancestry": {
            "name": "Kitsune",
            "uuid": "Compendium.pf2e.ancestries.4BL5wf1VF9feC2rY"
        },
        "description": {
            "value": "<p>You are a creature of the material world, with an affinity closer to the wilds than urban society. You gain a jaws unarmed attack that deals [[/r {1d6}[piercing]]]{1d6 piercing damage}. Your jaws are in the brawling group and have the finesse and unarmed traits. Your alternate form is a fox, which has the statistics of 1st‑level <em>@Compendium[pf2e.spells-srd.Pest Form]{Pest Form}</em>.</p>"
        },
        "rules": [
            {
                "category": "unarmed",
                "damage": {
                    "base": {
                        "damageType": "piercing",
                        "dice": 1,
                        "die": "d6"
                    }
                },
                "group": "brawling",
                "key": "Strike",
                "label": "PF2E.Weapon.Base.jaws",
                "range": null,
                "traits": [
                    "finesse",
                    "unarmed"
                ]
            }
        ],
        "source": {
            "value": ""
        },
        "traits": {
            "custom": "",
            "rarity": "common",
            "value": []
        }
    },
    "effects": [],
    "flags": {},
    "img": "systems/pf2e/icons/default-icons/heritage.svg",
    "name": "Earthly Wilds Kitsune",
    "type": "heritage"
}
