{
    "_id": "PwxbD5VSJ0Yroqvp",
    "data": {
        "ancestry": {
            "name": "Fetchling",
            "uuid": "Compendium.pf2e.ancestries.hIA3qiUsxvLZXrFP"
        },
        "description": {
            "value": "<p>You come from a line of fetchlings with a closer connection to the Ethereal and Shadow Planes, and you share those realms' affinity with the in-between and unseen. You gain a +1 circumstance bonus to locate @Compendium[pf2e.conditionitems.Undetected]{Undetected} creatures within 60 feet when using the Seek action. Your flat check to target @Compendium[pf2e.conditionitems.Concealed]{Concealed} creatures is DC 3 instead of DC 5, and your flat check to target undetected creatures is DC 9 instead of DC 11.</p>"
        },
        "rules": [
            {
                "key": "FlatModifier",
                "label": "To Seek undetected within 60 feet (Liminal Fetchling)",
                "predicate": {
                    "all": [
                        "action:seek",
                        "target:condition:undetected",
                        "target:within-60"
                    ]
                },
                "selector": "perception",
                "type": "circumstance",
                "value": 2
            }
        ],
        "source": {
            "value": ""
        },
        "traits": {
            "custom": "",
            "rarity": "common",
            "value": []
        }
    },
    "effects": [],
    "flags": {},
    "img": "systems/pf2e/icons/default-icons/heritage.svg",
    "name": "Liminal Fetchling",
    "type": "heritage"
}
