{
    "_id": "eFsD7W6hnK33jlDQ",
    "data": {
        "ancestry": {
            "name": "Ratfolk",
            "uuid": "Compendium.pf2e.ancestries.P6PcVnCkh4XMdefw"
        },
        "description": {
            "value": "<p>You come from a long line of ysoki from a community based in the sewers beneath a large settlement. You are immune to the disease filth fever. Each of your successful saving throws against a disease or poison reduces its stage by 2, or by 1 for a virulent disease or poison. Each critical success against an ongoing disease or poison reduces its stage by 3, or by 2 for a virulent disease or poison.</p>"
        },
        "rules": [
            {
                "key": "Note",
                "predicate": {
                    "any": [
                        "disease",
                        "poison"
                    ]
                },
                "selector": "saving-throw",
                "text": "<p class='compact-text'><strong>{item|name}</strong> Your succesful saving throws against a disease or poison reduce its stage by 2 (or 1 for a virulent disease or poison). Each critical success reduces its stage by 3 (or 2 for a virulent disease or poison).</p>"
            }
        ],
        "source": {
            "value": ""
        },
        "traits": {
            "custom": "",
            "rarity": "common",
            "value": []
        }
    },
    "effects": [],
    "flags": {},
    "img": "systems/pf2e/icons/features/ancestry/sewer-rat.webp",
    "name": "Sewer Rat",
    "type": "heritage"
}
