{
    "_id": "d0bNxgGqvaCkFlhN",
    "data": {
        "ancestry": {
            "name": "Gnome",
            "uuid": "Compendium.pf2e.ancestries.CYlfsYLJcBOgqKtD"
        },
        "description": {
            "value": "<p>Whether from a connection to dark or shadowy fey, from the underground deep gnomes also known as svirfneblin, or another source, you can see in complete darkness. You gain @Compendium[pf2e.ancestryfeatures.Darkvision]{Darkvision}.</p>"
        },
        "rules": [
            {
                "key": "Sense",
                "label": "PF2E.SensesDarkvision",
                "selector": "darkvision"
            }
        ],
        "source": {
            "value": ""
        },
        "traits": {
            "custom": "",
            "rarity": "common",
            "value": []
        }
    },
    "effects": [],
    "flags": {},
    "img": "systems/pf2e/icons/features/ancestry/umbral-gnome.webp",
    "name": "Umbral Gnome",
    "type": "heritage"
}
