{
    "_id": "xtRIYizCjLg9qe1Z",
    "data": {
        "ancestry": {
            "name": "Halfling",
            "uuid": "Compendium.pf2e.ancestries.GgZAHbrjnzWOZy2v"
        },
        "description": {
            "value": "<p>You hail from deep in a jungle or forest, and you've learned how to use your small size to wriggle through undergrowth, vines, and other obstacles. You ignore difficult terrain from trees, foliage, and undergrowth.</p>"
        },
        "rules": [],
        "source": {
            "value": ""
        },
        "traits": {
            "custom": "",
            "rarity": "common",
            "value": []
        }
    },
    "effects": [],
    "flags": {},
    "img": "systems/pf2e/icons/features/ancestry/wildwood-halfling.webp",
    "name": "Wildwood Halfling",
    "type": "heritage"
}
