{
    "_id": "dpjf1CyMEILpJWyp",
    "data": {
        "badge": null,
        "description": {
            "value": "<p>Your familiar naturally recovers in the shadows. After spending 10 consecutive minutes in an area of dim light or darkness, your familiar recovers a number of Hit Points equal to half your level.</p>\n<p>This ability is for a shadow familiar. A shadowcaster, however, can select this ability for any kind of familiar.</p>"
        },
        "duration": {
            "expiry": "turn-start",
            "sustained": false,
            "unit": "unlimited",
            "value": -1
        },
        "level": {
            "value": 1
        },
        "rules": [],
        "source": {
            "value": "Pathfinder Secrets of Magic"
        },
        "start": {
            "initiative": null,
            "value": 0
        },
        "target": null,
        "tokenIcon": {
            "show": false
        },
        "traits": {
            "custom": "",
            "rarity": "common",
            "value": []
        }
    },
    "effects": [],
    "flags": {},
    "img": "systems/pf2e/icons/actions/Passive.webp",
    "name": "Darkeater",
    "type": "effect"
}
