{
    "_id": "hMrxiUPHXKpKu1Ha",
    "data": {
        "badge": null,
        "description": {
            "value": "<p>Your familiar increases the resistance it gains from its resistance familiar ability to a value equal to your level. To select this, your familiar must have the @Compendium[pf2e.familiar-abilities.Greater Resistance]{Greater Resistance} ability and you must be at least 8th level.</p>"
        },
        "duration": {
            "expiry": "turn-start",
            "sustained": false,
            "unit": "unlimited",
            "value": -1
        },
        "level": {
            "value": 1
        },
        "rules": [],
        "source": {
            "value": "Pathfinder Lost Omens: The Grand Bazaar"
        },
        "start": {
            "initiative": null,
            "value": 0
        },
        "target": null,
        "tokenIcon": {
            "show": false
        },
        "traits": {
            "custom": "",
            "rarity": "common",
            "value": []
        }
    },
    "effects": [],
    "flags": {},
    "img": "systems/pf2e/icons/actions/Passive.webp",
    "name": "Major Resistance",
    "type": "effect"
}
