{
    "_id": "j9vOSbF9kLibhSIf",
    "data": {
        "badge": null,
        "description": {
            "value": "<p>Your familiar is your academic confidant.</p>\n<p>Despite being a minion, your familiar gains 1 reaction at the start of its turns, which it can use only to @Compendium[pf2e.actionspf2e.Aid]{Aid} you on a Recall Knowledge skill check for a skill in which it has the @Compendium[pf2e.familiar-abilities.Skilled]{Skilled} familiar ability (it still has to prepare to help you as normal for the Aid reaction).</p>\n<p>It automatically succeeds at its check to Aid you with those skills or automatically critically succeeds if you're a master of the skill in question. Your familiar must have the skilled ability to select this.</p>"
        },
        "duration": {
            "expiry": "turn-start",
            "sustained": false,
            "unit": "unlimited",
            "value": -1
        },
        "level": {
            "value": 1
        },
        "rules": [],
        "source": {
            "value": "Pathfinder Lost Omens: The Grand Bazaar"
        },
        "start": {
            "initiative": null,
            "value": 0
        },
        "target": null,
        "tokenIcon": {
            "show": false
        },
        "traits": {
            "custom": "",
            "rarity": "common",
            "value": []
        }
    },
    "effects": [],
    "flags": {},
    "img": "systems/pf2e/icons/actions/Passive.webp",
    "name": "Second Opinion",
    "type": "effect"
}
