{
    "_id": "kgotU0sFmtAHYySB",
    "data": {
        "description": {
            "value": "<p>Granted by @Compendium[pf2e.equipment-srd.Eagle Eye Elixir (Greater)]{Eagle Eye Elixir (Greater)}</p>\n<p>Implemented effects:</p>\n<ul>\n<li>+3 item bonus to Perception checks</li>\n<li>+4 item bonus to Perception checks to find secret doors and traps</li>\n</ul>"
        },
        "duration": {
            "expiry": "turn-start",
            "sustained": false,
            "unit": "hours",
            "value": 1
        },
        "level": {
            "value": 10
        },
        "rules": [
            {
                "key": "FlatModifier",
                "label": "Eagle Eye Elixir (Greater)",
                "selector": "perception",
                "type": "item",
                "value": 3
            },
            {
                "key": "FlatModifier",
                "label": "Eagle Eye Elixir Greater (secret doors & traps)",
                "predicate": {
                    "all": [
                        "secret doors and traps"
                    ]
                },
                "selector": "perception",
                "type": "item",
                "value": 4
            }
        ],
        "source": {
            "value": ""
        },
        "start": {
            "initiative": null,
            "value": 0
        },
        "target": null,
        "tokenIcon": {
            "show": true
        },
        "traits": {
            "custom": "",
            "rarity": "common",
            "value": []
        }
    },
    "effects": [],
    "flags": {},
    "img": "systems/pf2e/icons/equipment/alchemical-items/alchemical-elixirs/eagle-eyes-elixir.webp",
    "name": "Effect: Eagle Eye Elixir (Greater)",
    "type": "effect"
}
