{
    "_id": "4tepFOJLhZSelPoa",
    "data": {
        "description": {
            "value": "<p>Granted by @Compendium[pf2e.equipment-srd.Dragon Turtle Scale]{Dragon Turtle Scale}</p>\n<hr />\n<p>Automatically applied effects:</p>\n<ul>\n<li>Gain a swim speed equal to half your land speed</li>\n</ul>"
        },
        "duration": {
            "expiry": "turn-start",
            "sustained": false,
            "unit": "minutes",
            "value": 1
        },
        "level": {
            "value": 4
        },
        "rules": [
            {
                "key": "BaseSpeed",
                "selector": "swim",
                "value": "round(@actor.attributes.speed.value*0.5)"
            }
        ],
        "source": {
            "value": ""
        },
        "start": {
            "initiative": null,
            "value": 0
        },
        "target": null,
        "tokenIcon": {
            "show": true
        },
        "traits": {
            "custom": "",
            "rarity": "common",
            "value": []
        }
    },
    "effects": [],
    "flags": {},
    "img": "systems/pf2e/icons/equipment/consumables/talismans/dragon-turtle-scale.webp",
    "name": "Effect: Dragon Turtle Scale",
    "type": "effect"
}
