{
    "_id": "EmWSRL2aYBcHCgrW",
    "data": {
        "attributes": {
            "ac": {
                "value": 10
            },
            "hardness": 0,
            "hasHealth": false,
            "hp": {
                "details": "",
                "max": 0,
                "temp": 0,
                "value": 0
            },
            "stealth": {
                "details": "",
                "value": 0
            }
        },
        "creatureType": "",
        "details": {
            "description": "<p>Ebeshra fires a crystal at a creature to pin them onto the Material Plane.</p>",
            "disable": "<p>@Check[type:occultism|dc:48|name:Earn Ebeshra's Favor (Occultism)|traits:abjuration,divine,environmental,kaiju,hazard] (legendary) or @Check[type:religion|dc:48|name:Earn Ebeshra's Favor (Religion)|traits:abjuration,divine,environmental,kaiju,hazard] (legendary) to earn Ebeshra's favor and allow safe travel or @Check[type:deception|dc:51|name:Divert Ebeshra's Attention|traits:abjuration,divine,environmental,kaiju,hazard] (master) to momentarily divert Ebeshra's attention</p>",
            "isComplex": false,
            "level": {
                "value": 20
            },
            "reset": "<p>Ebeshra waits [[/r 1d4 #Rounds]] rounds to break off another crystal.</p>",
            "routine": ""
        },
        "flavourText": "",
        "recallKnowledgeText": "",
        "saves": {
            "fortitude": {
                "saveDetail": "",
                "value": 0
            },
            "reflex": {
                "saveDetail": "",
                "value": 0
            },
            "will": {
                "saveDetail": "",
                "value": 0
            }
        },
        "sidebarText": "",
        "source": {
            "value": ""
        },
        "statusEffects": [],
        "traits": {
            "ci": [],
            "di": {
                "custom": "",
                "selected": {},
                "value": []
            },
            "dr": [],
            "dv": [],
            "rarity": "rare",
            "size": {
                "value": "med"
            },
            "traits": {
                "custom": "",
                "value": [
                    "abjuration",
                    "divine",
                    "environmental",
                    "kaiju"
                ]
            }
        }
    },
    "effects": [],
    "flags": {},
    "img": "systems/pf2e/icons/default-icons/hazard.svg",
    "items": [
        {
            "_id": "3o94smurr55feki6",
            "data": {
                "actionCategory": {
                    "value": "offensive"
                },
                "actionType": {
                    "value": "reaction"
                },
                "actions": {
                    "value": null
                },
                "description": {
                    "value": "<p data-visibility=\"gm\"><strong>Trigger</strong> A creature Ebeshra can see begins to use a teleportation effect or an effect that would move any number of targets to a different plane;</p>\n<p><strong>Effect</strong> Ebeshra hurls a crystal at the triggering creature. The triggering creature and all creatures within 50 feet of the creature take [[/r {16d8}[piercing]]]{16d8 piercing damage} (@Check[type:reflex|dc:45|basic:true|traits:abjuration,divine,environmental,kaiju,hazard] save) and additional effects based on the result of their save.</p>\n<div data-visibility=\"gm\"><hr />\n<p><strong>Critical Success</strong> The creature is unaffected.</p>\n<p><strong>Success</strong> The effect is counteracted, and the creature can't use teleportation effects or planar travel effects for 1 minute.</p>\n<p><strong>Failure</strong> As success, but for 1 day instead of 1 minute.</p>\n<p><strong>Critical Failure</strong> As success, but for 1 week instead of 1 minute. Additionally, the creature becomes pinned under the crystal and must succeed at 3 total DC 45 checks to @Compendium[pf2e.actionspf2e.Escape]{Escape} from under the crystal.</p>\n</div>"
                },
                "requirements": {
                    "value": ""
                },
                "rules": [],
                "slug": null,
                "source": {
                    "value": ""
                },
                "traits": {
                    "custom": "",
                    "rarity": "common",
                    "value": []
                },
                "trigger": {
                    "value": ""
                }
            },
            "effects": [],
            "flags": {},
            "img": "systems/pf2e/icons/actions/Reaction.webp",
            "name": "Fire Pin",
            "sort": 0,
            "type": "action"
        }
    ],
    "name": "Crystal Pin",
    "token": {
        "disposition": 0,
        "height": 1,
        "img": "systems/pf2e/icons/default-icons/npc.svg",
        "name": "Crystal Pin",
        "width": 1
    },
    "type": "hazard"
}
