{
    "_id": "jrPmEfubRDzMKbxl",
    "content": "<h1>Arundhat (The Sacred Perfume) [NG]</h1><p><strong>Arundhat</strong> is a goddess of the Vudran pantheon known as the bringer of blossoms and scent.</p>\n<p><strong>Edicts</strong> Practice herbalism, tend to sacred flowers, offer appropriate flowers to other divinities</p>\n<p><strong>Anathema</strong> Dispose of waste near flowers, harvest flowers without offering the proper prayers, dispose of withered flowers improperly</p>\n<p><strong>Follower Alignments</strong> LG, NG, CG, N</p><h2>Devotee Benefits</h2><div><div><strong>Divine Ability</strong> Intelligence or Wisdom</div><div><strong>Divine Font</strong> heal</div><div><strong>Divine Skill</strong> Nature</div><div><strong>Favored Weapon</strong> staff</div><div><strong>Domains</strong> healing, magic, nature, protection</div><div><strong>Cleric Spells</strong> 1st: shillelagh, 3rd: ghostly weapon, 4th: speak with plants</div></div>",
    "flags": {},
    "name": "Arundhat",
    "permission": {
        "default": 0
    }
}
