{
    "_id": "bF77ydtptI54STl9",
    "content": "<h1>Jaidz (Fearless Claw) [NG]</h1><p><strong>Jaidz</strong> is a powerful agathion Empyreal lord who seeks to inspire courage in the cowardly and immature through compassion and guidance.</p>\n<p><strong>Edicts</strong> Forgive cowards and offer them guidance, encourage others to test their mettle, face and learn from your fears</p>\n<p><strong>Anathema</strong> Punish another creature for cowardice, routinely avoid that which scares you</p>\n<p><strong>Follower Alignments</strong> LG, NG, CG, N</p><h2>Devotee Benefits</h2><div><div><strong>Divine Ability</strong> Strength or Wisdom</div><div><strong>Divine Font</strong> heal</div><div><strong>Divine Skill</strong> Intimidation</div><div><strong>Favored Weapon</strong> shortsword</div><div><strong>Domains</strong> confidence, nightmares, protection, travel</div><div><strong>Cleric Spells</strong> 1st: longstrider, 3rd: haste, 7th: mask of terror</div></div>",
    "flags": {},
    "name": "Jaidz",
    "permission": {
        "default": 0
    }
}
