{
    "_id": "iKgERiIc8rt3fatf",
    "content": "<h1>Nyarlathotep (Haunter in the Dark) [CE]</h1>\n<p>Nyarlathotep is often venerated by grioths in a bat-like incarnation with a three-lobed burning eye known as the Haunter in the Dark. His symbol is a circle with wing-shaped arms.</p>\n<p><strong>Edicts</strong> Create darkness, encourage authorities to bring the apocalypse</p>\n<p><strong>Anathema</strong> None</p>\n<p><strong>Follower Alignments</strong> NE, CE</p>\n<h2>Devotee Benefits</h2>\n<div>\n<div><strong>Divine Font</strong> harm</div>\n<div><strong>Divine Skill</strong> Occultism</div>\n<div><strong>Favored Weapon</strong> kukri</div>\n<div><strong>Domains</strong> darkness, knowledge, nightmares, trickery</div>\n<div><strong>Cleric Spells</strong> 1st: grim tendrils, 4th: nightmare, 5th: summon entity</div>\n</div>",
    "flags": {},
    "name": "Nyarlathotep (Haunter in the Dark)",
    "permission": {
        "default": 0
    }
}
