{
    "_id": "GEBaoeiv5CB9h2Bn",
    "content": "<h1>Ragathiel (General of Vengeance) [LG]</h1><p>The General of Vengeance presides over chivalry, duty, and vengeance, acting as the quintessential knight. Born of the archdevil Dispater and Feronia, a neutral demigoddess of fire, Ragathiel struggles to overcome the reputation of his parentage, and he understands the struggle to be accepted, to be trusted, and to fight against his own nature for the sake of good. He represents strength in battle, wrath upon the wicked, absolution or vengeance for the wronged, leadership when needed, and virtue and duty to the innocent. He expects his followers to destroy fiends when they find them and to work toward truly earning the trust and acceptance of those around them. Those who follow him lead by shining example and can be found on the front lines of battle or any conflict against evil they can find.</p>\n<p>The General of Vengeance appears as a massive giant, standing more than 20 feet tall, clad in golden plate armor that shines with its own light and carrying a sword that burns with holy fire. Five flaming wings stretch from his back, three on his left and two on his right-the sixth was lost, torn out by his father in a fit of fury. Followers of Ragathiel include crusaders, knights, soldiers, the falsely accused, the marginalized, and the wronged.</p>\n<p><strong>Edicts</strong> Avenge the wronged, destroy evildoers, lead the charge in battle</p>\n<p><strong>Anathema</strong> Cower from combat, forgive those who have irreparably sinned, leave allies unwillingly in darkness</p>\n<p><strong>Areas of Concern</strong> chivalry, duty, and vengeance</p>\n<p><strong>Follower Alignments</strong> LG</p><h2>Devotee Benefits</h2><div><div><strong>Divine Ability</strong> Strength or Charisma</div><div><strong>Divine Font</strong> harm or heal</div><div><strong>Divine Skill</strong> Intimidation</div><div><strong>Favored Weapon</strong> bastard sword</div><div><strong>Domains</strong> destruction, duty, fire, zeal</div><div><strong>Cleric Spells</strong> 1st: true strike, 3rd: haste, 4th: fire shield</div></div>",
    "flags": {},
    "name": "Ragathiel",
    "permission": {
        "default": 0
    }
}
