{
    "_id": "XYJupIPx0GW4s7eu",
    "content": "<h1>Ragadahn (The Water Lord) [CE]</h1><p>As boastful as he is bestial, Ragadahn the Water Lord is the Eldest of oceans, linnorms, and sinuous spirals. He appears as a great serpentine dragon in the First World's seas, but he is widely traveled and takes other forms as needed to pursue both martial conquests and amorous affairs. He is widely believed to be the progenitor of all linnorms, and he claims to be the progenitor of all dragons. True dragons stridently contest this assertion, although they wisely decline to do so when in Ragadahn's majestic presence. Failure to deliver proper respect to the arrogant Ragadahn invites his legendary ire, and no supplicant can ever be too flattering for his tastes. Yet for all his tempestuous nature, he is wise, and he holds much otherwise lost and forgotten knowledge.</p>\n<p><strong>Edicts</strong> Draw spirals, seek primordial secrets, use poison, always carry water</p>\n<p><strong>Anathema</strong> Suffer a linnorm's death curse, destroy a fossil</p>\n<p><strong>Areas of Concern</strong> oceans, linnorms, and sinuous spirals</p>\n<p><strong>Follower Alignments</strong> CN, NE, CE</p><h2>Devotee Benefits</h2><div><div><strong>Divine Ability</strong> Strength or Wisdom</div><div><strong>Divine Font</strong> harm or heal</div><div><strong>Divine Skill</strong> Occultism</div><div><strong>Favored Weapon</strong> whip</div><div><strong>Domains</strong> destruction, vigil, water, wyrmkin</div><div><strong>Cleric Spells</strong> 1st: hydraulic push, 3rd: feet to fins, 6th: purple worm sting</div></div>",
    "flags": {},
    "name": "Ragadahn",
    "permission": {
        "default": 0
    }
}
