{
    "_id": "0nQItOlce5ua6Eaf",
    "content": "<h1>Sekhmet (Lady of Slaughter) [CN]</h1><p><strong>Edicts</strong> Slaughter your enemies, drink the blood of defeated foes, heal battle injuries</p>\n<p><strong>Anathema</strong> Spare an evil fiend, fail to placate Sekhmet with daily rituals</p>\n<p><strong>Follower Alignments</strong> CG, N, CN, CE</p><h2>Devotee Benefits</h2><div><div><strong>Divine Ability</strong> Strength or Wisdom</div><div><strong>Divine Font</strong> harm or heal</div><div><strong>Divine Skill</strong> Medicine</div><div><strong>Favored Weapon</strong> claw or battle axe</div><div><strong>Domains</strong> destruction, healing, indulgence, might</div><div><strong>Cleric Spells</strong> 1st: true strike, 4th: wall of fire, 5th: moon frenzy</div></div>",
    "flags": {},
    "name": "Sekhmet",
    "permission": {
        "default": 0
    }
}
