{
    "_id": "BrbXGyzCeORNyJT5",
    "content": "<h1>Sifkesh (The Whispered Doubt) [CE]</h1><p><strong>Edicts</strong> Spread doubt among the faithful, ruin the reputation of religions, provoke wrongdoers to suicide instead of allowing for redemption</p>\n<p><strong>Anathema</strong> Spread hope, offer forgiveness, sincerely honor or call upon another god</p>\n<p><strong>Follower Alignments</strong> NE, CE</p><h2>Devotee Benefits</h2><div><div><strong>Divine Ability</strong> Wisdom or Charisma</div><div><strong>Divine Font</strong> harm</div><div><strong>Divine Skill</strong> Deception</div><div><strong>Favored Weapon</strong> war razor</div><div><strong>Domains</strong> nightmares, pain, sorrow, trickery</div><div><strong>Cleric Spells</strong> 1st: ill omen, 4th: crushing despair, 5th: subconscious suggestion</div></div>",
    "flags": {},
    "name": "Sifkesh",
    "permission": {
        "default": 0
    }
}
