{
    "_id": "LLMTMgARSTlO7S9U",
    "content": "<h1>Zyphus (The Grim Harvestman) [NE]</h1><p><strong>Edicts</strong> Set pointless traps, spread nihilism, encourage deadly accidents</p>\n<p><strong>Anathema</strong> Spread hope, provide aid to Pharasmins</p>\n<p><strong>Follower Alignments</strong> NE, CE</p><h2>Devotee Benefits</h2><div><div><div><strong>Divine Ability</strong> Dexterity or Constitution</div><div><strong>Divine Font</strong> harm</div><div><strong>Divine Skill</strong> Thievery</div><div><strong>Favored Weapon</strong> pick</div><div><strong>Domains</strong> death, sorrow, soul, undeath</div><div><strong>Cleric Spells</strong> 1st: ill omen, 2nd: shatter, 6th: phantasmal calamity</div></div></div>",
    "flags": {},
    "name": "Zyphus",
    "permission": {
        "default": 0
    }
}
