{
    "_id": "1aoUqGYDrdpnPWio",
    "content": "<p><strong>Deities</strong> @Compendium[pf2e.deities.Andoletta]{Andoletta}, @Compendium[pf2e.deities.Bes]{Bes}, @Compendium[pf2e.deities.Bolka]{Bolka}, @Compendium[pf2e.deities.Chohar]{Chohar}, @Compendium[pf2e.deities.Daikitsu]{Daikitsu}, @Compendium[pf2e.deities.Dwarven Pantheon]{Dwarven Pantheon}, @Compendium[pf2e.deities.Erastil]{Erastil}, @Compendium[pf2e.deities.Findeladlara]{Findeladlara}, @Compendium[pf2e.deities.Folgrit]{Folgrit}, @Compendium[pf2e.deities.Followers of Fate]{Followers of Fate}, @Compendium[pf2e.deities.Gendowyn]{Gendowyn}, @Compendium[pf2e.deities.Grandmother Spider]{Grandmother Spider}, @Compendium[pf2e.deities.Grundinnar]{Grundinnar}, @Compendium[pf2e.deities.Hathor]{Hathor}, @Compendium[pf2e.deities.Imbrex]{Imbrex}, @Compendium[pf2e.deities.Isis]{Isis}, @Compendium[pf2e.deities.Jaidi]{Jaidi}, @Compendium[pf2e.deities.Kazutal]{Kazutal}, @Compendium[pf2e.deities.Lamashtu]{Lamashtu}, @Compendium[pf2e.deities.Nivi Rhombodazzle]{Nivi Rhombodazzle}, @Compendium[pf2e.deities.Sairazul]{Sairazul}, @Compendium[pf2e.deities.Shei]{Shei}, @Compendium[pf2e.deities.Shelyn]{Shelyn}, @Compendium[pf2e.deities.Stag Mother of the Forest of Stones]{Stag Mother of the Forest of Stones}, @Compendium[pf2e.deities.The Prismatic Ray]{The Prismatic Ray}, @Compendium[pf2e.deities.Torag]{Torag}, @Compendium[pf2e.deities.Walkena]{Walkena}, @Compendium[pf2e.deities.Wards of the Pharaoh]{Wards of the Pharaoh}</p>\n<p><strong>Domain Spell</strong> <em>@Compendium[pf2e.spells-srd.Soothing Words]{Soothing Words}</em>; <strong>Advanced Domain Spell</strong> <em>@Compendium[pf2e.spells-srd.Unity]{Unity}</em></p>\n<p>You aid and protect your family and community more effectively.</p>",
    "flags": {},
    "name": "Family Domain",
    "permission": {
        "default": 0
    }
}
