{
    "_id": "KXFxeEyD6MmJ3a6V",
    "content": "<p><strong>Deities</strong> @Compendium[pf2e.deities.Ravithra]{Ravithra}</p>\n<p><strong>Domain Spell</strong> <em>@Compendium[pf2e.spells-srd.Split the Tongue]{Split the Tongue}</em>; <strong>Advanced Domain Spell</strong> <em>@Compendium[pf2e.spells-srd.Ordained Purpose]{Ordained Purpose}</em></p>\n<p>Like the serpentine nagas, you're in tune with cosmic forces that Ravithra once controlled.</p>",
    "flags": {},
    "name": "Naga Domain",
    "permission": {
        "default": 0
    }
}
