{
    "_id": "p5Q5RGl1lKgs5DZZ",
    "content": "<p><strong>Deities</strong> @Compendium[pf2e.deities.Alglenweis]{Alglenweis}, @Compendium[pf2e.deities.Anubis]{Anubis}, @Compendium[pf2e.deities.Ashava]{Ashava}, @Compendium[pf2e.deities.Charon]{Charon}, @Compendium[pf2e.deities.Luhar]{Luhar}, @Compendium[pf2e.deities.Pharasma]{Pharasma}, @Compendium[pf2e.deities.Ravithra]{Ravithra}, @Compendium[pf2e.deities.Tsukiyo]{Tsukiyo}, @Compendium[pf2e.deities.Zyphus]{Zyphus}</p>\n<p><strong>Domain Spell</strong> <em>@Compendium[pf2e.spells-srd.Eject Soul]{Eject Soul}</em>; <strong>Advanced Domain Spell</strong> <em>@Compendium[pf2e.spells-srd.Ectoplasmic Interstice]{Ectoplasmic Interstice}</em></p>\n<p>You wield power over the spiritual.</p>",
    "flags": {},
    "name": "Soul Domain",
    "permission": {
        "default": 0
    }
}
