{
    "_id": "DPk7a0cdFOjDOdn5",
    "data": {
        "actionCategory": {
            "value": ""
        },
        "actionType": {
            "value": "passive"
        },
        "actions": {
            "value": null
        },
        "description": {
            "value": "<p>Your connection to one of the great elemental aspects of nature deepens, allowing you further control over its powers.</p>\n<p>You gain the advanced order spell associated with your order:</p>\n<ul>\n<li>if you're a member of the flame order, you gain <em>@Compendium[pf2e.spells-srd.Combustion]{Combustion}</em>;</li>\n<li>if you're a member of the stone order, you gain <em>@Compendium[pf2e.spells-srd.Stone Lance]{Stone Lance}</em>;</li>\n<li>if you're a member of the storm order, you gain <em>@Compendium[pf2e.spells-srd.Powerful Inhalation]{Powerful Inhalation}</em>;</li>\n<li>if you're a member of the wave order, you gain <em>@Compendium[pf2e.spells-srd.Pulverizing Cascade]{Pulverizing Cascade}</em>.</li>\n</ul>\n<p>Increase the number of Focus Points in your focus pool by 1.</p>"
        },
        "featType": {
            "value": "class"
        },
        "level": {
            "value": 6
        },
        "location": "",
        "prerequisites": {
            "value": [
                {
                    "value": "flame stone storm or wave order"
                }
            ]
        },
        "rules": [
            {
                "key": "ActiveEffectLike",
                "mode": "add",
                "path": "data.resources.focus.max",
                "value": 1
            }
        ],
        "source": {
            "value": ""
        },
        "traits": {
            "custom": "",
            "rarity": "common",
            "value": [
                "druid"
            ]
        }
    },
    "effects": [],
    "flags": {},
    "img": "systems/pf2e/icons/features/feats/feats.webp",
    "name": "Advanced Elemental Spell",
    "type": "feat"
}
