{
    "_id": "CJMkxlxHiHZQYDCz",
    "data": {
        "actionCategory": {
            "value": ""
        },
        "actionType": {
            "value": "passive"
        },
        "actions": {
            "value": null
        },
        "description": {
            "value": "<p>You put your alchemical interest into practice. You become trained in alchemical bombs and Crafting; if you were already trained in Crafting, you instead become trained in a skill of your choice. You become trained in alchemist class DC. You gain the alchemist's @Compendium[pf2e.classfeatures.Infused Reagents]{Infused Reagents} class feature, gaining a number of reagents each day equal to your level. You also gain the @Compendium[pf2e.feats-srd.Alchemical Crafting]{Alchemical Crafting} feat and four additional formulas for 1st-level alchemical items, as well as the ability to create free items during your daily preparations. Your advanced alchemy level is 1 and doesn't increase on its own.</p>\n<p><strong>Special</strong> You cannot select another dedication feat until you have gained two other feats from the alchemist archetype.</p>"
        },
        "featType": {
            "value": "archetype"
        },
        "level": {
            "value": 2
        },
        "location": "",
        "prerequisites": {
            "value": [
                {
                    "value": "Intelligence 14"
                }
            ]
        },
        "rules": [
            {
                "key": "ActiveEffectLike",
                "mode": "upgrade",
                "path": "data.skills.cra.rank",
                "value": 1
            },
            {
                "isAlchemical": true,
                "isDailyPrep": true,
                "key": "CraftingEntry",
                "maxItemLevel": 1,
                "name": "Alchemist",
                "requiredTraits": [
                    [
                        "alchemical"
                    ]
                ],
                "selector": "alchemist"
            },
            {
                "key": "GrantItem",
                "uuid": "Compendium.pf2e.classfeatures.Infused Reagents"
            },
            {
                "key": "GrantItem",
                "uuid": "Compendium.pf2e.feats-srd.Alchemical Crafting"
            }
        ],
        "source": {
            "value": "Pathfinder Core Rulebook"
        },
        "traits": {
            "custom": "",
            "rarity": "common",
            "value": [
                "archetype",
                "dedication",
                "multiclass"
            ]
        }
    },
    "effects": [],
    "flags": {},
    "img": "systems/pf2e/icons/features/feats/feats.webp",
    "name": "Alchemist Dedication",
    "type": "feat"
}
