{
    "_id": "NZgjqVV2HYzLCvvA",
    "data": {
        "actionCategory": {
            "value": ""
        },
        "actionType": {
            "value": "action"
        },
        "actions": {
            "value": 1
        },
        "description": {
            "value": "<p><strong>Requirements</strong> You are wielding only an Aldori dueling sword and have your other hand or hands free.</p>\n<hr />\n<p>You can parry attacks against you with your Aldori dueling sword. You gain a +2 circumstance bonus to AC until the start of your next turn as long as you continue to meet the requirement.</p>"
        },
        "featType": {
            "value": "archetype"
        },
        "level": {
            "value": 4
        },
        "prerequisites": {
            "value": [
                {
                    "value": "Aldori Duelist Dedication"
                }
            ]
        },
        "rules": [],
        "source": {
            "value": "Pathfinder Lost Omens: World Guide"
        },
        "traits": {
            "custom": "",
            "rarity": "common",
            "value": [
                "archetype"
            ]
        }
    },
    "effects": [],
    "flags": {},
    "img": "systems/pf2e/icons/features/feats/feats.webp",
    "name": "Aldori Parry",
    "type": "feat"
}
