{
    "_id": "3X8BkDZEDWp90U4u",
    "data": {
        "actionCategory": {
            "value": ""
        },
        "actionType": {
            "value": "passive"
        },
        "actions": {
            "value": null
        },
        "description": {
            "value": "<p>You can commune with ancestor spirits to assume the form of an enormous primeval strix. You can cast 5th-level <em>@Compendium[pf2e.spells-srd.Aerial Form]{Aerial Form}</em> as a primal innate spell once per day, but you take the form of a primeval strix, using the statistics for a bird form.</p>"
        },
        "featType": {
            "value": "ancestry"
        },
        "level": {
            "value": 13
        },
        "location": "",
        "prerequisites": {
            "value": []
        },
        "rules": [],
        "source": {
            "value": "Pathfinder Lost Omens: Ancestry Guide"
        },
        "traits": {
            "custom": "",
            "rarity": "common",
            "value": [
                "strix"
            ]
        }
    },
    "effects": [],
    "flags": {},
    "img": "systems/pf2e/icons/features/feats/feats.webp",
    "name": "Ancestor's Transformation",
    "type": "feat"
}
