{
    "_id": "m3ANSHYfBrFyFUvo",
    "data": {
        "actionCategory": {
            "value": ""
        },
        "actionType": {
            "value": "passive"
        },
        "actions": {
            "value": null
        },
        "description": {
            "value": "<p><strong>Archetype</strong> @Compendium[pf2e.archetypes.Animal Trainer ]{Animal Trainer}</p>\n<hr />\n<p>You gain the services of a young animal companion that travels with you and obeys simple commands as best as it can. This trained animal is trained in Performance instead of the skill listed for its type.</p>\n<p><strong>Special</strong> You can't select another dedication feat until you've gained two other feats from the animal trainer archetype.</p>"
        },
        "featType": {
            "value": "archetype"
        },
        "level": {
            "value": 2
        },
        "location": "",
        "prerequisites": {
            "value": [
                {
                    "value": "Trained in Nature "
                }
            ]
        },
        "rules": [],
        "source": {
            "value": "Pathfinder #152: Legacy of the Lost God"
        },
        "traits": {
            "custom": "",
            "rarity": "uncommon",
            "value": [
                "archetype",
                "dedication"
            ]
        }
    },
    "effects": [],
    "flags": {},
    "img": "systems/pf2e/icons/features/feats/feats.webp",
    "name": "Animal Trainer Dedication",
    "type": "feat"
}
