{
    "_id": "EIyazsXwM7Zc2XGO",
    "data": {
        "actionCategory": {
            "value": "interaction"
        },
        "actionType": {
            "value": "passive"
        },
        "actions": {
            "value": null
        },
        "description": {
            "value": "<p>You've trained yourself to constantly be on the lookout for magical effects, even when focusing on looking out for other things. When you are Searching, you also gain the benefits of @Compendium[pf2e.actionspf2e.Detect Magic]{Detect Magic} unless you choose not to.</p>"
        },
        "featType": {
            "value": "ancestry"
        },
        "level": {
            "value": 13
        },
        "location": "",
        "prerequisites": {
            "value": [
                {
                    "value": "ability to cast the detect magic cantrip"
                }
            ]
        },
        "rules": [],
        "source": {
            "value": "Pathfinder Lost Omens: The Mwangi Expanse"
        },
        "traits": {
            "custom": "",
            "rarity": "common",
            "value": [
                "goloma"
            ]
        }
    },
    "effects": [],
    "flags": {},
    "img": "systems/pf2e/icons/default-icons/feats.webp",
    "name": "Arcane Sight",
    "type": "feat"
}
