{
    "_id": "U1I87PGViGpGaP7D",
    "data": {
        "actionCategory": {
            "value": "offensive"
        },
        "actionType": {
            "value": "free"
        },
        "actions": {
            "value": null
        },
        "description": {
            "value": "<p><strong>Frequency</strong> once per 10 minutes</p>\n<p><strong>Requirements</strong> Your previous action was to cast a spell with the air, cold, earth, fire, plant, or water trait.</p>\n<hr />\n<p>The magic of your spell floods into you, overriding your connection to the land around you. You alter your terrain attunement to a terrain that matches a trait of the spell you just cast. You thereby gain your terrain attunement benefit when you cast further spells with the same descriptor, instead of using the terrain you're actually in. For instance, if you cast <em>@Compendium[pf2e.spells-srd.Tanglefoot]{Tanglefoot}</em>, your terrain attunement switches to your choice of forest or swamp, and your terrain attunement applies when you cast another plant spell.</p>\n<p>Your terrain attunement reverts to that of the terrain you're in 1 minute after you use Attunement Shift.</p>"
        },
        "featType": {
            "value": "archetype"
        },
        "level": {
            "value": 4
        },
        "location": "",
        "prerequisites": {
            "value": [
                {
                    "value": "Geomancer Dedication"
                }
            ]
        },
        "rules": [],
        "source": {
            "value": ""
        },
        "traits": {
            "custom": "",
            "rarity": "common",
            "value": [
                "archetype"
            ]
        }
    },
    "effects": [],
    "flags": {},
    "img": "systems/pf2e/icons/features/feats/feats.webp",
    "name": "Attunement Shift",
    "type": "feat"
}
