{
    "_id": "oltE3dIYZlM8s5BI",
    "data": {
        "actionCategory": {
            "value": "offensive"
        },
        "actionType": {
            "value": "action"
        },
        "actions": {
            "value": 3
        },
        "description": {
            "value": "<p><strong>Requirements</strong> You're in Stoked Flame Stance.</p>\n<hr />\n<p>Stride twice, making Strikes against up to four different creatures within reach at any point during your movement. Flashing sparks Strikes made during Blazing Streak deal fire damage instead of slashing.</p>"
        },
        "featType": {
            "value": "class"
        },
        "level": {
            "value": 10
        },
        "location": "",
        "prerequisites": {
            "value": [
                {
                    "value": "Stoked Flame Stance"
                }
            ]
        },
        "rules": [],
        "source": {
            "value": ""
        },
        "traits": {
            "custom": "",
            "rarity": "common",
            "value": [
                "flourish",
                "monk"
            ]
        }
    },
    "effects": [],
    "flags": {},
    "img": "systems/pf2e/icons/features/feats/feats.webp",
    "name": "Blazing Streak",
    "type": "feat"
}
