{
    "_id": "YTHsakqXumdMU0dn",
    "data": {
        "actionCategory": {
            "value": ""
        },
        "actionType": {
            "value": "passive"
        },
        "actions": {
            "value": null
        },
        "description": {
            "value": "<p>You imagine how you'll weave magic and combat into future battles, improving your focus.</p>\n<p>If you have spent at least 2 Focus Points since the last time you @Compendium[pf2e.actionspf2e.Refocus]{Refocused}, you recover 2 Focus Points when you Refocus instead of 1.</p>"
        },
        "featType": {
            "value": "class"
        },
        "level": {
            "value": 12
        },
        "location": "",
        "prerequisites": {
            "value": [
                {
                    "value": "conflux spells"
                }
            ]
        },
        "rules": [],
        "source": {
            "value": ""
        },
        "traits": {
            "custom": "",
            "rarity": "common",
            "value": [
                "magus"
            ]
        }
    },
    "effects": [],
    "flags": {},
    "img": "systems/pf2e/icons/features/feats/feats.webp",
    "name": "Conflux Focus",
    "type": "feat"
}
