{
    "_id": "00uTUJPgJ6kuGR8O",
    "data": {
        "actionCategory": {
            "value": ""
        },
        "actionType": {
            "value": "passive"
        },
        "actions": {
            "value": null
        },
        "description": {
            "value": "<p>Your body begins to evolve and adapt, taking the first steps towards blending your very self with the ancient curse of the saumen kar. You become larger and bulkier, pushing the very edge of height and weight for your size. You gain scent as an imprecise sense with a range of 30 feet and gain a +1 circumstance bonus to Stealth checks made to @Compendium[pf2e.actionspf2e.Sneak]{Sneak} or @Compendium[pf2e.actionspf2e.Hide]{Hide} in areas of forest and snow. You sprout a pair of horns from your forehead, gaining a horns unarmed attack that deals 1d8 bludgeoning damage. Your horns are in the brawling group and have the shove and trip traits.</p>"
        },
        "featType": {
            "value": "archetype"
        },
        "level": {
            "value": 6
        },
        "location": "",
        "prerequisites": {
            "value": [
                {
                    "value": "Pactbound Dedication"
                }
            ]
        },
        "rules": [
            {
                "category": "unarmed",
                "damage": {
                    "base": {
                        "damageType": "bludgeoning",
                        "dice": 1,
                        "die": "d8"
                    }
                },
                "group": "brawling",
                "key": "Strike",
                "label": "PF2E.BattleForm.Attack.Horns",
                "range": null,
                "traits": [
                    "unarmed",
                    "shove",
                    "trip"
                ]
            },
            {
                "key": "FlatModifier",
                "label": "Sneak or Hide In Forest or Snow",
                "predicate": {
                    "all": [
                        {
                            "or": [
                                "action:sneak",
                                "action:hide"
                            ]
                        },
                        {
                            "or": [
                                "terrain:snow",
                                "terrain:forest"
                            ]
                        }
                    ]
                },
                "selector": "stealth",
                "value": 1
            },
            {
                "acuity": "imprecise",
                "key": "Sense",
                "range": 30,
                "selector": "scent"
            }
        ],
        "source": {
            "value": "Pathfinder Lost Omens: Monsters of Myth"
        },
        "traits": {
            "custom": "",
            "rarity": "common",
            "value": [
                "archetype"
            ]
        }
    },
    "effects": [],
    "flags": {},
    "img": "systems/pf2e/icons/default-icons/feats.webp",
    "name": "Crown of the Saumen Kar",
    "type": "feat"
}
