{
    "_id": "4HHw2DjTxdv1jBZd",
    "data": {
        "actionCategory": {
            "value": ""
        },
        "actionType": {
            "value": "passive"
        },
        "actions": {
            "value": null
        },
        "description": {
            "value": "<p>When you attempt to Demoralize, you can make it harder for the target to flee, in place of the action's normal effects.</p>\n<hr />\n<p><strong>Critical Success</strong> For 1 round, the target takes a -10-foot status penalty to Speed and a -4 status penalty to Stealth.</p>\n<p>@Compendium[pf2e.feat-effects.Effect: Decry Thief (Critical Success)]{Effect: Decry Thief (Critical Success)}</p>\n<p><strong>Success</strong> For 1 round, the target takes a -5-foot status penalty to Speed and a -2 status penalty to Stealth.</p>\n<p>@Compendium[pf2e.feat-effects.Effect: Decry Thief (Success)]{Effect: Decry Thief (Success)}</p>"
        },
        "featType": {
            "value": "archetype"
        },
        "level": {
            "value": 4
        },
        "location": "",
        "prerequisites": {
            "value": [
                {
                    "value": "Zephyr Guard Dedication"
                },
                {
                    "value": "trained in Intimidation"
                }
            ]
        },
        "rules": [
            {
                "key": "Note",
                "predicate": {
                    "all": [
                        "action:demoralize"
                    ]
                },
                "selector": "intimidation",
                "text": "<p class='compact-text'><strong>Decry Thief</strong><p>When you attempt to Demoralize, you can make it harder for the target to flee, in place of the action's normal effects.<hr /><strong>Critical Success</strong> For 1 round, the target takes a -10-foot status penalty to Speed and a -4 status penalty to Stealth.</p>\n<p>@Compendium[pf2e.feat-effects.Effect: Decry Thief (Critical Success)]{Effect: Decry Thief (Critical Success)}</p>><strong>Success</strong> For 1 round, the target takes a -5-foot status penalty to Speed and a -2 status penalty to Stealth. @Compendium[pf2e.feat-effects.Effect: Decry Thief (Success)]{Effect: Decry Thief (Success)}</p>"
            }
        ],
        "source": {
            "value": "Pathfinder #149: Against the Scarlet Triad"
        },
        "traits": {
            "custom": "",
            "rarity": "common",
            "value": [
                "archetype"
            ]
        }
    },
    "effects": [],
    "flags": {},
    "img": "systems/pf2e/icons/features/feats/feats.webp",
    "name": "Decry Thief",
    "type": "feat"
}
