{
    "_id": "UHejQS4uCNGRI45t",
    "data": {
        "actionCategory": {
            "value": ""
        },
        "actionType": {
            "value": "passive"
        },
        "actions": {
            "value": null
        },
        "description": {
            "value": "<p>Your dedication to @Compendium[pf2e.deities.The Godclaw]{The Godclaw} borders on a cleric's. You gain the cleric's @Compendium[pf2e.feats-srd.Domain Initiate]{Domain Initiate} feat but must select perfection, protection, tyranny, or zeal as your domain. In addition, you can use any religious symbol of @Compendium[pf2e.deities.Abadar]{Abadar}, @Compendium[pf2e.deities.Asmodeus]{Asmodeus}, @Compendium[pf2e.deities.Iomedae]{Iomedae}, @Compendium[pf2e.deities.Irori]{Irori}, or @Compendium[pf2e.deities.Torag]{Torag} as your divine focus.</p>"
        },
        "featType": {
            "value": "bonus"
        },
        "level": {
            "value": 0
        },
        "location": "",
        "prerequisites": {
            "value": [
                {
                    "value": "Order of the Godclaw"
                }
            ]
        },
        "rules": [
            {
                "key": "GrantItem",
                "uuid": "Compendium.pf2e.feats-srd.Domain Initiate"
            }
        ],
        "source": {
            "value": ""
        },
        "traits": {
            "custom": "",
            "rarity": "common",
            "value": []
        }
    },
    "effects": [],
    "flags": {},
    "img": "systems/pf2e/icons/features/feats/feats.webp",
    "name": "Dedication to the Five",
    "type": "feat"
}
