{
    "_id": "hLYoIjH8gPEVXyWG",
    "data": {
        "actionCategory": {
            "value": ""
        },
        "actionType": {
            "value": "passive"
        },
        "actions": {
            "value": null
        },
        "description": {
            "value": "<p>Your @Compendium[pf2e.actionspf2e.Feint]{Feints} are far more distracting than normal, drawing your foes' attention and allowing you and your allies to take greater advantage.</p>\n<p>While a creature is @Compendium[pf2e.conditionitems.Flat-Footed]{Flat-Footed} by your Feint, it also takes a -2 circumstance penalty to Perception checks and Reflex saves.</p>\n<p>@Compendium[pf2e.feat-effects.Effect: Distracting Feint]{Effect: Distracting Feint}</p>"
        },
        "featType": {
            "value": "class"
        },
        "level": {
            "value": 2
        },
        "location": "",
        "prerequisites": {
            "value": [
                {
                    "value": "scoundrel racket"
                }
            ]
        },
        "rules": [],
        "source": {
            "value": "Pathfinder Core Rulebook"
        },
        "traits": {
            "custom": "",
            "rarity": "common",
            "value": [
                "rogue"
            ]
        }
    },
    "effects": [],
    "flags": {},
    "img": "systems/pf2e/icons/features/feats/feats.webp",
    "name": "Distracting Feint",
    "type": "feat"
}
