{
    "_id": "NwMiszlcqNZWtezq",
    "data": {
        "actionCategory": {
            "value": ""
        },
        "actionType": {
            "value": "passive"
        },
        "actions": {
            "value": null
        },
        "description": {
            "value": "<p>Every chance you get, you practice with the hand crossbow to increase your draw speed and accuracy. Whenever you gain a class feature that grants you expert or greater proficiency in a given weapon or weapons, you also gain that proficiency in the hand crossbow. If you're at least an expert in a hand crossbow you're using, you gain access to its critical specialization effect. You also gain the @Compendium[pf2e.actionspf2e.Shootist's Draw]{Shootist's Draw} action.</p>\n<p><strong>Special</strong> You can't select another dedication feat until you've gained two other feats from the drow shootist archetype.</p>"
        },
        "featType": {
            "value": "archetype"
        },
        "level": {
            "value": 2
        },
        "location": "",
        "prerequisites": {
            "value": [
                {
                    "value": "trained in hand crossbow"
                }
            ]
        },
        "rules": [
            {
                "key": "GrantItem",
                "uuid": "Compendium.pf2e.actionspf2e.Shootist's Draw"
            }
        ],
        "source": {
            "value": "Pathfinder #165: Eyes of Empty Death"
        },
        "traits": {
            "custom": "",
            "rarity": "uncommon",
            "value": [
                "archetype",
                "dedication"
            ]
        }
    },
    "effects": [],
    "flags": {},
    "img": "systems/pf2e/icons/default-icons/feats.webp",
    "name": "Drow Shootist Dedication",
    "type": "feat"
}
