{
    "_id": "647GZOyhWgcjw6Jg",
    "data": {
        "actionCategory": {
            "value": ""
        },
        "actionType": {
            "value": "passive"
        },
        "actions": {
            "value": null
        },
        "description": {
            "value": "<p>Your mercy grants clarity to those around you just when they need it most.</p>\n<p>When you use @Compendium[pf2e.feats-srd.Mercy]{Mercy}, you can instead attempt a counteract check to remove the @Compendium[pf2e.conditionitems.Confused]{Confused} or @Compendium[pf2e.conditionitems.Stupefied]{Stupefied} conditions, using the source of that condition to determine the counteract level and DC.</p>\n<p>If the condition was caused by an ongoing effect and you don't remove that effect, the condition returns at the end of your next turn.</p>"
        },
        "featType": {
            "value": "class"
        },
        "level": {
            "value": 10
        },
        "location": "",
        "prerequisites": {
            "value": [
                {
                    "value": "Mercy"
                }
            ]
        },
        "rules": [],
        "source": {
            "value": "Pathfinder Advanced Player's Guide"
        },
        "traits": {
            "custom": "",
            "rarity": "common",
            "value": [
                "champion"
            ]
        }
    },
    "effects": [],
    "flags": {},
    "img": "systems/pf2e/icons/features/feats/feats.webp",
    "name": "Elucidating Mercy",
    "type": "feat"
}
