{
    "_id": "Fj3ufCawOM6fZB24",
    "data": {
        "actionCategory": {
            "value": ""
        },
        "actionType": {
            "value": "passive"
        },
        "actions": {
            "value": null
        },
        "description": {
            "value": "<p>You know how to get the most out of your allies. While exploring, when you are leading and allies are @Compendium[pf2e.actionspf2e.Follow the Expert]{Following the Expert}, you grant a +3 circumstance bonus instead of +2 if you're an expert in the applicable skill, and a +4 circumstance bonus if you're a master.</p>"
        },
        "featType": {
            "value": "ancestry"
        },
        "level": {
            "value": 5
        },
        "prerequisites": {
            "value": []
        },
        "rules": [],
        "source": {
            "value": "Pathfinder Lost Omens: Character Guide"
        },
        "traits": {
            "custom": "",
            "rarity": "common",
            "value": [
                "hobgoblin"
            ]
        }
    },
    "effects": [],
    "flags": {},
    "img": "systems/pf2e/icons/features/feats/feats.webp",
    "name": "Expert Drill Sergeant",
    "type": "feat"
}
