{
    "_id": "TkCy7jZUjhD8IypE",
    "data": {
        "actionCategory": {
            "value": ""
        },
        "actionType": {
            "value": "passive"
        },
        "actions": {
            "value": null
        },
        "description": {
            "value": "<p>You can apply the same techniques you use to reverse engineer objects to disable them. You can use Crafting instead of Thievery to @Compendium[pf2e.actionspf2e.Disable Device]{Disable Device} or @Compendium[pf2e.actionspf2e.Pick a Lock]{Pick a Lock}.</p>"
        },
        "featType": {
            "value": "archetype"
        },
        "level": {
            "value": 7
        },
        "prerequisites": {
            "value": [
                {
                    "value": "master in Crafting"
                },
                {
                    "value": "Scrounger Dedication"
                }
            ]
        },
        "rules": [],
        "source": {
            "value": "Pathfinder Advanced Player's Guide"
        },
        "traits": {
            "custom": "",
            "rarity": "common",
            "value": [
                "archetype",
                "skill"
            ]
        }
    },
    "effects": [],
    "flags": {},
    "img": "systems/pf2e/icons/features/feats/feats.webp",
    "name": "Expert Disassembler",
    "type": "feat"
}
