{
    "_id": "VYilg64xX9XpHeJr",
    "data": {
        "actionCategory": {
            "value": ""
        },
        "actionType": {
            "value": "passive"
        },
        "actions": {
            "value": null
        },
        "description": {
            "value": "<p>When you Strike with a thrown weapon, you take only a -1 penalty for each additional range increment between you and the target, rather than a -2 penalty.</p>"
        },
        "featType": {
            "value": "class"
        },
        "level": {
            "value": 6
        },
        "location": "",
        "prerequisites": {
            "value": []
        },
        "rules": [
            {
                "key": "AdjustModifier",
                "mode": "add",
                "predicate": {
                    "all": [
                        "weapon:trait:thrown"
                    ]
                },
                "selectors": [
                    "ranged-attack-roll"
                ],
                "slug": "range-penalty",
                "value": 1
            }
        ],
        "source": {
            "value": "Pathfinder Advanced Player's Guide"
        },
        "traits": {
            "custom": "",
            "rarity": "common",
            "value": [
                "rogue"
            ]
        }
    },
    "effects": [],
    "flags": {},
    "img": "systems/pf2e/icons/features/feats/feats.webp",
    "name": "Far Throw",
    "type": "feat"
}
