{
    "_id": "gQ2EvesPqLbISLQV",
    "data": {
        "actionCategory": {
            "value": ""
        },
        "actionType": {
            "value": "passive"
        },
        "actions": {
            "value": null
        },
        "description": {
            "value": "<p>Your bestial mutagen brings out the beast lurking within you, granting you especially sharp claws and teeth as well as a ferocious appearance.</p>\n<p>Whenever you're affected by a @Compendium[pf2e.equipment-srd.Bestial Mutagen (Lesser)]{Bestial Mutagen}, you gain the mutagen's item bonus to your Intimidation checks.</p>\n<p>In addition, your claws and jaws are increasingly vicious, and they gain the deadly d10 trait. Finally, you can increase the mutagen's penalty to AC from -1 to -2 and, in exchange, increase the damage die size of your claws and jaws by one step.</p>"
        },
        "featType": {
            "value": "class"
        },
        "level": {
            "value": 8
        },
        "location": "",
        "prerequisites": {
            "value": []
        },
        "rules": [],
        "source": {
            "value": "Pathfinder Core Rulebook"
        },
        "traits": {
            "custom": "",
            "rarity": "common",
            "value": [
                "alchemist"
            ]
        }
    },
    "effects": [],
    "flags": {},
    "img": "systems/pf2e/icons/features/feats/feats.webp",
    "name": "Feral Mutagen",
    "type": "feat"
}
