{
    "_id": "MgLUbsvAkIA4fsZW",
    "data": {
        "actionCategory": {
            "value": ""
        },
        "actionType": {
            "value": "passive"
        },
        "actions": {
            "value": null
        },
        "description": {
            "value": "<p>You can channel your mask's power to pierce through lies and see the truth in any situation. Increase the number of Focus Points in your focus pool by 1. While wearing your mask, you can cast the <em>@Compendium[pf2e.spells-srd.Glimpse the Truth]{Glimpse the Truth}</em> cleric domain spell as a divine focus spell.</p>"
        },
        "featType": {
            "value": "class"
        },
        "level": {
            "value": 10
        },
        "prerequisites": {
            "value": [
                {
                    "value": "Hellknight Signifier Dedication"
                },
                {
                    "value": "ability to cast focus spells"
                }
            ]
        },
        "rules": [
            {
                "key": "ActiveEffectLike",
                "mode": "add",
                "path": "data.resources.focus.max",
                "value": 1
            }
        ],
        "source": {
            "value": "Pathfinder Lost Omens: Character Guide"
        },
        "traits": {
            "custom": "",
            "rarity": "common",
            "value": [
                "archetype"
            ]
        }
    },
    "effects": [],
    "flags": {},
    "img": "systems/pf2e/icons/features/feats/feats.webp",
    "name": "Gaze of Veracity",
    "type": "feat"
}
