{
    "_id": "r1um0cn7MRIMLqcq",
    "data": {
        "actionCategory": {
            "value": ""
        },
        "actionType": {
            "value": "passive"
        },
        "actions": {
            "value": null
        },
        "description": {
            "value": "<p>You have trained as a ghost eater, a hunter specialized in the destruction of spirits. You know how to channel your own spiritual energy to harm spirits. Your weapon and unarmed attack Strikes become magical. Against incorporeal creatures, they also gain the effects of a ghost touch property rune.</p>\n<p><strong>Special</strong> You cannot select another dedication feat until you have gained two other feats from this archetype.</p>"
        },
        "featType": {
            "value": "archetype"
        },
        "level": {
            "value": 2
        },
        "location": "",
        "prerequisites": {
            "value": [
                {
                    "value": "trained in Occultism or Religion"
                }
            ]
        },
        "rules": [],
        "source": {
            "value": "Pathfinder #166: Despair on Danger Island"
        },
        "traits": {
            "custom": "",
            "rarity": "uncommon",
            "value": [
                "archetype",
                "dedication"
            ]
        }
    },
    "effects": [],
    "flags": {},
    "img": "systems/pf2e/icons/default-icons/feats.webp",
    "name": "Ghost Eater Dedication",
    "type": "feat"
}
