{
    "_id": "n9CBjyiB17srkyr4",
    "data": {
        "actionCategory": {
            "value": ""
        },
        "actionType": {
            "value": "passive"
        },
        "actions": {
            "value": null
        },
        "description": {
            "value": "<p>You are trained with @Compendium[pf2e.equipment-srd.Composite Longbow]{Composite Longbows}, @Compendium[pf2e.equipment-srd.Composite Shortbow]{Composite Shortbows}, @Compendium[pf2e.equipment-srd.Glaive]{Glaives}, @Compendium[pf2e.equipment-srd.Longbow]{Longbows}, @Compendium[pf2e.equipment-srd.Longsword]{Longswords}, and @Compendium[pf2e.equipment-srd.Shortbow]{Shortbows}.</p>\n<p>In addition, you gain access to all uncommon hobgoblin weapons. For the purpose of determining your proficiency, martial hobgoblin weapons are simple weapons and advanced hobgoblin weapons are martial weapons.</p>"
        },
        "featType": {
            "value": "ancestry"
        },
        "level": {
            "value": 1
        },
        "location": "",
        "prerequisites": {
            "value": []
        },
        "rules": [
            {
                "key": "ActiveEffectLike",
                "mode": "upgrade",
                "path": "data.martial.weapon-base-composite-longbow.rank",
                "value": 1
            },
            {
                "key": "ActiveEffectLike",
                "mode": "upgrade",
                "path": "data.martial.weapon-base-composite-shortbow.rank",
                "value": 1
            },
            {
                "key": "ActiveEffectLike",
                "mode": "upgrade",
                "path": "data.martial.weapon-base-glaive.rank",
                "value": 1
            },
            {
                "key": "ActiveEffectLike",
                "mode": "upgrade",
                "path": "data.martial.weapon-base-halberd.rank",
                "value": 1
            },
            {
                "key": "ActiveEffectLike",
                "mode": "upgrade",
                "path": "data.martial.weapon-base-longbow.rank",
                "value": 1
            },
            {
                "key": "ActiveEffectLike",
                "mode": "upgrade",
                "path": "data.martial.weapon-base-longspear.rank",
                "value": 1
            },
            {
                "key": "ActiveEffectLike",
                "mode": "upgrade",
                "path": "data.martial.weapon-base-longsword.rank",
                "value": 1
            },
            {
                "key": "ActiveEffectLike",
                "mode": "upgrade",
                "path": "data.martial.weapon-base-shortbow.rank",
                "value": 1
            },
            {
                "key": "ActiveEffectLike",
                "mode": "upgrade",
                "path": "data.martial.weapon-base-spear.rank",
                "value": 1
            },
            {
                "definition": {
                    "all": [
                        "weapon:trait:hobgoblin",
                        "weapon:category:advanced"
                    ]
                },
                "key": "MartialProficiency",
                "label": "PF2E.SpecificRule.MartialProficiency.AdvancedHobgoblinWeapons",
                "sameAs": "martial",
                "slug": "advanced-hobgoblin-weapons"
            },
            {
                "definition": {
                    "all": [
                        "weapon:trait:hobgoblin",
                        "weapon:category:martial"
                    ]
                },
                "key": "MartialProficiency",
                "label": "PF2E.SpecificRule.MartialProficiency.MartialHobgoblinWeapons",
                "sameAs": "simple",
                "slug": "martial-hobgoblin-weapons"
            }
        ],
        "source": {
            "value": "Pathfinder Lost Omens: Character Guide"
        },
        "traits": {
            "custom": "",
            "rarity": "common",
            "value": [
                "hobgoblin"
            ]
        }
    },
    "effects": [],
    "flags": {},
    "img": "systems/pf2e/icons/features/feats/feats.webp",
    "name": "Hobgoblin Weapon Familiarity",
    "type": "feat"
}
