{
    "_id": "DnfVQGLk3PAl8UWh",
    "data": {
        "actionCategory": {
            "value": ""
        },
        "actionType": {
            "value": "passive"
        },
        "actions": {
            "value": null
        },
        "description": {
            "value": "<p>You'll eat anything and anyone. Whenever you inflict @Compendium[pf2e.conditionitems.Persistent Damage]{Persistent Bleed Damage} with your jaws unarmed attack, you gain temporary Hit Points equal to half your level for 1 minute.</p>"
        },
        "featType": {
            "value": "ancestry"
        },
        "level": {
            "value": 9
        },
        "prerequisites": {
            "value": [
                {
                    "value": "Fang Sharpener"
                }
            ]
        },
        "rules": [],
        "source": {
            "value": "Pathfinder Lost Omens: Character Guide"
        },
        "traits": {
            "custom": "",
            "rarity": "common",
            "value": [
                "goblin"
            ]
        }
    },
    "effects": [],
    "flags": {},
    "img": "systems/pf2e/icons/features/feats/feats.webp",
    "name": "Hungry Goblin",
    "type": "feat"
}
