{
    "_id": "M0B0rt6rk5MkHiBN",
    "data": {
        "actionCategory": {
            "value": ""
        },
        "actionType": {
            "value": "passive"
        },
        "actions": {
            "value": null
        },
        "description": {
            "value": "<p>Mastery of your shapeshifting lets you combine the best features of your humanoid and spider forms. When using your @Compendium[pf2e.actionspf2e.Change Shape (Anadi)]{Change Shape} ability, you can assume a bipedal hybrid shape.</p>\n<p>This form gains all the benefits of your spider shape as well as the ability to use items and take manipulate actions just as easily as your human shape.</p>"
        },
        "featType": {
            "value": "ancestry"
        },
        "level": {
            "value": 5
        },
        "location": "",
        "prerequisites": {
            "value": []
        },
        "rules": [],
        "source": {
            "value": "Pathfinder Lost Omens: The Mwangi Expanse"
        },
        "traits": {
            "custom": "",
            "rarity": "common",
            "value": [
                "anadi"
            ]
        }
    },
    "effects": [],
    "flags": {},
    "img": "systems/pf2e/icons/default-icons/feats.webp",
    "name": "Hybrid Shape",
    "type": "feat"
}
