{
    "_id": "6vnbC90UQ3I57RrQ",
    "data": {
        "actionCategory": {
            "value": ""
        },
        "actionType": {
            "value": "passive"
        },
        "actions": {
            "value": null
        },
        "description": {
            "value": "<p>When you successfully Coerce someone, the maximum time they comply increases to a week, still determined by the GM. If you're legendary, the maximum increases to a month.</p>"
        },
        "featType": {
            "value": "skill"
        },
        "level": {
            "value": 2
        },
        "prerequisites": {
            "value": [
                {
                    "value": "expert in Intimidation"
                }
            ]
        },
        "rules": [],
        "source": {
            "value": "Pathfinder Core Rulebook"
        },
        "traits": {
            "custom": "",
            "rarity": "common",
            "value": [
                "general",
                "skill"
            ]
        }
    },
    "effects": [],
    "flags": {},
    "img": "systems/pf2e/icons/features/feats/feats.webp",
    "name": "Lasting Coercion",
    "type": "feat"
}
