{
    "_id": "PeBz8f9h8Y4OFdws",
    "data": {
        "actionCategory": {
            "value": ""
        },
        "actionType": {
            "value": "passive"
        },
        "actions": {
            "value": null
        },
        "description": {
            "value": "<p>You gain a +2 status bonus to your Fortitude and Reflex DCs against attempts to @Compendium[pf2e.actionspf2e.Shove]{Shove} or @Compendium[pf2e.actionspf2e.Trip]{Trip} you. You can Shove creatures even if you don't have a hand free. When you successfully Shove a foe, you can Stride away from your opponent (instead of toward it), but you must move the same distance in the opposite direction from where you Shoved it.</p>"
        },
        "featType": {
            "value": "archetype"
        },
        "level": {
            "value": 12
        },
        "location": "",
        "prerequisites": {
            "value": [
                {
                    "value": "Golem Grafter Dedication"
                }
            ]
        },
        "rules": [
            {
                "key": "FlatModifier",
                "label": "vs. Shove (Legs of Stone)",
                "predicate": {
                    "all": [
                        "action:shove"
                    ]
                },
                "selector": "fortitude",
                "type": "status",
                "value": 2
            },
            {
                "key": "FlatModifier",
                "label": "vs. Trip (Legs of Stone)",
                "predicate": {
                    "all": [
                        "action:trip"
                    ]
                },
                "selector": "reflex",
                "type": "status",
                "value": 2
            }
        ],
        "source": {
            "value": "Pathfinder #153: Life's Long Shadow"
        },
        "traits": {
            "custom": "",
            "rarity": "common",
            "value": [
                "archetype"
            ]
        }
    },
    "effects": [],
    "flags": {},
    "img": "systems/pf2e/icons/features/feats/feats.webp",
    "name": "Legs of Stone",
    "type": "feat"
}
