{
    "_id": "c4ao7b2T92fiM8jR",
    "data": {
        "actionCategory": {
            "value": ""
        },
        "actionType": {
            "value": "passive"
        },
        "actions": {
            "value": null
        },
        "description": {
            "value": "<p><strong>Access</strong> You are from the Golden Road region.</p>\n<hr />\n<p>You've begun to inscribe a magical stone called a <em>ka stone</em> that you will some day tie to your soul. You gain knowledge of Ancient Osirion and a connection to your nascent <em>ka stone</em>. If you fail a recovery check while dying, your dying condition does not increase; if you critically fail, your dying condition increases by only 1. You become trained in Ancient Osirion Lore, or expert if you were already trained.</p>\n<hr />\n<p><strong>Special</strong> You cannot select another dedication feat until you have gained two other feats from the living monolith archetype.</p>"
        },
        "featType": {
            "value": "archetype"
        },
        "level": {
            "value": 2
        },
        "prerequisites": {
            "value": [
                {
                    "value": "Ancient Osiriani and Sphinx languages"
                },
                {
                    "value": "trained in Crafting"
                }
            ]
        },
        "rules": [],
        "source": {
            "value": "Pathfinder Lost Omens: World Guide"
        },
        "traits": {
            "custom": "",
            "rarity": "uncommon",
            "value": [
                "archetype",
                "dedication"
            ]
        }
    },
    "effects": [],
    "flags": {},
    "img": "systems/pf2e/icons/features/feats/feats.webp",
    "name": "Living Monolith Dedication",
    "type": "feat"
}
