{
    "_id": "Su4nbNnR0mjgusTT",
    "data": {
        "actionCategory": {
            "value": ""
        },
        "actionType": {
            "value": "passive"
        },
        "actions": {
            "value": null
        },
        "description": {
            "value": "<p>The blessing of your deity heightens your healing ability, making your mundane healing work as if by magic.</p>\n<p>When you succeed at a Medicine check to @Compendium[pf2e.actionspf2e.Treat Wounds]{Treat Wounds}, your action gains the divine trait and you heal the maximum amount for the 2d8 (or 4d8 on a critical success). If you have an ability that adds additional dice to your Treat Wounds, you still roll those normally.</p>"
        },
        "featType": {
            "value": "class"
        },
        "level": {
            "value": 6
        },
        "prerequisites": {
            "value": [
                {
                    "value": "Healing Hands"
                }
            ]
        },
        "rules": [],
        "source": {
            "value": "Pathfinder Advanced Player's Guide"
        },
        "traits": {
            "custom": "",
            "rarity": "common",
            "value": [
                "cleric"
            ]
        }
    },
    "effects": [],
    "flags": {},
    "img": "systems/pf2e/icons/features/feats/feats.webp",
    "name": "Magic Hands",
    "type": "feat"
}
