{
    "_id": "EDdJFwarNIJIkP2E",
    "data": {
        "actionCategory": {
            "value": ""
        },
        "actionType": {
            "value": "reaction"
        },
        "actions": {
            "value": null
        },
        "description": {
            "value": "<p><strong>Trigger</strong> A creature Casts a Spell that you have prepared, and that spell was cast or created with a tradition of magic in which you have master proficiency in spell attack rolls and spell DCs.</p>\n<hr />\n<p>When a foe Casts a Spell and you can see its manifestations, you can use your magic to disrupt it. If you're a prepared caster, you can expend a prepared spell to counter the triggering creature's casting of a spell. If you're a spontaneous caster, you can expend a spell slot. The level of the prepared spell or spell slot must be at least as high as the triggering spell's level. You lose your prepared spell or spell slot as if you had Cast the Spell. You then attempt to counteract the triggering spell, and you take a -2 penalty to your counteract check; for prepared casters, the GM might waive the penalty if the spell you're expending to counterspell is especially appropriate-such as countering with the same spell, or using a <em>@Compendium[pf2e.spells-srd.Cone of Cold]{Cone of Cold}</em> to counteract a <em>@Compendium[pf2e.spells-srd.Fireball]{Fireball}</em>.</p>"
        },
        "featType": {
            "value": "archetype"
        },
        "level": {
            "value": 16
        },
        "prerequisites": {
            "value": [
                {
                    "value": "Spellmaster Dedication"
                },
                {
                    "value": "master in spell attack rolls and spell DCs"
                }
            ]
        },
        "rules": [],
        "source": {
            "value": "Pathfinder Lost Omens: Pathfinder Society Guide"
        },
        "traits": {
            "custom": "",
            "rarity": "common",
            "value": [
                "abjuration",
                "archetype"
            ]
        }
    },
    "effects": [],
    "flags": {},
    "img": "systems/pf2e/icons/features/feats/feats.webp",
    "name": "Master's Counterspell",
    "type": "feat"
}
