{
    "_id": "uCElsebJ45ltmZMT",
    "data": {
        "actionCategory": {
            "value": ""
        },
        "actionType": {
            "value": "passive"
        },
        "actions": {
            "value": null
        },
        "description": {
            "value": "<p>All of your animal companions grow up, becoming mature animal companions and gaining additional capabilities. During an encounter, even if you don't use the @Compendium[pf2e.actionspf2e.Command an Animal]{Command an Animal} action, your animal companion can still use 1 action on your turn to either Stride or Strike.</p>"
        },
        "featType": {
            "value": "archetype"
        },
        "level": {
            "value": 4
        },
        "prerequisites": {
            "value": [
                {
                    "value": "Beastmaster Dedication"
                }
            ]
        },
        "rules": [],
        "source": {
            "value": "Pathfinder Advanced Player's Guide"
        },
        "traits": {
            "custom": "",
            "rarity": "common",
            "value": [
                "archetype"
            ]
        }
    },
    "effects": [],
    "flags": {},
    "img": "systems/pf2e/icons/features/feats/feats.webp",
    "name": "Mature Beastmaster Companion",
    "type": "feat"
}
