{
    "_id": "hO4sKslTrSQMLbGx",
    "data": {
        "actionCategory": {
            "value": ""
        },
        "actionType": {
            "value": "action"
        },
        "actions": {
            "value": 1
        },
        "description": {
            "value": "<p><strong>Trigger</strong> You are in @Compendium[pf2e.feats-srd.Mountain Stance]{Mountain Stance}</p>\n<hr />\n<p>You stomp, shaking the earth beneath you. Creatures on the ground within a @Template[type:emanation|distance:20] take damage equal to your Strength modifier (minimum 0), which they can resist with a basic Fortitude save. On a failure, they also fall @Compendium[pf2e.conditionitems.Prone]{Prone}.</p>\n<p>After you use this action, you can't use it again for [[/r 1d4 #rounds]]{1d4 rounds}.</p>\n<hr />\n<p><strong>Special</strong> If you have this feat, the Dexterity modifier cap to your AC while using Mountain Stance increases from +1 to +2.</p>\n<p>@Compendium[pf2e.pf2e-macros.Toggle Mountain Stance]{Toggle Mountain Stance}</p>"
        },
        "featType": {
            "value": "class"
        },
        "level": {
            "value": 14
        },
        "location": "",
        "prerequisites": {
            "value": [
                {
                    "value": "Mountain Stronghold"
                }
            ]
        },
        "rules": [],
        "source": {
            "value": "Pathfinder Core Rulebook"
        },
        "traits": {
            "custom": "",
            "rarity": "common",
            "value": [
                "monk"
            ]
        }
    },
    "effects": [],
    "flags": {},
    "img": "systems/pf2e/icons/features/feats/feats.webp",
    "name": "Mountain Quake",
    "type": "feat"
}
