{
    "_id": "BVxcuJ5TWfN1px4L",
    "data": {
        "actionCategory": {
            "value": ""
        },
        "actionType": {
            "value": "passive"
        },
        "actions": {
            "value": null
        },
        "description": {
            "value": "<p>You befriended one of the last saumen kar and were infused with a fraction of their power, granting you the potential to become a guardian of their ancient pact. You gain cold resistance equal to half your level. You can @Compendium[pf2e.actionspf2e.Hide]{Hide} and @Compendium[pf2e.actionspf2e.Sneak]{Sneak} while it's snowing even lightly, even if it wouldn't be thick enough to normally grant concealment. Finally, all saumen kar can sense the mark of their pact upon you, and their attitude toward you is typically one step better than it would be otherwise (hostile to unfriendly, unfriendly to indifferent, etc.) Most saumen kar are unfriendly to outsiders; this would make them indifferent to you.</p>\n<p><strong>Special</strong> You can't select another dedication feat until you've gained two other feats from the pactbound initiate archetype.</p>"
        },
        "featType": {
            "value": "archetype"
        },
        "level": {
            "value": 2
        },
        "location": "",
        "prerequisites": {
            "value": [
                {
                    "value": "Erutaki or Jotun language"
                },
                {
                    "value": "trained in Nature"
                },
                {
                    "value": "must have earned the trust of a saumen kar who initiates you into the archetype"
                }
            ]
        },
        "rules": [
            {
                "key": "Resistance",
                "type": "cold",
                "value": "floor(@actor.level/2)"
            }
        ],
        "source": {
            "value": "Pathfinder Lost Omens: Monsters of Myth"
        },
        "traits": {
            "custom": "",
            "rarity": "rare",
            "value": [
                "archetype"
            ]
        }
    },
    "effects": [],
    "flags": {},
    "img": "systems/pf2e/icons/default-icons/feats.webp",
    "name": "Pactbound Dedication",
    "type": "feat"
}
