{
    "_id": "hPDerDCYmag3s0dP",
    "data": {
        "actionCategory": {
            "value": ""
        },
        "actionType": {
            "value": "action"
        },
        "actions": {
            "value": 1
        },
        "description": {
            "value": "<p><strong>Requirements</strong> You are wielding a shield</p>\n<hr />\n<p>Once you've had a moment to set your stance, you always have your shield ready without a thought.</p>\n<p>While you are in this stance, you constantly have your shield raised as if you'd used the @Compendium[pf2e.actionspf2e.Raise a Shield]{Raise a Shield} action, as long as you meet that action's requirements.</p>\n<p>@Compendium[pf2e.feat-effects.Stance: Paragon's Guard]{Stance: Paragon's Guard}</p>"
        },
        "featType": {
            "value": "class"
        },
        "level": {
            "value": 12
        },
        "location": "",
        "prerequisites": {
            "value": []
        },
        "rules": [],
        "source": {
            "value": "Pathfinder Core Rulebook"
        },
        "traits": {
            "custom": "",
            "rarity": "common",
            "value": [
                "fighter",
                "stance"
            ]
        }
    },
    "effects": [],
    "flags": {},
    "img": "systems/pf2e/icons/features/feats/feats.webp",
    "name": "Paragon's Guard",
    "type": "feat"
}
