{
    "_id": "rRbMOxX1QTHIIwAi",
    "data": {
        "actionCategory": {
            "value": ""
        },
        "actionType": {
            "value": "action"
        },
        "actions": {
            "value": 1
        },
        "description": {
            "value": "<p>Your spellcasting is rife with strange lights, esoteric gestures, and other captivating effects that befuddle your foes.</p>\n<p>If the next action you use is to Cast a Spell, any creature that attempts to use a reaction triggered by your Cast a Spell activity takes a -2 circumstance penalty to attack rolls and skill checks rolled as part of the reaction.</p>\n<p>In addition, if the spell includes a spell attack roll or requires a saving throw, creatures you hit or that fail their saves are @Compendium[pf2e.conditionitems.Fascinated]{Fascinated} with you until the start of your next turn.</p>"
        },
        "featType": {
            "value": "class"
        },
        "level": {
            "value": 16
        },
        "location": "",
        "prerequisites": {
            "value": []
        },
        "rules": [],
        "source": {
            "value": "Pathfinder Advanced Player's Guide"
        },
        "traits": {
            "custom": "",
            "rarity": "common",
            "value": [
                "manipulate",
                "mental",
                "metamagic",
                "oracle",
                "visual"
            ]
        }
    },
    "effects": [],
    "flags": {},
    "img": "systems/pf2e/icons/features/feats/feats.webp",
    "name": "Portentous Spell",
    "type": "feat"
}
