{
    "_id": "knJlRpltciLNTZba",
    "data": {
        "actionCategory": {
            "value": "defensive"
        },
        "actionType": {
            "value": "reaction"
        },
        "actions": {
            "value": null
        },
        "description": {
            "value": "<p><strong>Trigger</strong> You and your eidolon are in a damaging effect's area.</p>\n<p>The power of your bond can protect you and your eidolon from harm. If you and your eidolon would take different amounts of damage from the area effect, you take the lower amount of damage instead of the greater amount of damage.</p>\n<hr />\n<p><strong>Special</strong> This feat has the trait matching your eidolon's tradition (arcane, divine, occult, or primal).</p>"
        },
        "featType": {
            "value": "class"
        },
        "level": {
            "value": 10
        },
        "location": "",
        "prerequisites": {
            "value": []
        },
        "rules": [],
        "source": {
            "value": ""
        },
        "traits": {
            "custom": "",
            "rarity": "common",
            "value": [
                "abjuration",
                "summoner"
            ]
        }
    },
    "effects": [],
    "flags": {},
    "img": "systems/pf2e/icons/features/feats/feats.webp",
    "name": "Protective Bond",
    "type": "feat"
}
