{
    "_id": "E3NsAdbp7kkOvfnr",
    "data": {
        "actionCategory": {
            "value": "offensive"
        },
        "actionType": {
            "value": "free"
        },
        "actions": {
            "value": null
        },
        "description": {
            "value": "<p><strong>Requirements</strong> You could see your hunted prey when you rolled initiative at the beginning of the encounter, and this is your first action on your first turn of the encounter.</p>\n<p>You're always ready to get the jump on your target. You Step up to twice.</p>"
        },
        "featType": {
            "value": "archetype"
        },
        "level": {
            "value": 8
        },
        "location": "",
        "prerequisites": {
            "value": [
                {
                    "value": "Game Hunter Dedication"
                }
            ]
        },
        "rules": [],
        "source": {
            "value": "Pathfinder #175: Broken Tusk Moon"
        },
        "traits": {
            "custom": "",
            "rarity": "common",
            "value": [
                "archetype"
            ]
        }
    },
    "effects": [],
    "flags": {},
    "img": "systems/pf2e/icons/default-icons/feats.webp",
    "name": "Quick Positioning",
    "type": "feat"
}
