{
    "_id": "MyDluIbnX2sjm3pB",
    "data": {
        "actionCategory": {
            "value": "offensive"
        },
        "actionType": {
            "value": "action"
        },
        "actions": {
            "value": 1
        },
        "description": {
            "value": "<p><strong>Requirements</strong> You're wielding a simple firearm.</p>\n<hr />\n<p>When using a simple firearm, you can shoot objects right out of your enemy's hands. Attempt to @Compendium[pf2e.actionspf2e.Disarm]{Disarm} the target using a ranged attack roll with your simple firearm, instead of attempting an Athletics check against the target's Reflex DC.</p>"
        },
        "featType": {
            "value": "archetype"
        },
        "level": {
            "value": 14
        },
        "location": "",
        "prerequisites": {
            "value": [
                {
                    "value": "Bullet Dancer Dedication"
                },
                {
                    "value": "Trick Shot"
                }
            ]
        },
        "rules": [],
        "source": {
            "value": ""
        },
        "traits": {
            "custom": "",
            "rarity": "common",
            "value": [
                "archetype"
            ]
        }
    },
    "effects": [],
    "flags": {},
    "img": "systems/pf2e/icons/default-icons/feats.webp",
    "name": "Ranged Disarm",
    "type": "feat"
}
