{
    "_id": "9Slu8lSOYnDtKsIb",
    "data": {
        "actionCategory": {
            "value": "defensive"
        },
        "actionType": {
            "value": "reaction"
        },
        "actions": {
            "value": null
        },
        "description": {
            "value": "<p><strong>Frequency</strong> once per day</p>\n<p><strong>Trigger</strong> You would be reduced to 0 Hit Points.</p>\n<hr />\n<p>In a burst of flame, you return to health like a phoenix rising from the ashes. Change your current Hit Points to 30 and cast a 6th-level fireball centered on yourself. This fireball doesn't affect you. Your hair turns brilliant red for 1 hour.</p>\n<p>If you haven't used Ruby Resurrection and you die, you stay in initiative order and Ruby Resurrection triggers automatically at the start of your next turn, bringing you back to life at 0 HP before having its normal effects. This happens only if there are some remains to resurrect; for instance, if you were killed by disintegrate you wouldn't return.</p>\n<p><strong>Special</strong> This feat has the trait corresponding to the tradition of spells you cast.</p>"
        },
        "featType": {
            "value": "class"
        },
        "level": {
            "value": 20
        },
        "location": "",
        "prerequisites": {
            "value": []
        },
        "rules": [],
        "source": {
            "value": "Pathfinder #168: King of the Mountain"
        },
        "traits": {
            "custom": "",
            "rarity": "uncommon",
            "value": [
                "healing",
                "necromancy",
                "sorcerer"
            ]
        }
    },
    "effects": [],
    "flags": {},
    "img": "systems/pf2e/icons/default-icons/feats.webp",
    "name": "Ruby Resurrection",
    "type": "feat"
}
