{
    "_id": "qUZnrueC2a0zf95N",
    "data": {
        "actionCategory": {
            "value": ""
        },
        "actionType": {
            "value": "passive"
        },
        "actions": {
            "value": null
        },
        "description": {
            "value": "<p>Unlike most of your kind, who dismiss goblins as embarrassments or expendable annoyances, you have studied the methodology behind their irresponsible and incomprehensible actions. You gain the @Compendium[pf2e.feats-srd.Adopted Ancestry]{Adopted Ancestry} general feat and must select goblin as the feat's chosen ancestry. You also gain one 1st-level goblin ancestry feat.</p>"
        },
        "featType": {
            "value": "ancestry"
        },
        "level": {
            "value": 5
        },
        "location": "",
        "prerequisites": {
            "value": []
        },
        "rules": [
            {
                "key": "GrantItem",
                "uuid": "Compendium.pf2e.feats-srd.Adopted Ancestry"
            }
        ],
        "source": {
            "value": "Pathfinder Lost Omens: Ancestry Guide"
        },
        "traits": {
            "custom": "",
            "rarity": "common",
            "value": [
                "hobgoblin"
            ]
        }
    },
    "effects": [],
    "flags": {},
    "img": "systems/pf2e/icons/features/feats/feats.webp",
    "name": "Runtsage",
    "type": "feat"
}
