{
    "_id": "xzpMQ2ZRn9zC23XG",
    "data": {
        "actionCategory": {
            "value": ""
        },
        "actionType": {
            "value": "action"
        },
        "actions": {
            "value": 1
        },
        "description": {
            "value": "<p><strong>Requirements</strong> You are adjacent to at least one enemy.</p>\n<hr />\n<p>You instinctively know how to flee danger. You Stride up to your Speed, with a +5-foot status bonus to your Speed, and you gain a +2 circumstance bonus to AC against reactions triggered by this movement. You must end this movement in a space that's not adjacent to any enemy.</p>"
        },
        "featType": {
            "value": "ancestry"
        },
        "level": {
            "value": 1
        },
        "prerequisites": {
            "value": []
        },
        "rules": [],
        "source": {
            "value": "Pathfinder Advanced Player's Guide"
        },
        "traits": {
            "custom": "",
            "rarity": "common",
            "value": [
                "kobold"
            ]
        }
    },
    "effects": [],
    "flags": {},
    "img": "systems/pf2e/icons/features/feats/feats.webp",
    "name": "Scamper",
    "type": "feat"
}
