{
    "_id": "zaGD9Og2p8Opa0oJ",
    "data": {
        "actionCategory": {
            "value": ""
        },
        "actionType": {
            "value": "passive"
        },
        "actions": {
            "value": null
        },
        "description": {
            "value": "<p>You're always on the lookout for supplies and valuables. Each time you use the @Compendium[pf2e.actionspf2e.Seek]{Seek} action to search for objects (including secret doors and hazards), you can search for objects in your choice of a @Template[type:emanation|distance:10] around you or an adjacent 15-foot-by-15-foot area, rather than a single adjacent 10-foot-by-10-foot area.</p>"
        },
        "featType": {
            "value": "ancestry"
        },
        "level": {
            "value": 1
        },
        "prerequisites": {
            "value": []
        },
        "rules": [],
        "source": {
            "value": "Pathfinder Advanced Player's Guide"
        },
        "traits": {
            "custom": "",
            "rarity": "common",
            "value": [
                "tengu"
            ]
        }
    },
    "effects": [],
    "flags": {},
    "img": "systems/pf2e/icons/features/feats/feats.webp",
    "name": "Scavenger's Search",
    "type": "feat"
}
