{
    "_id": "xWWcxZUgQTaHZHkY",
    "data": {
        "actionCategory": {
            "value": ""
        },
        "actionType": {
            "value": "passive"
        },
        "actions": {
            "value": null
        },
        "description": {
            "value": "<p>Your intricate knowledge of your school lets you easily negate spells from that school. Instead of being able to counter a foe's spell with Counterspell only if you have the same spell prepared, if the foe casts a spell from the school matching your specialization, you can Counterspell it with any other spell of the same school.</p>"
        },
        "featType": {
            "value": "archetype"
        },
        "level": {
            "value": 12
        },
        "location": "",
        "prerequisites": {
            "value": [
                {
                    "value": "Counterspell"
                },
                {
                    "value": "Runelord Dedication"
                }
            ]
        },
        "rules": [],
        "source": {
            "value": ""
        },
        "traits": {
            "custom": "",
            "rarity": "common",
            "value": [
                "archetype"
            ]
        }
    },
    "effects": [],
    "flags": {},
    "img": "systems/pf2e/icons/features/feats/feats.webp",
    "name": "School Counterspell",
    "type": "feat"
}
