{
    "_id": "AfTMuAln2f0Pa3Lj",
    "data": {
        "actionCategory": {
            "value": ""
        },
        "actionType": {
            "value": "passive"
        },
        "actions": {
            "value": null
        },
        "description": {
            "value": "<p><strong>Requirements</strong> You are in @Compendium[pf2e.feats-srd.Clinging Shadows Initiate]{Clinging Shadows Initiate}.</p>\n<hr />\n<p>You launch a wave of shadowy ki outward from your body, damaging your opponents and potentially binding them in place. You gain the <em>@Compendium[pf2e.spells-srd.Shadow's Web]{Shadow's Web}</em> ki spell. Increase the number of Focus Points in your focus pool by 1.</p>"
        },
        "featType": {
            "value": "class"
        },
        "level": {
            "value": 14
        },
        "prerequisites": {
            "value": [
                {
                    "value": "ki spells"
                }
            ]
        },
        "rules": [
            {
                "key": "ActiveEffectLike",
                "mode": "add",
                "path": "data.resources.focus.max",
                "value": 1
            }
        ],
        "source": {
            "value": "Pathfinder Advanced Player's Guide"
        },
        "traits": {
            "custom": "",
            "rarity": "common",
            "value": [
                "monk"
            ]
        }
    },
    "effects": [],
    "flags": {},
    "img": "systems/pf2e/icons/features/feats/feats.webp",
    "name": "Shadow's Web",
    "type": "feat"
}
