{
    "_id": "8Qn80RunXaChOM5p",
    "data": {
        "actionCategory": {
            "value": ""
        },
        "actionType": {
            "value": "passive"
        },
        "actions": {
            "value": null
        },
        "description": {
            "value": "<p>Your shadow assaults your foes. You can cast <em>@Compendium[pf2e.spells-srd.Shadow Blast]{Shadow Blast}</em> as a 5th-level occult innate spell once per day. At 17th level, your <em>shadow blast</em> is heightened to 6th level.</p>"
        },
        "featType": {
            "value": "ancestry"
        },
        "level": {
            "value": 13
        },
        "location": "",
        "prerequisites": {
            "value": []
        },
        "rules": [],
        "source": {
            "value": "Pathfinder Lost Omens: Ancestry Guide"
        },
        "traits": {
            "custom": "",
            "rarity": "common",
            "value": [
                "fetchling"
            ]
        }
    },
    "effects": [],
    "flags": {},
    "img": "systems/pf2e/icons/features/feats/feats.webp",
    "name": "Shadow's Assault",
    "type": "feat"
}
