{
    "_id": "iAziUKdxgy4k4ypY",
    "data": {
        "actionCategory": {
            "value": ""
        },
        "actionType": {
            "value": "passive"
        },
        "actions": {
            "value": null
        },
        "description": {
            "value": "<p>When you cast light, you can modify its target to be 1 melee weapon, either unattended or possessed by you or a willing ally, and modify its duration to be 1 minute. If you do, add the following to its effects: When a creature wielding the weapon critically hits a foe, you can Dismiss the Spell as a reaction, causing the foe to be @Compendium[pf2e.conditionitems.Dazzled]{Dazzled} for 1 round. After you use this reaction, you can't use this modification again for 10 minutes.</p>"
        },
        "featType": {
            "value": "archetype"
        },
        "level": {
            "value": 4
        },
        "location": "",
        "prerequisites": {
            "value": [
                {
                    "value": "Spell Trickster Dedication"
                },
                {
                    "value": "ability to cast light"
                }
            ]
        },
        "rules": [],
        "source": {
            "value": ""
        },
        "traits": {
            "custom": "",
            "rarity": "common",
            "value": [
                "archetype"
            ]
        }
    },
    "effects": [],
    "flags": {},
    "img": "systems/pf2e/icons/default-icons/feats.webp",
    "name": "Shining Arms",
    "type": "feat"
}
