{
    "_id": "3HuiLoQuJKLAh5rV",
    "data": {
        "actionCategory": {
            "value": ""
        },
        "actionType": {
            "value": "passive"
        },
        "actions": {
            "value": null
        },
        "description": {
            "value": "<p>Your powerful legs allow you to make sudden and dramatic leaps. You can @Compendium[pf2e.actionspf2e.Leap]{Leap} as a 2-action activity to double the distance you can Leap vertically, or Leap as a 3-action activity to triple the distance you can Leap vertically. You don't automatically fail @Compendium[pf2e.actionspf2e.Long Jump]{Long Jump} for jumping in a different direction than your Stride.</p>"
        },
        "featType": {
            "value": "ancestry"
        },
        "level": {
            "value": 5
        },
        "prerequisites": {
            "value": [
                {
                    "value": "expert in Athletics"
                }
            ]
        },
        "rules": [],
        "source": {
            "value": "Pathfinder Advanced Player's Guide"
        },
        "traits": {
            "custom": "",
            "rarity": "common",
            "value": [
                "catfolk"
            ]
        }
    },
    "effects": [],
    "flags": {},
    "img": "systems/pf2e/icons/features/feats/feats.webp",
    "name": "Springing Leaper",
    "type": "feat"
}
