{
    "_id": "bLj5ufeOdVWDx8Aw",
    "data": {
        "actionCategory": {
            "value": ""
        },
        "actionType": {
            "value": "passive"
        },
        "actions": {
            "value": null
        },
        "description": {
            "value": "<p>Starlight shines in your sight, enhancing your perception and range.</p>\n<p>When you make a ranged Strike while in Arcane Cascade stance, you lower the DC of your flat check to target a creature that's @Compendium[pf2e.conditionitems.Concealed]{Concealed} or @Compendium[pf2e.conditionitems.Hidden]{Hidden} from you. The DC is reduced to @Check[type:flat|dc:3]{3} instead of 5 against a concealed creature and to @Check[type:flat|dc:9]{9} instead of 11 against a hidden one.</p>\n<p>When you cast shooting star and target a hidden creature, you don't have to attempt the flat check for targeting a hidden creature with a ranged Strike.</p>"
        },
        "featType": {
            "value": "class"
        },
        "level": {
            "value": 4
        },
        "location": "",
        "prerequisites": {
            "value": [
                {
                    "value": "Arcane Cascade"
                },
                {
                    "value": "starlit span hybrid study"
                }
            ]
        },
        "rules": [],
        "source": {
            "value": ""
        },
        "traits": {
            "custom": "",
            "rarity": "common",
            "value": [
                "magus"
            ]
        }
    },
    "effects": [],
    "flags": {},
    "img": "systems/pf2e/icons/features/feats/feats.webp",
    "name": "Starlit Eyes",
    "type": "feat"
}
