{
    "_id": "EwCDbWg8yPxDWF4a",
    "data": {
        "actionCategory": {
            "value": ""
        },
        "actionType": {
            "value": "passive"
        },
        "actions": {
            "value": null
        },
        "description": {
            "value": "<p>Your sudden appearance leaves your foe unable to respond. When you use Startling Appearance, if your foe's level is equal to or lower than yours, they are also @Compendium[pf2e.conditionitems.Stunned]{Stunned 1} on a hit, or stunned 2 on a critical hit.</p>"
        },
        "featType": {
            "value": "archetype"
        },
        "level": {
            "value": 16
        },
        "prerequisites": {
            "value": [
                {
                    "value": "Startling Appearance"
                }
            ]
        },
        "rules": [],
        "source": {
            "value": "Pathfinder Advanced Player's Guide"
        },
        "traits": {
            "custom": "",
            "rarity": "common",
            "value": [
                "archetype",
                "vigilante"
            ]
        }
    },
    "effects": [],
    "flags": {},
    "img": "systems/pf2e/icons/features/feats/feats.webp",
    "name": "Stunning Appearance",
    "type": "feat"
}
