{
    "_id": "BkKWTt3ufaCN2ZdI",
    "data": {
        "actionCategory": {
            "value": ""
        },
        "actionType": {
            "value": "action"
        },
        "actions": {
            "value": 2
        },
        "description": {
            "value": "<p>(Barbarian) You swing at a foe while mid-leap.</p>\n<p>(Fighter) You make an impressive leap and swing while you soar.</p>\n<hr />\n<p>Make a @Compendium[pf2e.actionspf2e.Leap]{Leap}, @Compendium[pf2e.actionspf2e.High Jump]{High Jump}, or @Compendium[pf2e.actionspf2e.Long Jump]{Long Jump} and attempt one melee Strike at any point during your jump.</p>\n<p>Immediately after the Strike, you fall to the ground if you're in the air, even if you haven't reached the maximum distance of your jump. If the distance you fall is no more than the height of your jump, you take no damage and land upright.</p>\n<p>When attempting a High Jump or Long Jump during a Sudden Leap, determine the DC using the Long Jump DCs, and increase your maximum distance to double your Speed.</p>"
        },
        "featType": {
            "value": "class"
        },
        "level": {
            "value": 8
        },
        "prerequisites": {
            "value": []
        },
        "rules": [],
        "source": {
            "value": "Pathfinder Core Rulebook"
        },
        "traits": {
            "custom": "",
            "rarity": "common",
            "value": [
                "barbarian",
                "fighter"
            ]
        }
    },
    "effects": [],
    "flags": {},
    "img": "systems/pf2e/icons/features/feats/feats.webp",
    "name": "Sudden Leap",
    "type": "feat"
}
