{
    "_id": "vqLt1qjdrflTmdsw",
    "data": {
        "actionCategory": {
            "value": ""
        },
        "actionType": {
            "value": "passive"
        },
        "actions": {
            "value": null
        },
        "description": {
            "value": "<p>The Old Sun Gods have granted you a gift in your fight against Walkena. You gain the <em>@Compendium[pf2e.spells-srd.Sun's Fury]{Sun's Fury}</em> focus spell. If you don't already have one, you gain a focus pool of 1 Focus Point, which you can regain using the Refocus activity to pray to the Old Sun Gods; if you already have a focus pool, increase the number of Focus Points in your focus pool by 1. Your Bright Lion focus spells are divine spells; when you gain this feat, if you aren't already, you become trained in divine spell attacks and spell DCs, using Charisma as your spellcasting ability score.</p>"
        },
        "featType": {
            "value": "archetype"
        },
        "level": {
            "value": 6
        },
        "prerequisites": {
            "value": [
                {
                    "value": "Bright Lion Dedication"
                }
            ]
        },
        "rules": [
            {
                "key": "ActiveEffectLike",
                "mode": "add",
                "path": "data.resources.focus.max",
                "value": 1
            }
        ],
        "source": {
            "value": ""
        },
        "traits": {
            "custom": "",
            "rarity": "common",
            "selected": {
                "archetype": "Archetype"
            },
            "value": [
                "archetype"
            ]
        }
    },
    "effects": [],
    "flags": {},
    "img": "systems/pf2e/icons/features/feats/feats.webp",
    "name": "Sun's Fury",
    "type": "feat"
}
