{
    "_id": "k4QU2edqSoB23foo",
    "data": {
        "actionCategory": {
            "value": ""
        },
        "actionType": {
            "value": "passive"
        },
        "actions": {
            "value": null
        },
        "description": {
            "value": "<p>You make your foes fall painfully when you trip them. When you successfully @Compendium[pf2e.actionspf2e.Trip]{Trip} a @Compendium[pf2e.conditionitems.Flat-Footed]{Flat-Footed} foe, your target takes [[/r {1d6}[bludgeoning]]]{1d6 bludgeoning damage}. On a critical success, the target takes 1d6 bludgeoning damage plus your sneak attack damage.</p>"
        },
        "featType": {
            "value": "class"
        },
        "level": {
            "value": 4
        },
        "prerequisites": {
            "value": []
        },
        "rules": [],
        "source": {
            "value": "Pathfinder Advanced Player's Guide"
        },
        "traits": {
            "custom": "",
            "rarity": "common",
            "value": [
                "rogue"
            ]
        }
    },
    "effects": [],
    "flags": {},
    "img": "systems/pf2e/icons/features/feats/feats.webp",
    "name": "The Harder They Fall",
    "type": "feat"
}
