{
    "_id": "PaUpesy5lyDLlwud",
    "data": {
        "actionCategory": {
            "value": ""
        },
        "actionType": {
            "value": "passive"
        },
        "actions": {
            "value": null
        },
        "description": {
            "value": "<p>You gain the <em>@Compendium[pf2e.spells-srd.Transcribe Moment]{Transcribe Moment}</em> focus spell. If you don't already have one, you gain a focus pool of 1 Focus Point, which you can Refocus by spending 10 minutes to study a text or record notes on your recent experiences.</p>"
        },
        "featType": {
            "value": "archetype"
        },
        "level": {
            "value": 8
        },
        "prerequisites": {
            "value": [
                {
                    "value": "Scrollmaster Dedication"
                }
            ]
        },
        "rules": [
            {
                "key": "ActiveEffectLike",
                "mode": "add",
                "path": "data.resources.focus.max",
                "value": 1
            }
        ],
        "source": {
            "value": "Pathfinder Lost Omens: Pathfinder Society Guide"
        },
        "traits": {
            "custom": "",
            "rarity": "common",
            "value": [
                "archetype"
            ]
        }
    },
    "effects": [],
    "flags": {},
    "img": "systems/pf2e/icons/features/feats/feats.webp",
    "name": "Transcribe Moment",
    "type": "feat"
}
