{
    "_id": "Rb16bcCiovwRqVgN",
    "data": {
        "actionCategory": {
            "value": ""
        },
        "actionType": {
            "value": "passive"
        },
        "actions": {
            "value": null
        },
        "description": {
            "value": "<p>Your mercy transcends the bounds of life and death.</p>\n<p>When you use @Compendium[pf2e.feats-srd.Mercy]{Mercy}, you can cast <em>@Compendium[pf2e.spells-srd.Lay on Hands]{Lay on Hands}</em> on a creature that died since your last turn to return it to life. The target returns to life with 1 hit point and becomes wounded 1. You can't use Ultimate Mercy if the triggering effect was disintegrate or a death effect.</p>"
        },
        "featType": {
            "value": "class"
        },
        "level": {
            "value": 18
        },
        "location": "",
        "prerequisites": {
            "value": [
                {
                    "value": "Mercy"
                }
            ]
        },
        "rules": [],
        "source": {
            "value": "Pathfinder Core Rulebook"
        },
        "traits": {
            "custom": "",
            "rarity": "common",
            "value": [
                "champion"
            ]
        }
    },
    "effects": [],
    "flags": {},
    "img": "systems/pf2e/icons/features/feats/feats.webp",
    "name": "Ultimate Mercy",
    "type": "feat"
}
