{
    "_id": "6f8zTNIs5XXzkhkR",
    "data": {
        "actionCategory": {
            "value": ""
        },
        "actionType": {
            "value": "passive"
        },
        "actions": {
            "value": null
        },
        "description": {
            "value": "<p><strong>Minor Boon</strong> Lamashtu's touch mutates a part of your body.</p>\n<p>You gain either an unarmed Strike that deals 1d6 damage or one that deals 1d4 damage and has the finesse and agile traits.</p>\n<p>Whether the attack deals bludgeoning, slashing, or piercing damage depends on the mutation.</p>\n<p>If the unarmed Strike replaces a limb, you can still use the mutated limb for its original functions. Lamashtu chooses the form and function of your mutation.</p>"
        },
        "featType": {
            "value": "deityboon"
        },
        "level": {
            "value": 0
        },
        "prerequisites": {
            "value": []
        },
        "rules": [],
        "source": {
            "value": ""
        },
        "traits": {
            "custom": "",
            "rarity": "common",
            "value": []
        }
    },
    "effects": [],
    "flags": {},
    "img": "systems/pf2e/icons/deity/Lamashtu.webp",
    "name": "Lamashtu - Minor Boon",
    "type": "feat"
}
