{
    "_id": "4FkVB4uQK4eHZJ6Z",
    "data": {
        "actionCategory": {
            "value": ""
        },
        "actionType": {
            "value": "passive"
        },
        "actions": {
            "value": null
        },
        "description": {
            "value": "<p><strong>Minor Boon (Single-Use)</strong> Your attack becomes more destructive. Once, one of your failed or successful attacks becomes a critical hit, and your weapon or unarmed attack gains the deadly d12 trait for this attack, replacing any deadly trait it already had.</p>\n<p>Rovagug typically grants this boon when the critical hit could destroy something precious or significant.</p>"
        },
        "featType": {
            "value": "deityboon"
        },
        "level": {
            "value": 0
        },
        "prerequisites": {
            "value": []
        },
        "rules": [],
        "source": {
            "value": ""
        },
        "traits": {
            "custom": "",
            "rarity": "common",
            "value": []
        }
    },
    "effects": [],
    "flags": {},
    "img": "systems/pf2e/icons/deity/Rovagug.webp",
    "name": "Rovagug - Minor Boon",
    "type": "feat"
}
