{
    "_id": "XfMZ83VA7dtF7fL5",
    "data": {
        "actionCategory": {
            "value": ""
        },
        "actionType": {
            "value": "passive"
        },
        "actions": {
            "value": null
        },
        "description": {
            "value": "<p><strong>Minor Curse</strong> You must overindulge or partake in forbidden feasts before you find yourself even remotely sated.</p>\n<p>You need to eat 20 times as much food as normal to avoid starvation, though you always feel hungry regardless of how much you eat.</p>\n<p>If you dine on the flesh and blood of sapient creatures, you need to eat only the normal amount of such meals and your hunger abates.</p>"
        },
        "featType": {
            "value": "curse"
        },
        "level": {
            "value": 0
        },
        "prerequisites": {
            "value": []
        },
        "rules": [],
        "source": {
            "value": ""
        },
        "traits": {
            "custom": "",
            "rarity": "common",
            "value": []
        }
    },
    "effects": [],
    "flags": {},
    "img": "systems/pf2e/icons/deity/Urgathoa.webp",
    "name": "Urgathoa - Minor Curse",
    "type": "feat"
}
