{
    "_id": "h2JzNunzO8hXiNV3",
    "data": {
        "badge": null,
        "description": {
            "value": "<p>Granted by <em>@Compendium[pf2e.spells-srd.Lifelink Surge]{Lifelink Surge}</em>.</p>"
        },
        "duration": {
            "expiry": "turn-start",
            "sustained": false,
            "unit": "rounds",
            "value": 4
        },
        "level": {
            "value": 2
        },
        "rules": [
            {
                "key": "FastHealing",
                "value": "@item.level * 2"
            }
        ],
        "source": {
            "value": ""
        },
        "start": {
            "initiative": null,
            "value": 0
        },
        "target": null,
        "tokenIcon": {
            "show": true
        },
        "traits": {
            "custom": "",
            "rarity": "common",
            "value": []
        }
    },
    "effects": [],
    "flags": {},
    "img": "systems/pf2e/icons/spells/lifelink-surge.webp",
    "name": "Spell Effect: Lifelink Surge",
    "type": "effect"
}
