{
    "_id": "R27azQfzeFuFc48G",
    "data": {
        "description": {
            "value": "<p>Granted by <em>@Compendium[pf2e.spells-srd.Take its Course]{Take its Course}</em>, when used to hinder a target against an affliction.</p>\n<p>The target gains a -2 status bonus to its saving throw against the affliction.</p>"
        },
        "duration": {
            "expiry": "turn-start",
            "sustained": false,
            "unit": "unlimited",
            "value": -1
        },
        "level": {
            "value": 4
        },
        "rules": [
            {
                "key": "FlatModifier",
                "predicate": {
                    "all": [
                        "affliction"
                    ]
                },
                "selector": "saving-throw",
                "type": "status",
                "value": -2
            }
        ],
        "source": {
            "value": ""
        },
        "start": {
            "initiative": null,
            "value": 0
        },
        "target": null,
        "tokenIcon": {
            "show": true
        },
        "traits": {
            "custom": "",
            "rarity": "common",
            "value": []
        }
    },
    "effects": [],
    "flags": {},
    "img": "systems/pf2e/icons/spells/take-its-course.webp",
    "name": "Spell Effect: Take Its Course (Affliction, Hinder)",
    "type": "effect"
}
