{
    "_id": "6Ev2ytJZfr2t33iy",
    "data": {
        "description": {
            "value": "<p>You flood your eidolon with power, creating a temporary evolution in your eidolon's capabilities. Choose one of the following effects:</p>\n<ul>\n<li>Your eidolon gains @Compendium[pf2e.ancestryfeatures.Low-Light Vision]{Low-Light Vision} and @Compendium[pf2e.ancestryfeatures.Darkvision]{Darkvision}.</li>\n</ul>"
        },
        "duration": {
            "expiry": "turn-start",
            "sustained": false,
            "unit": "minutes",
            "value": 1
        },
        "level": {
            "value": 1
        },
        "rules": [
            {
                "key": "Sense",
                "label": "PF2E.SensesLowLightVision",
                "selector": "lowLightVision"
            },
            {
                "key": "Sense",
                "label": "PF2E.SensesDarkvision",
                "selector": "darkvision"
            }
        ],
        "source": {
            "value": "Pathfinder Secrets of Magic"
        },
        "start": {
            "initiative": null,
            "value": 0
        },
        "target": null,
        "tokenIcon": {
            "show": true
        },
        "traits": {
            "custom": "",
            "rarity": "common",
            "value": []
        }
    },
    "effects": [],
    "flags": {},
    "img": "systems/pf2e/icons/default-icons/effect.svg",
    "name": "Spell Effect: Evolution Surge (Sight)",
    "type": "effect"
}
