{
    "_id": "nemThuhp3praALY6",
    "data": {
        "description": {
            "value": "<p>Granted by <em>@Compendium[pf2e.spells-srd.Zealous Conviction]{Zealous Conviction}</em></p>\n<p>You bypass your targets' rational minds, instilling them with unshakable conviction and zeal. The targets each gain 12 temporary Hit Points and a +2 status bonus to Will saves against mental effects, as their faith overrides the signals from their own bodies and minds. If you tell a target to do something, it must comply with your request, though if it would normally find the task repugnant, it can attempt a Will save at the end of its turn each round due to the cognitive dissonance. On a success, it ends the spell's effects on itself entirely.</p>\n<hr />\n<p><strong>Heightened (9th)</strong> The temporary Hit Points increase to 18, and the status bonus to Will saves increases to +3.</p>"
        },
        "duration": {
            "expiry": "turn-end",
            "sustained": false,
            "unit": "minutes",
            "value": 10
        },
        "level": {
            "value": 6
        },
        "rules": [
            {
                "key": "FlatModifier",
                "predicate": {
                    "all": [
                        "mental"
                    ]
                },
                "selector": "will",
                "type": "status",
                "value": {
                    "brackets": [
                        {
                            "end": 8,
                            "start": 6,
                            "value": 2
                        },
                        {
                            "start": 9,
                            "value": 3
                        }
                    ],
                    "field": "item|data.level.value"
                }
            },
            {
                "key": "TempHP",
                "label": "Zealous Conviction",
                "value": {
                    "brackets": [
                        {
                            "end": 8,
                            "start": 6,
                            "value": 12
                        },
                        {
                            "start": 9,
                            "value": 18
                        }
                    ],
                    "field": "item|data.level.value"
                }
            }
        ],
        "source": {
            "value": ""
        },
        "start": {
            "initiative": null,
            "value": 0
        },
        "target": null,
        "tokenIcon": {
            "show": true
        },
        "traits": {
            "custom": "",
            "rarity": "common",
            "value": []
        }
    },
    "effects": [],
    "flags": {},
    "img": "systems/pf2e/icons/spells/zealous-conviction.webp",
    "name": "Spell Effect: Zealous Conviction",
    "type": "effect"
}
