{
    "_id": "X7RD0JRxhJV9u2LC",
    "data": {
        "description": {
            "value": "<p>Granted by <em>@Compendium[pf2e.spells-srd.Disrupting Weapons]{Disrupting Weapons}</em>.</p>\n<p>You infuse weapons with positive energy. Attacks with these weapons deal an extra 1d4 positive damage to undead.</p>\n<hr />\n<p><strong>Heightened (3rd)</strong> The damage increases to 2d4 damage.</p>\n<p><strong>Heightened (5th)</strong> Target up to three weapons, and the damage increases to 3d4 damage.</p>"
        },
        "duration": {
            "expiry": "turn-start",
            "sustained": false,
            "unit": "minutes",
            "value": 1
        },
        "level": {
            "value": 1
        },
        "rules": [
            {
                "key": "EffectTarget",
                "predicate": {
                    "all": [
                        "weapon:equipped"
                    ]
                },
                "scope": "weapon"
            },
            {
                "key": "ToggleProperty",
                "label": "Attacking Undead",
                "property": "flags.pf2e.rollOptions.damage-roll.disrupting-weapons"
            },
            {
                "damageType": "positive",
                "dieSize": "d4",
                "key": "DamageDice",
                "predicate": {
                    "any": [
                        "disrupting-weapons",
                        "target:undead"
                    ]
                },
                "selector": "{item|data.target}-damage",
                "value": {
                    "brackets": [
                        {
                            "end": 2,
                            "value": {
                                "diceNumber": 1
                            }
                        },
                        {
                            "end": 4,
                            "start": 3,
                            "value": {
                                "diceNumber": 2
                            }
                        },
                        {
                            "start": 5,
                            "value": {
                                "diceNumber": 3
                            }
                        }
                    ],
                    "field": "item|data.level.value"
                }
            }
        ],
        "source": {
            "value": ""
        },
        "start": {
            "initiative": null,
            "value": 0
        },
        "target": null,
        "tokenIcon": {
            "show": true
        },
        "traits": {
            "custom": "",
            "rarity": "common",
            "value": []
        }
    },
    "effects": [],
    "flags": {},
    "img": "systems/pf2e/icons/spells/disrupting-weapons.webp",
    "name": "Spell Effect: Disrupting Weapons",
    "type": "effect"
}
