{
    "_id": "yq6iu0Qxg3YEbb6s",
    "data": {
        "description": {
            "value": "<p>An elemental force fills your target, granting the target the swiftness of air, the ruggedness of earth, the sting of fire, or the flexibility of water, depending on which element you choose. Choose an element when you Cast the Spell. The target gains the benefit of that element as described below, and this spell gains that trait's element.</p>\n<ul>\n<li><strong>Water</strong> The target takes on a watery sheen, gaining resistance 5 to fire and a swim Speed equal to its land Speed.</li>\n</ul>"
        },
        "duration": {
            "expiry": "turn-start",
            "sustained": false,
            "unit": "minutes",
            "value": 1
        },
        "level": {
            "value": 1
        },
        "rules": [
            {
                "key": "BaseSpeed",
                "selector": "swim-speed",
                "value": "@actor.attributes.speed.value"
            },
            {
                "key": "Resistance",
                "type": "fire",
                "value": 5
            }
        ],
        "source": {
            "value": "Pathfinder Core Rulebook"
        },
        "start": {
            "initiative": null,
            "value": 0
        },
        "target": null,
        "tokenIcon": {
            "show": true
        },
        "traits": {
            "custom": "",
            "rarity": "common",
            "value": []
        }
    },
    "effects": [],
    "flags": {},
    "img": "systems/pf2e/icons/spells/elemental-gift.webp",
    "name": "Spell Effect: Elemental Gift (Water)",
    "type": "effect"
}
