{
    "_id": "AZ6AaYdx2NwLWSwh",
    "data": {
        "attributes": {
            "ac": {
                "value": 40
            },
            "hardness": 30,
            "hasHealth": true,
            "hp": {
                "details": "",
                "max": 150,
                "temp": 0,
                "value": 150
            },
            "stealth": {
                "details": "<p>(legendary)</p>",
                "value": 30
            }
        },
        "creatureType": "",
        "details": {
            "description": "<p>The trapdoor's metal is infused with a deadly toxin that seeps out when the trap is triggered.</p>",
            "disable": "<p>DC 50 Thievery (legendary) to gum up the trapdoor's porous metal surface, DC 45 Crafting (master) to render the toxin inert, or <em>@Compendium[pf2e.spells-srd.Dispel Magic]{Dispel Magic}</em> (9th level; counteract DC 45) to counteract the trap's magic</p>",
            "isComplex": false,
            "level": {
                "value": 19
            },
            "reset": "",
            "routine": ""
        },
        "saves": {
            "fortitude": {
                "saveDetail": "",
                "value": 38
            },
            "reflex": {
                "saveDetail": "",
                "value": 30
            },
            "will": {
                "saveDetail": "",
                "value": 0
            }
        },
        "source": {
            "value": ""
        },
        "statusEffects": [],
        "traits": {
            "ci": [],
            "di": {
                "custom": "",
                "selected": {},
                "value": [
                    "object-immunities"
                ]
            },
            "dr": [],
            "dv": [],
            "rarity": "common",
            "size": {
                "value": "med"
            },
            "traits": {
                "custom": "",
                "value": [
                    "magical",
                    "trap"
                ]
            }
        }
    },
    "effects": [],
    "flags": {},
    "img": "systems/pf2e/icons/default-icons/hazard.svg",
    "items": [
        {
            "_id": "K2xZ73LiKk2uqR28",
            "data": {
                "actionCategory": {
                    "value": "offensive"
                },
                "actionType": {
                    "value": "reaction"
                },
                "actions": {
                    "value": null
                },
                "description": {
                    "value": "<p data-visibility=\"gm\"><strong>Trigger</strong> A creature opens the door without first whispering the name Blackfingers</p>\n<p><strong>Effect</strong> The metal trapdoor emits toxic vapors. Each creature within 30 feet must save against a potent strain of Blackfinger Blight.</p>"
                },
                "requirements": {
                    "value": ""
                },
                "rules": [],
                "slug": null,
                "source": {
                    "value": ""
                },
                "traits": {
                    "custom": "",
                    "rarity": "common",
                    "value": [
                        "curse",
                        "divine",
                        "necromancy"
                    ]
                },
                "trigger": {
                    "value": ""
                },
                "weapon": {
                    "value": ""
                }
            },
            "effects": [],
            "flags": {},
            "img": "systems/pf2e/icons/actions/Reaction.webp",
            "name": "Blackfinger's Prayer",
            "sort": 100000,
            "type": "action"
        },
        {
            "_id": "A04N1HzBOQCcYnM2",
            "data": {
                "actionCategory": {
                    "value": "offensive"
                },
                "actionType": {
                    "value": "passive"
                },
                "actions": {
                    "value": null
                },
                "description": {
                    "value": "<div data-visibility=\"gm\">\n<p>Each round, at the beginning of their turn, a creature affected by blackfinger blight must succeed at a @Check[type:flat|dc:5] check or drop one random item they're holding</p>\n</div>\n<p><strong>Saving Throw</strong> @Check[type:fortitude|dc:40]</p>\n<div data-visibility=\"gm\">\n<p><strong>Onset</strong> 1 round</p>\n<p><strong>Maximum Duration</strong> 6 rounds</p>\n<p><strong>Stage 1</strong> [[/r {6d6}[poison]]]{6d6 poison damage} (1 round)</p>\n<p><strong>Stage 2</strong> [[/r {8d6}[poison]]]{8d6 poison damage} (1 round)</p>\n<p><strong>Stage 3</strong> [[/r {10d6}[poison]]]{10d6 poison damage} and @Compendium[pf2e.conditionitems.Confused]{Confused} (1 round)</p>\n</div>"
                },
                "requirements": {
                    "value": ""
                },
                "rules": [],
                "slug": null,
                "source": {
                    "value": ""
                },
                "traits": {
                    "custom": "",
                    "rarity": "common",
                    "value": [
                        "poison",
                        "inhaled",
                        "virulent"
                    ]
                },
                "trigger": {
                    "value": ""
                },
                "weapon": {
                    "value": ""
                }
            },
            "effects": [],
            "flags": {},
            "img": "systems/pf2e/icons/actions/Passive.webp",
            "name": "Blackfinger Blight",
            "sort": 200000,
            "type": "action"
        }
    ],
    "name": "Blackfinger's Prayer",
    "token": {
        "disposition": 0,
        "height": 1,
        "img": "systems/pf2e/icons/default-icons/hazard.svg",
        "name": "Blackfinger's Prayer",
        "width": 1
    },
    "type": "hazard"
}
