{
    "_id": "82wJQmzPlKttl0sc",
    "data": {
        "attributes": {
            "ac": {
                "value": 37
            },
            "hardness": 15,
            "hasHealth": true,
            "hp": {
                "details": "to destroy one arm",
                "max": 50,
                "temp": 0,
                "tempmax": 0,
                "value": 50
            },
            "stealth": {
                "details": "<p>(expert)</p>",
                "value": 30
            }
        },
        "creatureType": "",
        "details": {
            "description": "<p>Four claw-tipped clockwork arms suspended from the ceiling pick up and deposit creatures into a nearby hatch.</p>",
            "disable": "<p>DC 43 Thievery (master) to jam and deactivate one of the arms or DC 46 Athletics (legendary) to tear an arm off the machine.</p>",
            "isComplex": true,
            "level": {
                "value": 15
            },
            "reset": "",
            "routine": "<p>(4 actions) The trap loses 1 action per arm destroyed or disabled. On its turn, the trap makes claw Strikes against creatures other than the Rumormonger or the Inkmaster. If an arm already has a creature grabbed, the trap spends 2 actions to use its Open Hatch ability.</p>"
        },
        "saves": {
            "fortitude": {
                "saveDetail": "",
                "value": 23
            },
            "reflex": {
                "saveDetail": "",
                "value": 26
            },
            "will": {
                "saveDetail": "",
                "value": 0
            }
        },
        "source": {
            "value": "Pathfinder #161: Belly of the Black Whale"
        },
        "statusEffects": [],
        "traits": {
            "ci": [],
            "di": {
                "custom": "",
                "selected": {},
                "value": [
                    "critical-hits",
                    "object-immunities",
                    "precision"
                ]
            },
            "dr": [],
            "dv": [],
            "rarity": "common",
            "size": {
                "value": "med"
            },
            "traits": {
                "custom": "",
                "value": [
                    "mechanical"
                ]
            }
        }
    },
    "effects": [],
    "flags": {},
    "img": "systems/pf2e/icons/default-icons/hazard.svg",
    "items": [
        {
            "_id": "XCR8NvW2d1UwWElX",
            "data": {
                "actionCategory": {
                    "value": "offensive"
                },
                "actionType": {
                    "value": "reaction"
                },
                "actions": {
                    "value": null
                },
                "description": {
                    "value": "<p data-visibility=\"gm\"><strong>Trigger</strong> The Rumormonger or the Inkmaster enters the room</p>\n<p><strong>Effect</strong> The trap rolls initiative.</p>"
                },
                "requirements": {
                    "value": ""
                },
                "rules": [],
                "slug": null,
                "source": {
                    "value": ""
                },
                "traits": {
                    "custom": "",
                    "rarity": "common",
                    "value": []
                },
                "trigger": {
                    "value": ""
                },
                "weapon": {
                    "value": ""
                }
            },
            "effects": [],
            "flags": {},
            "img": "systems/pf2e/icons/actions/Reaction.webp",
            "name": "Arm Activation",
            "sort": 100000,
            "type": "action"
        },
        {
            "_id": "WxDAGBp5686PFyEA",
            "data": {
                "attack": {
                    "value": ""
                },
                "attackEffects": {
                    "custom": "",
                    "value": [
                        "grab"
                    ]
                },
                "bonus": {
                    "value": 28
                },
                "damageRolls": {
                    "0": {
                        "damage": "3d10+15",
                        "damageType": "slashing"
                    }
                },
                "description": {
                    "value": ""
                },
                "rules": [],
                "slug": null,
                "source": {
                    "value": ""
                },
                "traits": {
                    "custom": "",
                    "rarity": "common",
                    "value": []
                },
                "weaponType": {
                    "value": "melee"
                }
            },
            "effects": [],
            "flags": {},
            "img": "systems/pf2e/icons/default-icons/melee.svg",
            "name": "claw",
            "sort": 200000,
            "type": "melee"
        },
        {
            "_id": "J6CumHMGaEuUCyrp",
            "data": {
                "actionCategory": {
                    "value": "offensive"
                },
                "actionType": {
                    "value": "action"
                },
                "actions": {
                    "value": 2
                },
                "description": {
                    "value": "<p>The metal hatch opens and the arms deposit a grabbed Medium or smaller creature into the hole. The creature becomes caught in the gears (see Caught in Gears) for 1 round before emerging in area <strong>K5</strong>. <strong>Reset</strong> Rewinding the gears for [[/br 1d4 #minutes]]{1d4 minutes} resets the trap.</p>"
                },
                "requirements": {
                    "value": ""
                },
                "rules": [],
                "slug": null,
                "source": {
                    "value": ""
                },
                "traits": {
                    "custom": "",
                    "rarity": "common",
                    "value": []
                },
                "trigger": {
                    "value": ""
                },
                "weapon": {
                    "value": ""
                }
            },
            "effects": [],
            "flags": {},
            "img": "systems/pf2e/icons/actions/TwoActions.webp",
            "name": "Open Hatch",
            "sort": 300000,
            "type": "action"
        }
    ],
    "name": "Clockwork Arms",
    "token": {
        "disposition": 0,
        "height": 1,
        "img": "systems/pf2e/icons/default-icons/hazard.svg",
        "name": "Clockwork Arms",
        "width": 1
    },
    "type": "hazard"
}
