{
    "_id": "ce2SoJ7nRNZ1AoK6",
    "data": {
        "attributes": {
            "ac": {
                "value": 12
            },
            "hardness": 5,
            "hasHealth": true,
            "hp": {
                "details": "",
                "max": 30,
                "temp": 0,
                "tempmax": 0,
                "value": 30
            },
            "stealth": {
                "details": "<p>(trained)</p>",
                "value": 13
            }
        },
        "creatureType": "",
        "details": {
            "description": "<p>A trapdoor in the floor conceals a stone chute.</p>",
            "disable": "<p>DC 20 Thievery (trained) to remove the trapdoor or lock it in position using a catch hidden inside the room's doorframe</p>",
            "isComplex": false,
            "level": {
                "value": 3
            },
            "reset": "",
            "routine": ""
        },
        "saves": {
            "fortitude": {
                "saveDetail": "",
                "value": 10
            },
            "reflex": {
                "saveDetail": "",
                "value": 6
            },
            "will": {
                "saveDetail": "",
                "value": 0
            }
        },
        "source": {
            "value": "Pathfinder #157: Devil at the Dreaming Palace"
        },
        "statusEffects": [],
        "traits": {
            "ci": [],
            "di": {
                "custom": "",
                "selected": {},
                "value": [
                    "precision",
                    "critical-hits",
                    "object-immunities"
                ]
            },
            "dr": [],
            "dv": [],
            "rarity": "common",
            "size": {
                "value": "med"
            },
            "traits": {
                "custom": "",
                "value": [
                    "mechanical",
                    "trap"
                ]
            }
        }
    },
    "effects": [],
    "flags": {},
    "img": "systems/pf2e/icons/default-icons/hazard.svg",
    "items": [
        {
            "_id": "w5G4Ty8RBA7MDSTS",
            "data": {
                "actionCategory": {
                    "value": ""
                },
                "actionType": {
                    "value": "reaction"
                },
                "actions": {
                    "value": null
                },
                "description": {
                    "value": "<p data-visibility=\"gm\"><strong>Trigger</strong> A creature walks onto the trapdoor</p>\n<p><strong>Effect</strong> The triggering creature falls 30 feet down the shaft to area <strong>E33,</strong> taking [[/r {15}[bludgeoning]]]{15 bludgeoning damage} and landing @Compendium[pf2e.conditionitems.Prone]{Prone} in the ochre jelly's pit. The creature can @Compendium[pf2e.actionspf2e.Grab an Edge]{Grab an Edge} to avoid falling.</p>\n<p>The DC to @Compendium[pf2e.actionspf2e.Climb]{Climb} the walls or Grab an Edge is 22.</p>"
                },
                "requirements": {
                    "value": ""
                },
                "rules": [],
                "slug": null,
                "source": {
                    "value": ""
                },
                "traits": {
                    "custom": "",
                    "rarity": "common",
                    "value": []
                },
                "trigger": {
                    "value": ""
                },
                "weapon": {
                    "value": ""
                }
            },
            "effects": [],
            "flags": {},
            "img": "systems/pf2e/icons/actions/Reaction.webp",
            "name": "Pitfall",
            "sort": 100000,
            "type": "action"
        }
    ],
    "name": "Hidden Chute",
    "token": {
        "disposition": 0,
        "height": 1,
        "img": "systems/pf2e/icons/default-icons/hazard.svg",
        "name": "Hidden Chute",
        "width": 1
    },
    "type": "hazard"
}
