{
    "_id": "7nbKDBGvwSx9T27G",
    "data": {
        "actionCategory": {
            "value": ""
        },
        "actionType": {
            "value": "passive"
        },
        "actions": {
            "value": null
        },
        "description": {
            "value": "<p>Many arcane spellcasters delve deeply into a single school of magic in an attempt to master its secrets. If you want to be a specialist wizard, choose a school in which to specialize. You gain additional spells and spell slots for spells of your school.</p>\n<p>If you don't choose a school, you're a universalist, a wizard who believes the path to true knowledge of magic requires a multidisciplinary understanding of all eight schools working together. Though a universalist lacks the focus of a specialist wizard, they have greater flexibility.</p>"
        },
        "featType": {
            "value": "classfeature"
        },
        "level": {
            "value": 1
        },
        "location": "",
        "prerequisites": {
            "value": []
        },
        "rules": [
            {
                "key": "ActiveEffectLike",
                "mode": "upgrade",
                "path": "data.resources.focus.max",
                "priority": 9,
                "value": 1
            },
            {
                "adjustName": false,
                "allowedDrops": {
                    "all": [
                        "item:level:1",
                        "item:trait:wizard",
                        "item:type:feature"
                    ],
                    "label": "level 1 Wizard class feature"
                },
                "choices": [
                    {
                        "value": "Compendium.pf2e.classfeatures.Abjuration"
                    },
                    {
                        "value": "Compendium.pf2e.classfeatures.Conjuration"
                    },
                    {
                        "value": "Compendium.pf2e.classfeatures.Divination"
                    },
                    {
                        "value": "Compendium.pf2e.classfeatures.Enchantment"
                    },
                    {
                        "value": "Compendium.pf2e.classfeatures.Evocation"
                    },
                    {
                        "value": "Compendium.pf2e.classfeatures.Illusion"
                    },
                    {
                        "value": "Compendium.pf2e.classfeatures.Necromancy"
                    },
                    {
                        "value": "Compendium.pf2e.classfeatures.Transmutation"
                    },
                    {
                        "value": "Compendium.pf2e.classfeatures.Universalist"
                    }
                ],
                "key": "ChoiceSet",
                "prompt": "Select an Arcane School."
            },
            {
                "key": "GrantItem",
                "uuid": "{item|flags.pf2e.rulesSelections.arcaneSchool}"
            }
        ],
        "source": {
            "value": "Pathfinder Core Rulebook"
        },
        "traits": {
            "custom": "",
            "rarity": "common",
            "value": [
                "wizard"
            ]
        }
    },
    "effects": [],
    "flags": {},
    "img": "systems/pf2e/icons/features/classes/choice-feature.webp",
    "name": "Arcane School",
    "type": "feat"
}
