{
    "_id": "dKTb959aCQIzSIXj",
    "data": {
        "actionCategory": {
            "value": ""
        },
        "actionType": {
            "value": "passive"
        },
        "actions": {
            "value": null
        },
        "description": {
            "value": "<p>You lay claim to the might of dragons, but your powers are sacred instead of arcane-born from a worship of draconic might so powerful it infused your blood or, perhaps, from a celestial or draconic power blessing one of your ancestors received.</p>\n<p><strong>Spell List</strong> divine</p>\n<p><strong>Bloodline Skills</strong> Intimidation, Religion</p>\n<p><strong>Granted Spells</strong> cantrip: <em>@Compendium[pf2e.spells-srd.Read Aura]{Read Aura}</em>; 1st: <em>@Compendium[pf2e.spells-srd.Mage Armor]{Mage Armor}</em>; 2nd: <em>@Compendium[pf2e.spells-srd.Resist Energy]{Resist Energy}</em>; 3rd: <em>@Compendium[pf2e.spells-srd.Haste]{Haste}</em>; 4th: <em>@Compendium[pf2e.spells-srd.Reflective Scales]{Reflective Scales}</em>; 5th: <em>@Compendium[pf2e.spells-srd.Cloak of Colors]{Cloak of Colors}</em>; 6th: <em>@Compendium[pf2e.spells-srd.Repulsion]{Repulsion}</em>; 7th: <em>@Compendium[pf2e.spells-srd.Mask of Terror]{Mask of Terror}</em>; 8th: <em>@Compendium[pf2e.spells-srd.Divine Inspiration]{Divine Inspiration}</em>, 9th: <em>@Compendium[pf2e.spells-srd.Overwhelming Presence]{Overwhelming Presence}</em></p>\n<p><strong>Bloodline Spells</strong> initial: <em>@Compendium[pf2e.spells-srd.Dragon Claws]{Dragon Claws}</em>; advanced: <em>@Compendium[pf2e.spells-srd.Dragon Breath]{Dragon Breath}</em>; greater: <em>@Compendium[pf2e.spells-srd.Dragon Wings]{Dragon Wings}</em></p>\n<p><strong>Blood Magic</strong> Draconic might carries in your voice. Either you gain a +1 status bonus to Intimidation checks for 1 round, or a target takes a -1 status penalty to Will saves for 1 round.</p>\n<p>@Compendium[pf2e.feature-effects.Effect: Wymblessed Blood Magic (Status Bonus - Self)]{Effect: Wymblessed Blood Magic (Status Bonus - Self)}</p>\n<p>@Compendium[pf2e.feature-effects.Effect: Wymblessed Blood Magic (Status Penalty - Target)]{Effect: Wymblessed Blood Magic (Status Penalty - Target)}</p>\n<h2 class=\"title\">Dragon Type</h2>\n<p>At 1st level, choose the type of dragon that influenced your bloodline. You can't change your dragon type later. This choice affects how some of your bloodline spells function. The good metallic dragons and their damage types are brass (fire), bronze (electricity), copper (acid), gold (fire), and silver (cold).</p>\n<p>The evil chromatic dragons and their damage types are black (acid), blue (electricity), green (poison), red (fire), and white (cold).</p>\n<p>The primal dragons of planar origin and their damage types are brine (acid), cloud (electricity), crystal (piercing), magma (fire), and umbral (negative).</p>\n<p>The imperial dragons and their damage types are forest (piercing), sea (bludgeoning), sky (electricity), sovereign (mental), and underworld (fire).</p>\n<p>For the dragon breath focus spell, the area is a @Template[type:line|distance:60] for a brine dragon; a @Template[type:cone|distance:30] for a cloud, crystal, forest, magma, sovereign, or umbral dragon; and a @Template[type:burst|distance:10] within 30 feet for a sea, sky, or underworld dragon.</p>\n<h2 class=\"title\">Related bloodline</h2>\n<p>Because the wyrmblessed and draconic bloodlines have similar origins, they count the same as each other for the purposes of prerequisites and access requirements.</p>"
        },
        "featType": {
            "value": "classfeature"
        },
        "level": {
            "value": 1
        },
        "location": "",
        "prerequisites": {
            "value": []
        },
        "rules": [
            {
                "key": "ActiveEffectLike",
                "mode": "upgrade",
                "path": "data.resources.focus.max",
                "predicate": {
                    "all": [
                        "self:class:sorcerer"
                    ]
                },
                "priority": 10,
                "value": 1
            },
            {
                "key": "ActiveEffectLike",
                "mode": "upgrade",
                "path": "data.skills.itm.rank",
                "value": 1
            },
            {
                "key": "ActiveEffectLike",
                "mode": "upgrade",
                "path": "data.skills.rel.rank",
                "value": 1
            },
            {
                "key": "ActiveEffectLike",
                "mode": "override",
                "path": "data.proficiencies.aliases.sorcerer",
                "priority": 39,
                "value": "divine"
            }
        ],
        "source": {
            "value": ""
        },
        "traits": {
            "custom": "",
            "rarity": "common",
            "value": [
                "sorcerer"
            ]
        }
    },
    "effects": [],
    "flags": {},
    "img": "systems/pf2e/icons/features/classes/draconic.webp",
    "name": "Bloodline: Wyrmblessed",
    "type": "feat"
}
