{
    "_id": "ibhml5y20g5M3Vgd",
    "data": {
        "actionCategory": {
            "value": ""
        },
        "actionType": {
            "value": "passive"
        },
        "actions": {
            "value": null
        },
        "description": {
            "value": "<p>As an evoker, you revel in the raw power of magic, using it to create and destroy with ease. You can call forth elements, forces, and energy to devastate your foes or to assist you in other ways. You understand that the most direct approach is the most elegant. You add one 1st-level evocation spell (such as <em>@Compendium[pf2e.spells-srd.Shocking Grasp]{Shocking Grasp}</em>) to your spellbook. You learn the <em>@Compendium[pf2e.spells-srd.Force Bolt]{Force Bolt}</em> school spell.</p>"
        },
        "featType": {
            "value": "classfeature"
        },
        "level": {
            "value": 1
        },
        "location": "",
        "prerequisites": {
            "value": []
        },
        "rules": [],
        "source": {
            "value": "Pathfinder Core Rulebook"
        },
        "traits": {
            "custom": "",
            "rarity": "common",
            "value": [
                "wizard"
            ]
        }
    },
    "effects": [],
    "flags": {},
    "img": "systems/pf2e/icons/features/classes/evocation.webp",
    "name": "Evocation",
    "type": "feat"
}
