{
    "_id": "yc9RuXXxmZ9YidH6",
    "data": {
        "actionCategory": {
            "value": ""
        },
        "actionType": {
            "value": "passive"
        },
        "actions": {
            "value": null
        },
        "description": {
            "value": "<p>You've mastered the pinnacle technique of your chosen way. You gain the greater deed ability of the way you chose at 1st level.</p>"
        },
        "featType": {
            "value": "classfeature"
        },
        "level": {
            "value": 15
        },
        "location": "",
        "prerequisites": {
            "value": []
        },
        "rules": [
            {
                "key": "GrantItem",
                "predicate": {
                    "all": [
                        "self:feature:way-of-the-drifter"
                    ]
                },
                "uuid": "Compendium.pf2e.actionspf2e.Drifter's Wake"
            },
            {
                "key": "GrantItem",
                "predicate": {
                    "all": [
                        "self:feature:way-of-the-pistolero"
                    ]
                },
                "uuid": "Compendium.pf2e.actionspf2e.Grim Swagger"
            },
            {
                "key": "GrantItem",
                "predicate": {
                    "all": [
                        "self:feature:way-of-the-sniper"
                    ]
                },
                "uuid": "Compendium.pf2e.actionspf2e.Ghost Shot"
            },
            {
                "key": "GrantItem",
                "predicate": {
                    "all": [
                        "self:feature:way-of-the-spellshot"
                    ]
                },
                "uuid": "Compendium.pf2e.actionspf2e.Dispelling Bullet"
            },
            {
                "key": "GrantItem",
                "predicate": {
                    "all": [
                        "self:feature:way-of-the-vanguard"
                    ]
                },
                "uuid": "Compendium.pf2e.actionspf2e.Siegebreaker"
            }
        ],
        "source": {
            "value": ""
        },
        "traits": {
            "custom": "",
            "rarity": "common",
            "value": [
                "gunslinger"
            ]
        }
    },
    "effects": [],
    "flags": {},
    "img": "systems/pf2e/icons/features/classes/greater-deed.webp",
    "name": "Greater Deed",
    "type": "feat"
}
