{
    "_id": "B5SyM7qHrU0gTGR0",
    "data": {
        "actionCategory": {
            "value": ""
        },
        "actionType": {
            "value": "passive"
        },
        "actions": {
            "value": null
        },
        "description": {
            "value": "<p>Your eidolon's damage from weapon specialization increases to 4 with unarmed attacks in which it's an expert, 6 if it's a master, and 8 if it's legendary.</p>"
        },
        "featType": {
            "value": "classfeature"
        },
        "level": {
            "value": 15
        },
        "location": "",
        "prerequisites": {
            "value": []
        },
        "rules": [],
        "source": {
            "value": ""
        },
        "traits": {
            "custom": "",
            "rarity": "common",
            "value": [
                "summoner"
            ]
        }
    },
    "effects": [],
    "flags": {},
    "img": "systems/pf2e/icons/features/classes/greater-weapon-specialization.webp",
    "name": "Greater Eidolon Specialization",
    "type": "feat"
}
