{
    "_id": "0nIOGpHQNHsKSFKT",
    "data": {
        "actionCategory": {
            "value": ""
        },
        "actionType": {
            "value": "passive"
        },
        "actions": {
            "value": null
        },
        "description": {
            "value": "<p>When you focus your attention on a single foe, you become unstoppable in your pursuit. You gain the @Compendium[pf2e.actionspf2e.Hunt Prey]{Hunt Prey} action.</p>"
        },
        "featType": {
            "value": "classfeature"
        },
        "level": {
            "value": 1
        },
        "location": "",
        "prerequisites": {
            "value": []
        },
        "rules": [
            {
                "key": "ToggleProperty",
                "label": "Target is your Hunted Prey",
                "property": "flags.pf2e.rollOptions.all.hunted-prey"
            },
            {
                "key": "FlatModifier",
                "label": "To Seek hunted prey",
                "predicate": {
                    "all": [
                        "action:seek",
                        "hunted-prey"
                    ]
                },
                "selector": "perception",
                "type": "circumstance",
                "value": 2
            },
            {
                "key": "FlatModifier",
                "label": "To Track hunted prey",
                "predicate": {
                    "all": [
                        "action:track",
                        "hunted-prey"
                    ]
                },
                "selector": "survival",
                "type": "circumstance",
                "value": 2
            },
            {
                "domain": "ranged-attack-roll",
                "key": "RollOption",
                "option": "ignore-range-penalty:2",
                "predicate": {
                    "all": [
                        "hunted-prey"
                    ]
                }
            },
            {
                "key": "GrantItem",
                "uuid": "Compendium.pf2e.actionspf2e.Hunt Prey"
            }
        ],
        "source": {
            "value": "Pathfinder Core Rulebook"
        },
        "traits": {
            "custom": "",
            "rarity": "common",
            "value": [
                "ranger"
            ]
        }
    },
    "effects": [],
    "flags": {},
    "img": "systems/pf2e/icons/features/classes/hunt-prey.webp",
    "name": "Hunt Prey",
    "type": "feat"
}
