{
    "_id": "UIHUNNYZyQ3p4Vmo",
    "data": {
        "actionCategory": {
            "value": ""
        },
        "actionType": {
            "value": "passive"
        },
        "actions": {
            "value": null
        },
        "description": {
            "value": "<p>People can't help but trust you, whether through your inherent likableness or your firm insistence on sticking to the truth. You have a way about you that gets others talking, and you've developed interrogative techniques to help you get to the truth of your investigations.</p>\n<p>You are trained in Diplomacy. You gain the @Compendium[pf2e.feats-srd.No Cause For Alarm]{No Cause For Alarm} skill feat. You can also @Compendium[pf2e.actionspf2e.Pursue a Lead]{Pursue a Lead} over the course of a conversation rather than spending dedicated time looking into the lead, provided the conversation lasts 1 minute or longer. For example, while trying to @Compendium[pf2e.actionspf2e.Make an Impression]{Make an Impression}, you could pursue the creature you're conversing with as a lead, and you could Pursue a Lead about an object while someone is telling you information about that object. You also gain the @Compendium[pf2e.actionspf2e.Pointed Question]{Pointed Question} action.</p>"
        },
        "featType": {
            "value": "classfeature"
        },
        "level": {
            "value": 1
        },
        "location": "",
        "prerequisites": {
            "value": []
        },
        "rules": [
            {
                "key": "ActiveEffectLike",
                "mode": "upgrade",
                "path": "data.skills.dip.rank",
                "value": 1
            },
            {
                "key": "GrantItem",
                "uuid": "Compendium.pf2e.feats-srd.No Cause For Alarm"
            },
            {
                "key": "GrantItem",
                "uuid": "Compendium.pf2e.actionspf2e.Pointed Question"
            }
        ],
        "source": {
            "value": ""
        },
        "traits": {
            "custom": "",
            "rarity": "common",
            "value": [
                "investigator"
            ]
        }
    },
    "effects": [],
    "flags": {},
    "img": "systems/pf2e/icons/features/classes/interrogation-methodology.webp",
    "name": "Interrogation Methodology",
    "type": "feat"
}
