{
    "_id": "6FasgIXUJ1X8ekRn",
    "data": {
        "actionCategory": {
            "value": ""
        },
        "actionType": {
            "value": "passive"
        },
        "actions": {
            "value": null
        },
        "description": {
            "value": "<p>As an investigator, you think of your adventures as cases waiting to be solved. You gain one activity and one reaction you can use to investigate cases: @Compendium[pf2e.actionspf2e.Pursue a Lead]{Pursue a Lead} and @Compendium[pf2e.actionspf2e.Clue In]{Clue In}.</p>"
        },
        "featType": {
            "value": "classfeature"
        },
        "level": {
            "value": 1
        },
        "location": "",
        "prerequisites": {
            "value": []
        },
        "rules": [
            {
                "key": "GrantItem",
                "uuid": "Compendium.pf2e.actionspf2e.Pursue a Lead"
            },
            {
                "key": "GrantItem",
                "uuid": "Compendium.pf2e.actionspf2e.Clue In"
            }
        ],
        "source": {
            "value": ""
        },
        "traits": {
            "custom": "",
            "rarity": "common",
            "value": [
                "investigator"
            ]
        }
    },
    "effects": [],
    "flags": {},
    "img": "systems/pf2e/icons/features/classes/on-the-case.webp",
    "name": "On the Case",
    "type": "feat"
}
