{
    "_id": "1K6m6AVmn3r8XZ9d",
    "data": {
        "actionCategory": {
            "value": ""
        },
        "actionType": {
            "value": "passive"
        },
        "actions": {
            "value": null
        },
        "description": {
            "value": "<p>You have progressed along your own path to enlightenment. Choose your Fortitude, Reflex, or Will saving throw. Your proficiency rank for the chosen saving throw increases to master. When you roll a success on the chosen saving throw, you get a critical success instead.</p>"
        },
        "featType": {
            "value": "classfeature"
        },
        "level": {
            "value": 7
        },
        "location": "",
        "prerequisites": {
            "value": []
        },
        "rules": [
            {
                "choices": [
                    {
                        "label": "PF2E.SavesFortitude",
                        "value": "fortitude"
                    },
                    {
                        "label": "PF2E.SavesReflex",
                        "value": "reflex"
                    },
                    {
                        "label": "PF2E.SavesWill",
                        "value": "will"
                    }
                ],
                "key": "ChoiceSet",
                "prompt": "PF2E.SpecificRule.Prompt.PathToPerfection"
            },
            {
                "key": "ActiveEffectLike",
                "mode": "upgrade",
                "path": "data.saves.{item|flags.pf2e.rulesSelections.pathToPerfection}.rank",
                "value": 3
            },
            {
                "adjustment": {
                    "success": "one-degree-better"
                },
                "key": "AdjustDegreeOfSuccess",
                "selector": "{item|flags.pf2e.rulesSelections.pathToPerfection}",
                "type": "save"
            },
            {
                "key": "Note",
                "selector": "{item|flags.pf2e.rulesSelections.pathToPerfection}",
                "text": "<p class=\"compact-text\"><strong>{item|name}</strong> When you roll a success on a save, you get a critical success instead.</p>"
            },
            {
                "domain": "all",
                "key": "RollOption",
                "option": "self:path-to-perfection:{item|flags.pf2e.rulesSelections.pathToPerfection}"
            }
        ],
        "source": {
            "value": ""
        },
        "traits": {
            "custom": "",
            "rarity": "common",
            "value": [
                "monk"
            ]
        }
    },
    "effects": [],
    "flags": {},
    "img": "systems/pf2e/icons/features/classes/path-to-perfection.webp",
    "name": "Path to Perfection",
    "type": "feat"
}
