{
    "_id": "fEwVQUXUgUqTk4sE",
    "data": {
        "actionCategory": {
            "value": ""
        },
        "actionType": {
            "value": "passive"
        },
        "actions": {
            "value": null
        },
        "description": {
            "value": "<p>The fury of the wind and waves pounds in your heart, whether your power flows from natural storms, a conduit to the elemental Planes of Air and Water, or through reverence of deities such as Gozreh, the tengu god of storms Hei Feng, the demon lord Dagon, or the elemental lords of air and water.</p>\n<h3>Curse of the Perpetual Storm</h3>\n<p>You are the center of your own tiny tempest, ever surrounded by wind and rain that worsens the more you tap into your elemental powers. Even when you are calm and at rest, your hair and clothing are blown about by gentle winds, you are slightly damp, and your touch often comes with a static shock.</p>"
        },
        "featType": {
            "value": "classfeature"
        },
        "level": {
            "value": 2
        },
        "location": "",
        "prerequisites": {
            "value": []
        },
        "rules": [],
        "source": {
            "value": ""
        },
        "traits": {
            "custom": "",
            "rarity": "common",
            "value": [
                "oracle"
            ]
        }
    },
    "effects": [],
    "flags": {},
    "img": "systems/pf2e/icons/features/classes/tempest-mystery.webp",
    "name": "Tempest Mystery (Multiclass)",
    "type": "feat"
}
