{
    "_id": "6RJ0yESu2Bp2KDbw",
    "data": {
        "abilities": {
            "cha": {
                "mod": 4,
                "value": 18
            },
            "con": {
                "mod": 4,
                "value": 18
            },
            "dex": {
                "mod": 1,
                "value": 12
            },
            "int": {
                "mod": 1,
                "value": 12
            },
            "str": {
                "mod": 5,
                "value": 20
            },
            "wis": {
                "mod": 2,
                "value": 14
            }
        },
        "attributes": {
            "ac": {
                "details": "",
                "value": 23
            },
            "allSaves": {
                "value": ""
            },
            "hp": {
                "details": "",
                "max": 130,
                "temp": 0,
                "value": 130
            },
            "initiative": {
                "ability": "perception"
            },
            "perception": {
                "value": 16
            },
            "speed": {
                "otherSpeeds": [
                    {
                        "type": "swim",
                        "value": "50"
                    }
                ],
                "value": "25"
            }
        },
        "details": {
            "alignment": {
                "value": "CN"
            },
            "blurb": "",
            "creatureType": "",
            "level": {
                "value": 7
            },
            "privateNotes": "",
            "publicNotes": "",
            "source": {
                "value": "Pathfinder Adventure Path #170: Spoken on the Song Wind"
            }
        },
        "resources": {},
        "saves": {
            "fortitude": {
                "saveDetail": "",
                "value": 18
            },
            "reflex": {
                "saveDetail": "",
                "value": 12
            },
            "will": {
                "saveDetail": "",
                "value": 14
            }
        },
        "traits": {
            "ci": [],
            "di": {
                "custom": "",
                "value": []
            },
            "dr": [],
            "dv": [],
            "languages": {
                "custom": "",
                "selected": [],
                "value": [
                    "aquan",
                    "common",
                    "sylvan"
                ]
            },
            "rarity": "unique",
            "senses": {
                "value": "darkvision"
            },
            "size": {
                "value": "lg"
            },
            "traits": {
                "custom": "",
                "value": [
                    "amphibious",
                    "beast",
                    "fey",
                    "water"
                ]
            }
        }
    },
    "effects": [],
    "flags": {},
    "img": "systems/pf2e/icons/default-icons/npc.svg",
    "items": [
        {
            "_id": "pBSCpqNjtOltHsiZ",
            "data": {
                "autoHeightenLevel": {
                    "value": null
                },
                "description": {
                    "value": ""
                },
                "displayLevels": {},
                "prepared": {
                    "label": "Spellcasting Type",
                    "type": "String",
                    "value": "spontaneous"
                },
                "proficiency": {
                    "value": 0
                },
                "rules": [],
                "showSlotlessLevels": {
                    "value": true
                },
                "showUnpreparedSpells": {
                    "value": false
                },
                "signatureSpells": {
                    "value": []
                },
                "slots": {
                    "slot0": {
                        "max": 0,
                        "prepared": {},
                        "value": 0
                    },
                    "slot1": {
                        "max": 0,
                        "prepared": {},
                        "value": 0
                    },
                    "slot10": {
                        "max": 0,
                        "prepared": {},
                        "value": 0
                    },
                    "slot11": {
                        "max": 0,
                        "prepared": {},
                        "value": 0
                    },
                    "slot2": {
                        "max": 0,
                        "prepared": {},
                        "value": 0
                    },
                    "slot3": {
                        "max": 0,
                        "prepared": {},
                        "value": 0
                    },
                    "slot4": {
                        "max": 0,
                        "prepared": {},
                        "value": 0
                    },
                    "slot5": {
                        "max": 1,
                        "prepared": {
                            "0": {
                                "id": "NEKiSqUCgCaKn2UX"
                            }
                        },
                        "value": 1
                    },
                    "slot6": {
                        "max": 0,
                        "prepared": {},
                        "value": 0
                    },
                    "slot7": {
                        "max": 0,
                        "prepared": {},
                        "value": 0
                    },
                    "slot8": {
                        "max": 0,
                        "prepared": {},
                        "value": 0
                    },
                    "slot9": {
                        "max": 0,
                        "prepared": {},
                        "value": 0
                    }
                },
                "slug": null,
                "source": {
                    "value": ""
                },
                "spelldc": {
                    "dc": 25,
                    "item": 0,
                    "label": "Class DC",
                    "mod": 0,
                    "type": "String",
                    "value": 15
                },
                "tradition": {
                    "value": "divine"
                },
                "traits": {
                    "custom": "",
                    "rarity": "common",
                    "value": []
                }
            },
            "effects": [],
            "flags": {},
            "img": "systems/pf2e/icons/default-icons/spellcastingEntry.svg",
            "name": "Primal Spontaneous Spells",
            "sort": 100000,
            "type": "spellcastingEntry"
        },
        {
            "_id": "NEKiSqUCgCaKn2UX",
            "data": {
                "ability": {
                    "value": ""
                },
                "area": {
                    "areaType": "",
                    "value": null
                },
                "areasize": {
                    "value": "50 feet long by 50 feet wide"
                },
                "autoHeightenLevel": {
                    "value": null
                },
                "category": {
                    "value": "spell"
                },
                "components": {
                    "focus": false,
                    "material": false,
                    "somatic": true,
                    "verbal": true
                },
                "cost": {
                    "value": ""
                },
                "damage": {
                    "value": {}
                },
                "description": {
                    "value": "<p>By imposing your will upon the water, you can raise or lower the level of water in the chosen area by 10 feet. Water creatures in the area are subjected to the effects of <em>@Compendium[pf2e.spells-srd.Slow]{Slow}</em>.</p>"
                },
                "duration": {
                    "value": ""
                },
                "hasCounteractCheck": {
                    "value": false
                },
                "level": {
                    "value": 5
                },
                "location": {
                    "value": "pBSCpqNjtOltHsiZ"
                },
                "materials": {
                    "value": ""
                },
                "prepared": {
                    "value": ""
                },
                "primarycheck": {
                    "value": ""
                },
                "range": {
                    "value": "500 feet"
                },
                "rules": [],
                "save": {
                    "basic": "",
                    "value": ""
                },
                "school": {
                    "value": "evocation"
                },
                "secondarycasters": {
                    "value": ""
                },
                "secondarycheck": {
                    "value": ""
                },
                "slug": "control-water",
                "source": {
                    "value": ""
                },
                "spellType": {
                    "value": "utility"
                },
                "sustained": {
                    "value": false
                },
                "target": {
                    "value": ""
                },
                "time": {
                    "value": "2"
                },
                "traditions": {
                    "value": [
                        "arcane",
                        "primal"
                    ]
                },
                "traits": {
                    "custom": "",
                    "rarity": "common",
                    "value": [
                        "water"
                    ]
                }
            },
            "effects": [],
            "flags": {
                "core": {
                    "sourceId": "Compendium.pf2e.spells-srd.zfn5RqAdF63neqpP"
                }
            },
            "img": "systems/pf2e/icons/spells/control-water.webp",
            "isCantrip": false,
            "isFocusSpell": false,
            "isPhysical": false,
            "isRitual": false,
            "name": "Control Water",
            "sort": 200000,
            "type": "spell"
        },
        {
            "_id": "gymgsgoqqdrkn8yl",
            "data": {
                "attack": {
                    "value": ""
                },
                "attackEffects": {
                    "custom": "",
                    "value": []
                },
                "bonus": {
                    "value": 18
                },
                "damageRolls": {
                    "EVD65gN8VYTMCHQs": {
                        "damage": "2d10+9",
                        "damageType": "piercing"
                    }
                },
                "description": {
                    "value": ""
                },
                "rules": [],
                "slug": null,
                "source": {
                    "value": ""
                },
                "traits": {
                    "custom": "",
                    "rarity": "common",
                    "value": []
                },
                "weaponType": {
                    "value": "melee"
                }
            },
            "effects": [],
            "flags": {},
            "img": "systems/pf2e/icons/default-icons/melee.svg",
            "name": "Jaws",
            "sort": 300000,
            "type": "melee"
        },
        {
            "_id": "geozyirom7s8zp0i",
            "data": {
                "attack": {
                    "value": ""
                },
                "attackEffects": {
                    "custom": "",
                    "value": [
                        "knockdown"
                    ]
                },
                "bonus": {
                    "value": 18
                },
                "damageRolls": {
                    "cKea3qwE65Dt4sn8": {
                        "damage": "1d12+9",
                        "damageType": "bludgeoning"
                    }
                },
                "description": {
                    "value": ""
                },
                "rules": [],
                "slug": null,
                "source": {
                    "value": ""
                },
                "traits": {
                    "custom": "",
                    "rarity": "common",
                    "value": [
                        "reach-10"
                    ]
                },
                "weaponType": {
                    "value": "melee"
                }
            },
            "effects": [],
            "flags": {},
            "img": "systems/pf2e/icons/default-icons/melee.svg",
            "name": "Tentacle",
            "sort": 400000,
            "type": "melee"
        },
        {
            "_id": "8dpz0gljceib6gej",
            "data": {
                "attack": {
                    "value": ""
                },
                "attackEffects": {
                    "custom": "",
                    "value": [
                        "push"
                    ]
                },
                "bonus": {
                    "value": 16
                },
                "damageRolls": {
                    "YTXZOeAKYC0rCOut": {
                        "damage": "4d6",
                        "damageType": "bludgeoning"
                    }
                },
                "description": {
                    "value": ""
                },
                "rules": [],
                "slug": null,
                "source": {
                    "value": ""
                },
                "traits": {
                    "custom": "",
                    "rarity": "common",
                    "value": [
                        "range-increment-60"
                    ]
                },
                "weaponType": {
                    "value": "ranged"
                }
            },
            "effects": [],
            "flags": {},
            "img": "systems/pf2e/icons/default-icons/melee.svg",
            "name": "Water Jet",
            "sort": 500000,
            "type": "melee"
        },
        {
            "_id": "ffkb1iDzhYmgqJna",
            "data": {
                "actionCategory": {
                    "value": "interaction"
                },
                "actionType": {
                    "value": "passive"
                },
                "actions": {
                    "value": null
                },
                "description": {
                    "value": "<p>@Localize[PF2E.NPC.Abilities.Glossary.Darkvision]</p>"
                },
                "requirements": {
                    "value": ""
                },
                "rules": [],
                "slug": "darkvision",
                "source": {
                    "value": ""
                },
                "traits": {
                    "custom": "",
                    "rarity": "common",
                    "value": []
                },
                "trigger": {
                    "value": ""
                },
                "weapon": {
                    "value": ""
                }
            },
            "effects": [],
            "flags": {
                "core": {
                    "sourceId": "Compendium.pf2e.bestiary-ability-glossary-srd.qCCLZhnp2HhP3Ex6"
                }
            },
            "img": "systems/pf2e/icons/actions/Passive.webp",
            "name": "Darkvision",
            "sort": 600000,
            "type": "action"
        },
        {
            "_id": "cp2nz1kpf4b8fy5o",
            "data": {
                "actionCategory": {
                    "value": "defensive"
                },
                "actionType": {
                    "value": "passive"
                },
                "actions": {
                    "value": null
                },
                "description": {
                    "value": "<p>When the great grodair dies, his body explodes in a blast of pressurized water that deals [[/r {6d6}[bludgeoning]]]{6d6 bludgeoning damage} to creatures within a @Template[type:emanation|distance:15] (@Check[type:reflex|dc:25|basic:true|traits:amphibious,beast,fey] save). A creature that fails its save is pushed 5 feet (or 10 feet on a critical failure).</p>"
                },
                "requirements": {
                    "value": ""
                },
                "rules": [],
                "slug": null,
                "source": {
                    "value": ""
                },
                "traits": {
                    "custom": "",
                    "rarity": "common",
                    "value": [
                        "conjuration",
                        "primal",
                        "water"
                    ]
                },
                "trigger": {
                    "value": ""
                },
                "weapon": {
                    "value": ""
                }
            },
            "effects": [],
            "flags": {},
            "img": "systems/pf2e/icons/actions/Passive.webp",
            "name": "Death Flood",
            "sort": 700000,
            "type": "action"
        },
        {
            "_id": "59bkstdr8r3yy3xx",
            "data": {
                "actionCategory": {
                    "value": "offensive"
                },
                "actionType": {
                    "value": "action"
                },
                "actions": {
                    "value": 1
                },
                "description": {
                    "value": "<p>The great grodair transforms all soil, sand, or similar sediment in a @Template[type:emanation|distance:10] into mud for 1 round. This mud is difficult terrain for creatures other than grodairs.</p>"
                },
                "requirements": {
                    "value": ""
                },
                "rules": [],
                "slug": null,
                "source": {
                    "value": ""
                },
                "traits": {
                    "custom": "",
                    "rarity": "common",
                    "value": [
                        "primal",
                        "transmutation",
                        "water"
                    ]
                },
                "trigger": {
                    "value": ""
                },
                "weapon": {
                    "value": ""
                }
            },
            "effects": [],
            "flags": {},
            "img": "systems/pf2e/icons/actions/OneAction.webp",
            "name": "Muddy Field",
            "sort": 800000,
            "type": "action"
        },
        {
            "_id": "jmc552g98adgj1zt",
            "data": {
                "actionCategory": {
                    "value": "offensive"
                },
                "actionType": {
                    "value": "action"
                },
                "actions": {
                    "value": 1
                },
                "description": {
                    "value": "<p>The great grodair causes water to pour from a magical sac on his spine, either a stream of water at a rate of 1 gallon per round, or a fountain in a 5-foot-long stream at a rate of 5 gallons per round. He can stop the flow of water as a single action.</p>"
                },
                "requirements": {
                    "value": ""
                },
                "rules": [],
                "slug": null,
                "source": {
                    "value": ""
                },
                "traits": {
                    "custom": "",
                    "rarity": "common",
                    "value": [
                        "conjuration",
                        "manipulate",
                        "primal",
                        "water"
                    ]
                },
                "trigger": {
                    "value": ""
                },
                "weapon": {
                    "value": ""
                }
            },
            "effects": [],
            "flags": {},
            "img": "systems/pf2e/icons/actions/OneAction.webp",
            "name": "Organ of Endless Water",
            "sort": 900000,
            "type": "action"
        },
        {
            "_id": "ORyvFwmqKP721CMp",
            "data": {
                "actionCategory": {
                    "value": "offensive"
                },
                "actionType": {
                    "value": "action"
                },
                "actions": {
                    "value": 1
                },
                "description": {
                    "value": "<p>@Localize[PF2E.NPC.Abilities.Glossary.Knockdown]</p>"
                },
                "requirements": {
                    "value": ""
                },
                "rules": [],
                "slug": "knockdown",
                "source": {
                    "value": ""
                },
                "traits": {
                    "custom": "",
                    "rarity": "common",
                    "value": []
                },
                "trigger": {
                    "value": ""
                },
                "weapon": {
                    "value": ""
                }
            },
            "effects": [],
            "flags": {
                "core": {
                    "sourceId": "Compendium.pf2e.bestiary-ability-glossary-srd.BCLvAx4Pz4MLa2pu"
                }
            },
            "img": "systems/pf2e/icons/actions/OneAction.webp",
            "name": "Knockdown",
            "sort": 1000000,
            "type": "action"
        },
        {
            "_id": "JntaUNBTQSyB54Xj",
            "data": {
                "actionCategory": {
                    "value": "offensive"
                },
                "actionType": {
                    "value": "action"
                },
                "actions": {
                    "value": 1
                },
                "description": {
                    "value": "<p>@Localize[PF2E.NPC.Abilities.Glossary.Push]</p>"
                },
                "requirements": {
                    "value": ""
                },
                "rules": [],
                "slug": "push",
                "source": {
                    "value": ""
                },
                "traits": {
                    "custom": "",
                    "rarity": "common",
                    "value": []
                },
                "trigger": {
                    "value": ""
                },
                "weapon": {
                    "value": ""
                }
            },
            "effects": [],
            "flags": {
                "core": {
                    "sourceId": "Compendium.pf2e.bestiary-ability-glossary-srd.t6cx9FOODmeZQNYl"
                }
            },
            "img": "systems/pf2e/icons/actions/OneAction.webp",
            "name": "Push 10 feet",
            "sort": 1100000,
            "type": "action"
        },
        {
            "_id": "tzilc4dz6qclza69",
            "data": {
                "description": {
                    "value": ""
                },
                "mod": {
                    "value": 17
                },
                "proficient": {
                    "value": 0
                },
                "rules": [],
                "slug": null,
                "source": {
                    "value": ""
                },
                "traits": {
                    "custom": "",
                    "rarity": "common",
                    "value": []
                }
            },
            "effects": [],
            "flags": {},
            "img": "systems/pf2e/icons/default-icons/lore.svg",
            "name": "Athletics",
            "sort": 1200000,
            "type": "lore"
        },
        {
            "_id": "grsgmjwshmas7qfc",
            "data": {
                "description": {
                    "value": ""
                },
                "mod": {
                    "value": 15
                },
                "proficient": {
                    "value": 0
                },
                "rules": [],
                "slug": null,
                "source": {
                    "value": ""
                },
                "traits": {
                    "custom": "",
                    "rarity": "common",
                    "value": []
                }
            },
            "effects": [],
            "flags": {},
            "img": "systems/pf2e/icons/default-icons/lore.svg",
            "name": "Intimidation",
            "sort": 1300000,
            "type": "lore"
        },
        {
            "_id": "zlajr64vrao2i3pr",
            "data": {
                "description": {
                    "value": ""
                },
                "mod": {
                    "value": 15
                },
                "proficient": {
                    "value": 0
                },
                "rules": [],
                "slug": null,
                "source": {
                    "value": ""
                },
                "traits": {
                    "custom": "",
                    "rarity": "common",
                    "value": []
                }
            },
            "effects": [],
            "flags": {},
            "img": "systems/pf2e/icons/default-icons/lore.svg",
            "name": "Nature",
            "sort": 1400000,
            "type": "lore"
        },
        {
            "_id": "rwl9juoq0batqssd",
            "data": {
                "description": {
                    "value": ""
                },
                "mod": {
                    "value": 17
                },
                "proficient": {
                    "value": 0
                },
                "rules": [],
                "slug": null,
                "source": {
                    "value": ""
                },
                "traits": {
                    "custom": "",
                    "rarity": "common",
                    "value": []
                }
            },
            "effects": [],
            "flags": {},
            "img": "systems/pf2e/icons/default-icons/lore.svg",
            "name": "Performance",
            "sort": 1500000,
            "type": "lore"
        },
        {
            "_id": "h5npxqdsbngef0hm",
            "data": {
                "description": {
                    "value": ""
                },
                "mod": {
                    "value": 14
                },
                "proficient": {
                    "value": 0
                },
                "rules": [],
                "slug": null,
                "source": {
                    "value": ""
                },
                "traits": {
                    "custom": "",
                    "rarity": "common",
                    "value": []
                }
            },
            "effects": [],
            "flags": {},
            "img": "systems/pf2e/icons/default-icons/lore.svg",
            "name": "Survival",
            "sort": 1600000,
            "type": "lore"
        }
    ],
    "name": "Great Grodair",
    "token": {
        "disposition": -1,
        "height": 2,
        "img": "systems/pf2e/icons/default-icons/npc.svg",
        "name": "Great Grodair",
        "width": 2
    },
    "type": "npc"
}
