{
    "_id": "6fObd480rDBkFwZ3",
    "data": {
        "badge": null,
        "description": {
            "value": ""
        },
        "duration": {
            "expiry": "turn-start",
            "sustained": false,
            "unit": "unlimited",
            "value": -1
        },
        "level": {
            "value": 1
        },
        "rules": [
            {
                "adjustName": true,
                "choices": [
                    {
                        "label": "PF2E.OracleCurses.Label.Minor",
                        "value": "self:curse:minor"
                    },
                    {
                        "label": "PF2E.OracleCurses.Label.Moderate",
                        "value": "self:curse:moderate"
                    },
                    {
                        "label": "PF2E.OracleCurses.Label.Major",
                        "predicate": {
                            "all": [
                                "self:feature:major-curse"
                            ]
                        },
                        "value": "self:curse:major"
                    },
                    {
                        "label": "PF2E.OracleCurses.Label.Extreme",
                        "predicate": {
                            "all": [
                                "self:feature:extreme-curse"
                            ]
                        },
                        "value": "self:curse:major"
                    }
                ],
                "flag": "oracleCurse",
                "key": "ChoiceSet",
                "prompt": "PF2E.UI.RuleElements.ChoiceSet.Prompt"
            },
            {
                "domain": "all",
                "key": "RollOption",
                "option": "{item|flags.pf2e.rulesSelections.oracleCurse}"
            },
            {
                "key": "FlatModifier",
                "predicate": {
                    "all": [
                        {
                            "or": [
                                "self:curse:moderate",
                                "self:curse:major"
                            ]
                        }
                    ],
                    "any": [
                        "disease",
                        "poison",
                        "death"
                    ]
                },
                "selector": "saving-throw",
                "type": "status",
                "value": 4
            },
            {
                "key": "Note",
                "predicate": {
                    "all": [
                        {
                            "or": [
                                "self:curse:moderate",
                                "self:curse:major"
                            ]
                        }
                    ],
                    "any": [
                        "disease",
                        "poison",
                        "death"
                    ]
                },
                "selector": "saving-throw",
                "text": "<p class='compact-text'><strong>{item|name}</strong> @Localize[PF2E.OracleCurses.Bones.ModerateUpgrade]</p>"
            },
            {
                "key": "Note",
                "predicate": {
                    "all": [
                        "self:curse:moderate"
                    ],
                    "any": [
                        "disease",
                        "poison",
                        "death"
                    ]
                },
                "selector": "saving-throw",
                "text": "<p class='compact-text'><strong>{item|name}</strong> @Localize[PF2E.OracleCurses.Bones.MajorUpgrade]</p>"
            },
            {
                "adjustment": {
                    "criticalFailure": "one-degree-better"
                },
                "key": "AdjustDegreeOfSuccess",
                "predicate": {
                    "all": [
                        "self:curse:major"
                    ],
                    "any": [
                        "disease",
                        "poison",
                        "death"
                    ]
                },
                "selector": "saving-throw",
                "type": "save"
            },
            {
                "adjustment": {
                    "success": "one-degree-better"
                },
                "key": "AdjustDegreeOfSuccess",
                "predicate": {
                    "all": [
                        {
                            "or": [
                                "self:curse:moderate",
                                "self:curse:major"
                            ]
                        }
                    ],
                    "any": [
                        "disease",
                        "poison",
                        "death"
                    ]
                },
                "selector": "saving-throw",
                "type": "save"
            }
        ],
        "source": {
            "value": "Pathfinder Advanced Player's Guide"
        },
        "start": {
            "initiative": null,
            "value": 0
        },
        "target": null,
        "tokenIcon": {
            "show": true
        },
        "traits": {
            "custom": "",
            "rarity": "common",
            "value": []
        }
    },
    "effects": [],
    "flags": {},
    "img": "systems/pf2e/icons/features/classes/bones-mystery.webp",
    "name": "Effect: Bones Curse",
    "type": "effect"
}
