{
    "_id": "hqeR9faxHj0NDFFP",
    "data": {
        "badge": null,
        "description": {
            "value": ""
        },
        "duration": {
            "expiry": "turn-start",
            "sustained": false,
            "unit": "unlimited",
            "value": -1
        },
        "level": {
            "value": 1
        },
        "rules": [
            {
                "adjustName": true,
                "choices": [
                    {
                        "label": "PF2E.OracleCurses.Label.Minor",
                        "value": "self:curse:minor"
                    },
                    {
                        "label": "PF2E.OracleCurses.Label.Moderate",
                        "value": "self:curse:moderate"
                    },
                    {
                        "label": "PF2E.OracleCurses.Label.Major",
                        "predicate": {
                            "all": [
                                "self:feature:major-curse"
                            ]
                        },
                        "value": "self:curse:major"
                    },
                    {
                        "label": "PF2E.OracleCurses.Label.Extreme",
                        "predicate": {
                            "all": [
                                "self:feature:extreme-curse"
                            ]
                        },
                        "value": "self:curse:major"
                    }
                ],
                "flag": "oracleCurse",
                "key": "ChoiceSet",
                "prompt": "PF2E.UI.RuleElements.ChoiceSet.Prompt"
            },
            {
                "domain": "all",
                "key": "RollOption",
                "option": "{item|flags.pf2e.rulesSelections.oracleCurse}"
            }
        ],
        "source": {
            "value": "Pathfinder Advanced Player's Guide"
        },
        "start": {
            "initiative": null,
            "value": 0
        },
        "target": null,
        "tokenIcon": {
            "show": true
        },
        "traits": {
            "custom": "",
            "rarity": "common",
            "value": []
        }
    },
    "effects": [],
    "flags": {},
    "img": "systems/pf2e/icons/features/classes/flames-mystery.webp",
    "name": "Effect: Flames Oracle",
    "type": "effect"
}
