{
    "_id": "5q4JYkYlqOK2kXWy",
    "data": {
        "description": {
            "value": "<p>The strain of conflict wears upon your body, even though you gain vitality from it.</p>\n<p>You take a -2 status penalty to AC and saving throws, but each time you make a Strike, you can reduce these penalties to -1 until the start of your next turn.</p>\n<p>You gain a +2 status bonus to weapon and unarmed damage rolls.</p>\n<p>You also gain fast healing equal to half your level while in a non-trivial combat encounter.</p>\n<hr />\n<p><em>Note: You need to apply fast healing manually. The remaining effects are applied automatically.</em></p>"
        },
        "duration": {
            "expiry": "turn-start",
            "sustained": false,
            "unit": "unlimited",
            "value": -1
        },
        "level": {
            "value": 1
        },
        "rules": [
            {
                "key": "ToggleProperty",
                "label": "Battle Mystery, Made a Strike",
                "property": "flags.pf2e.rollOptions.all.battle-mystery-moderate"
            },
            {
                "key": "FlatModifier",
                "label": "Moderate Battle Curse",
                "predicate": {
                    "not": [
                        "battle-mystery-moderate"
                    ]
                },
                "selector": "ac",
                "type": "status",
                "value": -2
            },
            {
                "key": "FlatModifier",
                "label": "Moderate Battle Curse",
                "predicate": {
                    "not": [
                        "battle-mystery-moderate"
                    ]
                },
                "selector": "saving-throw",
                "type": "status",
                "value": -2
            },
            {
                "key": "FlatModifier",
                "label": "Moderate Battle Curse (Mitigated)",
                "predicate": {
                    "all": [
                        "battle-mystery-moderate"
                    ]
                },
                "selector": "ac",
                "type": "status",
                "value": -1
            },
            {
                "key": "FlatModifier",
                "label": "Moderate Battle Curse (Mitigated)",
                "predicate": {
                    "all": [
                        "battle-mystery-moderate"
                    ]
                },
                "selector": "saving-throw",
                "type": "status",
                "value": -1
            },
            {
                "key": "FlatModifier",
                "label": "Moderate Battle Curse",
                "selector": "strike-damage",
                "type": "status",
                "value": 2
            }
        ],
        "source": {
            "value": ""
        },
        "start": {
            "initiative": null,
            "value": 0
        },
        "target": null,
        "tokenIcon": {
            "show": true
        },
        "traits": {
            "custom": "",
            "rarity": "common",
            "value": []
        }
    },
    "effects": [],
    "flags": {},
    "img": "systems/pf2e/icons/features/classes/battle-mystery.webp",
    "name": "Effect: Moderate Battle Curse",
    "type": "effect"
}
