{
    "_id": "h47yv6j6x1pUtzlr",
    "data": {
        "ability": {
            "value": ""
        },
        "area": {
            "areaType": "",
            "value": ""
        },
        "areasize": {
            "value": ""
        },
        "category": {
            "value": "focus"
        },
        "components": {
            "material": false,
            "somatic": true,
            "verbal": false
        },
        "cost": {
            "value": ""
        },
        "damage": {
            "value": {}
        },
        "description": {
            "value": "<p><strong>Trigger</strong> A creature within range that you can see Casts a Spell.</p>\n<hr />\n<p>You undermine the target spell, making it easier to defend against. You reduce the spell's level by 1, and targets of the spell gain a +2 status bonus to any saving throws, skill checks, AC, or DC against it. You can't reduce the spell's level below its minimum.</p>\n<p>For example, a 5th-level cone of cold would remain 5th-level, but a 5th-level fireball would become 4th-level. Targets still gain all the other benefits, even if you don't reduce the spell's level.</p>\n<p>@Compendium[pf2e.spell-effects.Spell Effect: Arcane Countermeasure]{Spell Effect: Arcane Countermeasure}</p>"
        },
        "duration": {
            "value": ""
        },
        "hasCounteractCheck": {
            "value": false
        },
        "level": {
            "value": 5
        },
        "location": {
            "value": ""
        },
        "materials": {
            "value": ""
        },
        "prepared": {
            "value": ""
        },
        "primarycheck": {
            "value": ""
        },
        "range": {
            "value": "120 feet"
        },
        "rules": [],
        "save": {
            "basic": "",
            "value": ""
        },
        "school": {
            "value": "abjuration"
        },
        "secondarycasters": {
            "value": ""
        },
        "secondarycheck": {
            "value": ""
        },
        "source": {
            "value": "Pathfinder Core Rulebook"
        },
        "spellType": {
            "value": "utility"
        },
        "sustained": {
            "value": false
        },
        "target": {
            "value": "the spell cast by the triggering creature"
        },
        "time": {
            "value": "reaction"
        },
        "traditions": {
            "value": []
        },
        "traits": {
            "custom": "",
            "rarity": "uncommon",
            "value": [
                "sorcerer"
            ]
        }
    },
    "effects": [],
    "flags": {},
    "img": "systems/pf2e/icons/spells/arcane-countermeasure.webp",
    "name": "Arcane Countermeasure",
    "type": "spell"
}
