{
    "_id": "N9KjnGyVMKgqKcCw",
    "data": {
        "ability": {
            "value": ""
        },
        "area": {
            "areaType": "",
            "value": ""
        },
        "autoHeightenLevel": {
            "value": null
        },
        "category": {
            "value": "spell"
        },
        "components": {
            "focus": false,
            "material": true,
            "somatic": true,
            "verbal": true
        },
        "cost": {
            "value": ""
        },
        "damage": {
            "applyMod": false,
            "value": {
                "0": {
                    "applyMod": false,
                    "type": {
                        "subtype": "",
                        "value": "mental"
                    },
                    "value": "8d8"
                }
            }
        },
        "description": {
            "value": "<p>You ward the target item against those who would steal it. When a creature attempts to take the target into its possession, it takes 8d8 mental damage and is doomed, depending on the result of its Will save. The spell then ends. You can choose up to 10 creatures when you cast this spell; if you do, those creatures can take the target item without triggering the ward. You can only have one <em>bandit's doom</em> active at a time. If you cast the spell again, the newer casting supersedes the older.</p>\n<hr />\n<p><strong>Critical Success</strong> The creature is unaffected.</p>\n<p><strong>Success</strong> The creature takes half damage and is @Compendium[pf2e.conditionitems.Doomed]{Doomed 1}.</p>\n<p><strong>Failure</strong> The creature takes full damage and is @Compendium[pf2e.conditionitems.Doomed]{Doomed 2}.</p>\n<p><strong>Critical Failure</strong> The creature takes double damage and is @Compendium[pf2e.conditionitems.Doomed]{Doomed 3}.</p>\n<hr />\n<p><strong>Heightened (+2)</strong> The damage increases by 2d8.</p>"
        },
        "duration": {
            "value": "1 month"
        },
        "hasCounteractCheck": {
            "value": false
        },
        "level": {
            "value": 5
        },
        "location": {
            "value": ""
        },
        "materials": {
            "value": ""
        },
        "prepared": {
            "value": ""
        },
        "range": {
            "value": ""
        },
        "rules": [],
        "save": {
            "basic": "",
            "value": "will"
        },
        "scaling": {
            "damage": {
                "0": "2d8"
            },
            "interval": 2
        },
        "school": {
            "value": "abjuration"
        },
        "source": {
            "value": "Pathfinder Secrets of Magic"
        },
        "spellType": {
            "value": "attack"
        },
        "sustained": {
            "value": false
        },
        "target": {
            "value": "1 item of 2 Bulk or less"
        },
        "time": {
            "value": "30 minutes"
        },
        "traditions": {
            "custom": "",
            "value": [
                "arcane",
                "divine",
                "occult"
            ]
        },
        "traits": {
            "custom": "",
            "rarity": "common",
            "value": [
                "curse"
            ]
        }
    },
    "effects": [],
    "flags": {},
    "img": "systems/pf2e/icons/spells/bandits-doom.webp",
    "name": "Bandit's Doom",
    "type": "spell"
}
