{
    "_id": "2iQKhCQBijhj5Rf3",
    "data": {
        "ability": {
            "value": ""
        },
        "area": {
            "areaType": "",
            "value": null
        },
        "areasize": {
            "value": ""
        },
        "category": {
            "value": "spell"
        },
        "components": {
            "material": false,
            "somatic": true,
            "verbal": true
        },
        "cost": {
            "value": ""
        },
        "damage": {
            "value": {}
        },
        "description": {
            "value": "<p>You infuse weapons with positive energy. Attacks with these weapons deal an extra 1d4 positive damage to undead.</p>\n<hr />\n<p><strong>Heightened (3rd)</strong> The damage increases to 2d4 damage.</p>\n<p><strong>Heightened (5th)</strong> Target up to three weapons, and the damage increases to 3d4 damage.</p>\n<p>@Compendium[pf2e.spell-effects.Spell Effect: Disrupting Weapons]{Spell Effect: Disrupting Weapons}</p>"
        },
        "duration": {
            "value": "1 minute"
        },
        "hasCounteractCheck": {
            "value": false
        },
        "level": {
            "value": 1
        },
        "location": {
            "value": ""
        },
        "materials": {
            "value": ""
        },
        "prepared": {
            "value": ""
        },
        "primarycheck": {
            "value": ""
        },
        "range": {
            "value": "touch"
        },
        "rules": [],
        "save": {
            "basic": "",
            "value": ""
        },
        "school": {
            "value": "necromancy"
        },
        "secondarycasters": {
            "value": ""
        },
        "secondarycheck": {
            "value": ""
        },
        "source": {
            "value": "Pathfinder Core Rulebook"
        },
        "spellType": {
            "value": "utility"
        },
        "sustained": {
            "value": false
        },
        "target": {
            "value": "up to two weapons, each of which must be wielded by you or a willing ally, or else unattended"
        },
        "time": {
            "value": "2"
        },
        "traditions": {
            "value": [
                "divine"
            ]
        },
        "traits": {
            "custom": "",
            "rarity": "common",
            "value": [
                "positive"
            ]
        }
    },
    "effects": [],
    "flags": {},
    "img": "systems/pf2e/icons/spells/disrupting-weapons.webp",
    "name": "Disrupting Weapons",
    "type": "spell"
}
