{
    "_id": "F1fQC9SarAkjNxpP",
    "data": {
        "ability": {
            "value": ""
        },
        "area": {
            "areaType": "",
            "value": ""
        },
        "autoHeightenLevel": {
            "value": null
        },
        "category": {
            "value": "spell"
        },
        "components": {
            "focus": false,
            "material": false,
            "somatic": false,
            "verbal": false
        },
        "cost": {
            "value": ""
        },
        "damage": {
            "value": {}
        },
        "description": {
            "value": "<p>By suddenly altering gravity, you pull the target toward you. The target is pulled 10 feet closer to you unless it succeeds at a Fortitude save. On a critical failure, it's also knocked @Compendium[pf2e.conditionitems.Prone]{Prone}. The effects of this spell change depending on the number of actions you spend when you Cast this Spell.</p>\n<p><span class=\"pf2-icon\">1</span> <strong>(somatic)</strong> The spell targets one creature.</p>\n<p><span class=\"pf2-icon\">2</span> <strong>(somatic, verbal)</strong> The spell targets one creature and pulls the target 20 feet instead of 10.</p>\n<p><span class=\"pf2-icon\">3</span> <strong>(material, somatic, verbal)</strong> The spell targets up to 5 creatures.</p>"
        },
        "duration": {
            "value": ""
        },
        "hasCounteractCheck": {
            "value": false
        },
        "level": {
            "value": 1
        },
        "location": {
            "value": ""
        },
        "materials": {
            "value": ""
        },
        "range": {
            "value": "30 feet"
        },
        "rules": [],
        "save": {
            "basic": "",
            "value": "fortitude"
        },
        "school": {
            "value": "evocation"
        },
        "source": {
            "value": "Pathfinder Secrets of Magic"
        },
        "spellType": {
            "value": "save"
        },
        "sustained": {
            "value": false
        },
        "target": {
            "value": "1 creature"
        },
        "time": {
            "value": "1 to 3"
        },
        "traditions": {
            "custom": "",
            "value": [
                "arcane",
                "occult"
            ]
        },
        "traits": {
            "custom": "",
            "rarity": "common",
            "value": []
        }
    },
    "effects": [],
    "flags": {},
    "img": "systems/pf2e/icons/spells/gravitational-pull.webp",
    "name": "Gravitational Pull",
    "type": "spell"
}
