{
    "_id": "PEfSofHm73IT3Khc",
    "data": {
        "ability": {
            "value": ""
        },
        "area": {
            "areaType": "",
            "value": null
        },
        "areasize": {
            "value": ""
        },
        "category": {
            "value": "focus"
        },
        "components": {
            "material": false,
            "somatic": true,
            "verbal": false
        },
        "cost": {
            "value": ""
        },
        "damage": {
            "value": {}
        },
        "description": {
            "value": "<p>You mime an @Compendium[pf2e.conditionitems.Invisible]{Invisible} 10-foot-by-10-foot stretch of wall adjacent to you and within your reach. The wall is solid to those creatures that don't disbelieve it, even incorporeal creatures. You and your allies can voluntarily believe the wall exists to continue to treat it as solid, for instance to climb onto it. A creature that disbelieves the illusion is temporarily immune to your house of imaginary walls for 1 minute. The wall doesn't block creatures that didn't see your visual performance, nor does it block objects. The wall has AC 10, Hardness equal to double the spell's level, and HP equal to quadruple the spell's level.</p>"
        },
        "duration": {
            "value": "1 round"
        },
        "hasCounteractCheck": {
            "value": false
        },
        "level": {
            "value": 5
        },
        "location": {
            "value": ""
        },
        "materials": {
            "value": ""
        },
        "prepared": {
            "value": ""
        },
        "primarycheck": {
            "value": ""
        },
        "range": {
            "value": "touch"
        },
        "rules": [],
        "save": {
            "basic": "",
            "value": ""
        },
        "school": {
            "value": "illusion"
        },
        "secondarycasters": {
            "value": ""
        },
        "secondarycheck": {
            "value": ""
        },
        "source": {
            "value": "Pathfinder Core Rulebook"
        },
        "spellType": {
            "value": "utility"
        },
        "sustained": {
            "value": false
        },
        "target": {
            "value": ""
        },
        "time": {
            "value": "1"
        },
        "traditions": {
            "custom": "",
            "value": []
        },
        "traits": {
            "custom": "",
            "rarity": "uncommon",
            "value": [
                "bard",
                "cantrip",
                "composition",
                "visual"
            ]
        }
    },
    "effects": [],
    "flags": {},
    "img": "systems/pf2e/icons/spells/house-of-imaginary-walls.webp",
    "name": "House of Imaginary Walls",
    "type": "spell"
}
