{
    "_id": "TvZiwZRianfTSbEg",
    "data": {
        "ability": {
            "value": ""
        },
        "area": {
            "areaType": "",
            "value": ""
        },
        "autoHeightenLevel": {
            "value": null
        },
        "category": {
            "value": "spell"
        },
        "components": {
            "focus": false,
            "material": false,
            "somatic": true,
            "verbal": true
        },
        "cost": {
            "value": ""
        },
        "damage": {
            "value": {}
        },
        "description": {
            "value": "<p>You send a wave of nightmarish visions crashing over your targets, leaving them @Compendium[pf2e.conditionitems.Paralyzed]{Paralyzed} by fear. These visions inflict real wounds on vulnerable targets, dealing 6d12 mental damage. If you target a sleeping creature, it wakes up as it attempts the save but takes one degree of success worse than the result it rolled on its save.</p>\n<hr />\n<p><strong>Critical Success</strong> The target is unaffected.</p>\n<p><strong>Success</strong> The target is @Compendium[pf2e.conditionitems.Frightened]{Frightened 2} and takes half the mental damage.</p>\n<p><strong>Failure</strong> The target is frightened 2, is @Compendium[pf2e.conditionitems.Paralyzed]{Paralyzed} for 1 round, and takes the full mental damage.</p>\n<p><strong>Critical Failure</strong> The target is frightened 2, is paralyzed for 2 rounds, and takes double the mental damage.</p>"
        },
        "duration": {
            "value": ""
        },
        "hasCounteractCheck": {
            "value": false
        },
        "level": {
            "value": 8
        },
        "location": {
            "value": ""
        },
        "materials": {
            "value": ""
        },
        "range": {
            "value": "30 feet"
        },
        "rules": [],
        "save": {
            "basic": "",
            "value": "will"
        },
        "school": {
            "value": "illusion"
        },
        "source": {
            "value": "Pathfinder Lost Omens: Monsters of Myth"
        },
        "spellType": {
            "value": "save"
        },
        "sustained": {
            "value": false
        },
        "target": {
            "value": "up to 10 creatures"
        },
        "time": {
            "value": "2"
        },
        "traditions": {
            "custom": "",
            "value": [
                "occult"
            ]
        },
        "traits": {
            "custom": "",
            "rarity": "rare",
            "value": [
                "emotion",
                "fear",
                "incapacitation",
                "mental"
            ]
        }
    },
    "effects": [],
    "flags": {},
    "img": "systems/pf2e/icons/spells/shadow-raid.webp",
    "name": "Hypnopompic Terrors",
    "type": "spell"
}
