{
    "_id": "10VcmSYNBrvBphu1",
    "data": {
        "ability": {
            "value": ""
        },
        "area": {
            "areaType": "line",
            "value": "60"
        },
        "areasize": {
            "value": "60-foot line"
        },
        "category": {
            "value": "spell"
        },
        "components": {
            "material": false,
            "somatic": true,
            "verbal": true
        },
        "cost": {
            "value": ""
        },
        "damage": {
            "value": {
                "0": {
                    "type": {
                        "categories": [],
                        "value": "negative"
                    },
                    "value": "9d6"
                }
            }
        },
        "description": {
            "value": "<p>You unleash a wave of necromantic energy to snuff out the life force of those in its path. Each living creature of 17th level or lower in the line must attempt a Fortitude save. If the damage from massacre reduces a creature to 0 Hit Points, that creature dies instantly. If massacre doesn't kill even a single creature, the negative energy violently explodes back toward you, dealing an additional 30 negative damage to every living creature in the line (even those above 17th level) and 30 negative damage to you.</p>\n<hr />\n<p><strong>Critical Success</strong> The creature is unaffected.</p>\n<p><strong>Success</strong> The creature takes 9d6 negative damage.</p>\n<p><strong>Failure</strong> The creature takes 100 negative damage.</p>\n<p><strong>Critical Failure</strong> The creature dies.</p>\n<hr />\n<p><strong>Heightened (10th)</strong> The spell can affect living creatures up to 19th level. Increase the damage to 10d6 on a success, and to 115 on a failure.</p>"
        },
        "duration": {
            "value": ""
        },
        "hasCounteractCheck": {
            "value": false
        },
        "level": {
            "value": 9
        },
        "location": {
            "value": ""
        },
        "materials": {
            "value": ""
        },
        "prepared": {
            "value": ""
        },
        "primarycheck": {
            "value": ""
        },
        "range": {
            "value": ""
        },
        "rules": [],
        "save": {
            "basic": "",
            "value": "fortitude"
        },
        "school": {
            "value": "necromancy"
        },
        "secondarycasters": {
            "value": ""
        },
        "secondarycheck": {
            "value": ""
        },
        "source": {
            "value": "Pathfinder Core Rulebook"
        },
        "spellType": {
            "value": "save"
        },
        "sustained": {
            "value": false
        },
        "target": {
            "value": ""
        },
        "time": {
            "value": "2"
        },
        "traditions": {
            "value": [
                "arcane",
                "divine",
                "primal"
            ]
        },
        "traits": {
            "custom": "",
            "rarity": "common",
            "value": [
                "death",
                "negative"
            ]
        }
    },
    "effects": [],
    "flags": {},
    "img": "systems/pf2e/icons/spells/massacre.webp",
    "name": "Massacre",
    "type": "spell"
}
