{
    "_id": "CmZCq4htcZ6W0TKk",
    "data": {
        "ability": {
            "value": ""
        },
        "area": {
            "areaType": "",
            "value": ""
        },
        "autoHeightenLevel": {
            "value": null
        },
        "category": {
            "value": "spell"
        },
        "components": {
            "focus": false,
            "material": false,
            "somatic": true,
            "verbal": true
        },
        "cost": {
            "value": ""
        },
        "damage": {
            "applyMod": false,
            "value": {
                "0": {
                    "applyMod": false,
                    "type": {
                        "subtype": "",
                        "value": "mental"
                    },
                    "value": "7d8"
                }
            }
        },
        "description": {
            "value": "<p>You completely surround a Large or smaller creature in a shimmering ring of illusory mirrors that follows it as it moves, even when the creature moves outside the range of the spell. These mirrors reflect the target, though if the target has no reflection, like a vampire, it's unaffected by <em>mirror malefactors</em>. As long as the target is surrounded by mirrors, it's @Compendium[pf2e.conditionitems.Frightened]{Frightened 1}, and it can't reduce its frightened value.</p>\n<p>When you Cast the Spell, the reflections leap from the mirrors and attack the target, dealing 7d8 mental damage with a basic Will save. On subsequent turns, this effect repeats the first time you Sustain the spell that turn. If the target succeeds at any Will save it attempts against <em>mirror malefactors</em>, the illusory mirrors shatter and the spell ends.</p>\n<hr />\n<p><strong>Heightened (+1)</strong> The damage for both the initial effect and on subsequent turns increases by 1d8.</p>"
        },
        "duration": {
            "value": "sustained up to 1 minute"
        },
        "hasCounteractCheck": {
            "value": false
        },
        "level": {
            "value": 5
        },
        "location": {
            "value": ""
        },
        "materials": {
            "value": ""
        },
        "range": {
            "value": "30 feet"
        },
        "rules": [],
        "save": {
            "basic": "basic",
            "value": "will"
        },
        "scaling": {
            "damage": {
                "0": "1d8"
            },
            "interval": 1
        },
        "school": {
            "value": "illusion"
        },
        "source": {
            "value": "Pathfinder Secrets of Magic"
        },
        "spellType": {
            "value": "save"
        },
        "sustained": {
            "value": false
        },
        "target": {
            "value": "1 creature"
        },
        "time": {
            "value": "2"
        },
        "traditions": {
            "custom": "",
            "value": [
                "arcane",
                "divine",
                "occult"
            ]
        },
        "traits": {
            "custom": "",
            "rarity": "common",
            "value": [
                "mental",
                "visual"
            ]
        }
    },
    "effects": [],
    "flags": {},
    "img": "systems/pf2e/icons/spells/mirror-malefactors.webp",
    "name": "Mirror Malefactors",
    "type": "spell"
}
