{
    "_id": "srEKUvym9kDVbEhD",
    "data": {
        "ability": {
            "value": ""
        },
        "area": {
            "areaType": "",
            "value": ""
        },
        "autoHeightenLevel": {
            "value": null
        },
        "category": {
            "value": "spell"
        },
        "components": {
            "focus": false,
            "material": true,
            "somatic": true,
            "verbal": true
        },
        "cost": {
            "value": ""
        },
        "damage": {
            "value": {}
        },
        "description": {
            "value": "<p>You create an illusory magical double that physically looks and behaves very similarly to the target. This double is limited to moving, Interacting, speaking short sentences, and other similar basic tasks. It is unable to cast spells, attack, or use any complex skills.</p>\n<p>The illusory duplicate is your minion. You can issue new commands to the double as part of Sustaining the Spell. You can command the duplicate telepathically as long as the spell lasts, provided it's within 1 mile of you. You can switch between using your own senses and the duplicate's senses with a single action, which has the concentrate trait. The illusory duplicate has the same statistics as the original creature, except it doesn't have any of the original's item bonuses, and it has one quarter of the original's Hit Points. If the double's Hit Points are reduced to 0, the spell ends.</p>\n<hr />\n<p><strong>Heightened (+1)</strong> The maximum level of the target increases by 2.</p>"
        },
        "duration": {
            "value": "sustained"
        },
        "hasCounteractCheck": {
            "value": false
        },
        "level": {
            "value": 4
        },
        "location": {
            "value": ""
        },
        "materials": {
            "value": ""
        },
        "range": {
            "value": "60 feet"
        },
        "rules": [],
        "save": {
            "basic": "",
            "value": ""
        },
        "school": {
            "value": "illusion"
        },
        "source": {
            "value": "Pathfinder Secrets of Magic"
        },
        "spellType": {
            "value": "utility"
        },
        "sustained": {
            "value": false
        },
        "target": {
            "value": "1 willing or unconscious creature of 8th level or lower"
        },
        "time": {
            "value": "3"
        },
        "traditions": {
            "custom": "",
            "value": [
                "arcane",
                "occult"
            ]
        },
        "traits": {
            "custom": "",
            "rarity": "common",
            "value": [
                "shadow"
            ]
        }
    },
    "effects": [],
    "flags": {},
    "img": "systems/pf2e/icons/spells/replicate.webp",
    "name": "Replicate",
    "type": "spell"
}
