{
    "_id": "SDkIFrrO1PsE02Kd",
    "data": {
        "ability": {
            "value": ""
        },
        "area": {
            "areaType": "",
            "value": ""
        },
        "areasize": {
            "value": ""
        },
        "category": {
            "value": "focus"
        },
        "components": {
            "material": false,
            "somatic": true,
            "verbal": false
        },
        "cost": {
            "value": ""
        },
        "damage": {
            "value": {}
        },
        "description": {
            "value": "<p>You gain one of the following abilities of your choice. You can Dismiss this spell.</p>\n<ul>\n<li>You gain a @Compendium[pf2e.spell-effects.Spell Effect: Shifting Form (Speed)]{20-foot status bonus to your Speed}.</li>\n<li>You gain a @Compendium[pf2e.spell-effects.Spell Effect: Shifting Form (Climb Speed)]{climb} or @Compendium[pf2e.spell-effects.Spell Effect: Shifting Form (Swim Speed)]{swim} Speed equal to half your Speed.</li>\n<li>You gain @Compendium[pf2e.spell-effects.Spell Effect: Shifting Form (Darkvision)]{darkvision}.</li>\n<li>You gain a @Compendium[pf2e.spell-effects.Spell Effect: Shifting Form (Claws)]{pair of claws}. These are agile finesse unarmed attacks that deal 1d8 slashing damage.</li>\n<li>You gain @Compendium[pf2e.spell-effects.Spell Effect: Shifting Form (Scent)]{scent 60 feet (imprecise)}.</li>\n</ul>"
        },
        "duration": {
            "value": "1 minute"
        },
        "hasCounteractCheck": {
            "value": false
        },
        "level": {
            "value": 4
        },
        "location": {
            "value": ""
        },
        "materials": {
            "value": ""
        },
        "prepared": {
            "value": ""
        },
        "primarycheck": {
            "value": ""
        },
        "range": {
            "value": ""
        },
        "rules": [],
        "save": {
            "basic": "",
            "value": ""
        },
        "school": {
            "value": "transmutation"
        },
        "secondarycasters": {
            "value": ""
        },
        "secondarycheck": {
            "value": ""
        },
        "source": {
            "value": "Pathfinder Core Rulebook"
        },
        "spellType": {
            "value": "utility"
        },
        "sustained": {
            "value": false
        },
        "target": {
            "value": ""
        },
        "time": {
            "value": "1"
        },
        "traditions": {
            "value": []
        },
        "traits": {
            "custom": "",
            "rarity": "uncommon",
            "value": [
                "morph",
                "wizard"
            ]
        }
    },
    "effects": [],
    "flags": {},
    "img": "systems/pf2e/icons/spells/shifting-form.webp",
    "name": "Shifting Form",
    "type": "spell"
}
