{
    "_id": "ZAX0OOcKtYMQlquR",
    "data": {
        "ability": {
            "value": ""
        },
        "area": {
            "value": ""
        },
        "areasize": {
            "value": ""
        },
        "category": {
            "value": "focus"
        },
        "components": {
            "material": false,
            "somatic": true,
            "verbal": true
        },
        "cost": {
            "value": ""
        },
        "damage": {
            "value": {}
        },
        "description": {
            "value": "<p>Your symphony lifts listeners from their worldly concerns. Attempt a Performance check to counteract one of the following conditions affecting the target: @Compendium[pf2e.conditionitems.Grabbed]{Grabbed}, @Compendium[pf2e.conditionitems.Immobilized]{Immobilized}, @Compendium[pf2e.conditionitems.Paralyzed]{Paralyzed}, @Compendium[pf2e.conditionitems.Restrained]{Restrained}, @Compendium[pf2e.conditionitems.Slowed]{Slowed}, or @Compendium[pf2e.conditionitems.Stunned]{Stunned}. If you fail, you can't target that effect on the target for 1 day. Use the condition's source to determine the counteract DC (for example, the @Compendium[pf2e.actionspf2e.Escape]{Escape}DC for grabbed).</p>\n<hr />\n<p><strong>Heightened (9th)</strong> You can target up to four creatures.</p>"
        },
        "duration": {
            "value": ""
        },
        "hasCounteractCheck": {
            "value": true
        },
        "level": {
            "value": 5
        },
        "location": {
            "value": ""
        },
        "materials": {
            "value": ""
        },
        "prepared": {
            "value": ""
        },
        "primarycheck": {
            "value": ""
        },
        "range": {
            "value": "30 feet"
        },
        "rules": [],
        "save": {
            "basic": "",
            "value": ""
        },
        "school": {
            "value": "abjuration"
        },
        "secondarycasters": {
            "value": ""
        },
        "secondarycheck": {
            "value": ""
        },
        "source": {
            "value": "Pathfinder Advanced Player's Guide"
        },
        "spellType": {
            "value": "utility"
        },
        "sustained": {
            "value": false
        },
        "target": {
            "value": "you or 1 ally"
        },
        "time": {
            "value": "2"
        },
        "traditions": {
            "custom": "",
            "value": [
                "occult"
            ]
        },
        "traits": {
            "custom": "",
            "rarity": "uncommon",
            "value": [
                "bard",
                "composition"
            ]
        }
    },
    "effects": [],
    "flags": {},
    "img": "systems/pf2e/icons/spells/symphony-of-the-unfettered-heart.webp",
    "name": "Symphony of the Unfettered Heart",
    "type": "spell"
}
