{
    "_id": "wcOnL9nFDfCkNVMZ",
    "data": {
        "actionCategory": {
            "value": ""
        },
        "actionType": {
            "value": "passive"
        },
        "actions": {
            "value": null
        },
        "description": {
            "value": "<p>You have encountered the following monsters and can now summon them if you know the appropriate summon spell: cornugon, crucidaemon, nalfeshnee, and solifugid.</p>"
        },
        "featType": {
            "value": "pfsboon"
        },
        "identified": {
            "value": true
        },
        "level": {
            "value": 0
        },
        "prerequisites": {
            "value": []
        },
        "rules": [],
        "source": {
            "value": ""
        },
        "traits": {
            "custom": "",
            "rarity": "common",
            "value": []
        }
    },
    "effects": [],
    "flags": {},
    "img": "systems/pf2e/icons/default-icons/mystery-man.webp",
    "name": "AoA #149: Boon C - Expanded Summoning",
    "type": "feat"
}
