{
    "_id": "CUtvkuGSxq1raBIB",
    "data": {
        "description": {
            "value": "<p>Granted by @Compendium[pf2e.feats-srd.Shared Clarity]{Shared Clarity}.</p>\n<p>Allies within 15 feet of you who failed the same saving throw against the same mental effect can also spend their reactions to reroll the failed saving throw with a +2 circumstance bonus.</p>"
        },
        "duration": {
            "expiry": "turn-start",
            "sustained": false,
            "unit": "unlimited",
            "value": -1
        },
        "level": {
            "value": 18
        },
        "rules": [
            {
                "key": "FlatModifier",
                "predicate": {
                    "all": [
                        "premonition-of-clarity",
                        "mental"
                    ]
                },
                "selector": "saving-throw",
                "type": "circumstance",
                "value": 2
            }
        ],
        "source": {
            "value": ""
        },
        "start": {
            "initiative": null,
            "value": 0
        },
        "target": null,
        "tokenIcon": {
            "show": true
        },
        "traits": {
            "custom": "",
            "rarity": "common",
            "value": []
        }
    },
    "effects": [],
    "flags": {},
    "img": "systems/pf2e/icons/spells/mind-probe.webp",
    "name": "Effect: Shared Clarity",
    "type": "effect"
}
