{
    "_id": "1XlJ9xLzL19GHoOL",
    "data": {
        "badge": null,
        "description": {
            "value": "<p>Your gizmos go into a state of incredible efficiency called critical overdrive, adding great power to your attacks. Your Strikes deal additional damage equal to your Intelligence modifier for 1 minute. After the Overdrive ends, your gizmos become unusable as they cool down or reset, and you can't use Overdrive for 1 minute.</p>"
        },
        "duration": {
            "expiry": "turn-start",
            "sustained": false,
            "unit": "minutes",
            "value": 1
        },
        "level": {
            "value": 1
        },
        "rules": [
            {
                "key": "FlatModifier",
                "predicate": {
                    "not": [
                        "self:feature:expert-overdrive"
                    ]
                },
                "selector": "strike-damage",
                "slug": "overdrive",
                "value": "@actor.abilities.int.mod"
            },
            {
                "key": "FlatModifier",
                "predicate": {
                    "all": [
                        "self:feature:expert-overdrive"
                    ],
                    "not": [
                        "self:feature:master-overdrive"
                    ]
                },
                "selector": "strike-damage",
                "slug": "overdrive-expert",
                "value": "@actor.abilities.int.mod+1"
            },
            {
                "key": "FlatModifier",
                "predicate": {
                    "all": [
                        "self:feature:master-overdrive"
                    ],
                    "not": [
                        "self:feature:legendary-overdrive"
                    ]
                },
                "selector": "strike-damage",
                "slug": "overdrive-master",
                "value": "@actor.abilities.int.mod+2"
            },
            {
                "key": "FlatModifier",
                "predicate": {
                    "all": [
                        "self:feature:legendary-overdrive"
                    ]
                },
                "selector": "strike-damage",
                "slug": "overdrive-legendary",
                "value": "@actor.abilities.int.mod+3"
            }
        ],
        "source": {
            "value": ""
        },
        "start": {
            "initiative": null,
            "value": 0
        },
        "target": null,
        "tokenIcon": {
            "show": true
        },
        "traits": {
            "custom": "",
            "rarity": "common",
            "value": []
        }
    },
    "effects": [],
    "flags": {},
    "img": "systems/pf2e/icons/features/feats/overdrive-critical-success.webp",
    "name": "Effect: Overdrive (Critical Success)",
    "type": "effect"
}
