{
    "_id": "ltIvO9ZQlmqGD89Y",
    "data": {
        "description": {
            "value": "<p>Granted when a ranger shares their @Compendium[pf2e.classfeatures.Outwit]{Outwit} edge with you.</p>\n<p>You gain a +2 circumstance bonus to Deception checks, Intimidation checks, Stealth checks, and any checks to Recall Knowledge about the prey, and a +1 circumstance bonus to AC against your prey's attacks.</p>"
        },
        "duration": {
            "expiry": "turn-start",
            "sustained": false,
            "unit": "unlimited",
            "value": -1
        },
        "level": {
            "value": 1
        },
        "rules": [
            {
                "key": "ToggleProperty",
                "label": "Target is your Hunted Prey",
                "property": "flags.pf2e.rollOptions.all.hunted-prey"
            },
            {
                "key": "FlatModifier",
                "label": "To Seek hunted prey",
                "predicate": {
                    "all": [
                        "action:seek",
                        "hunted-prey"
                    ]
                },
                "selector": "perception",
                "type": "circumstance",
                "value": 2
            },
            {
                "key": "FlatModifier",
                "label": "To Track hunted prey",
                "predicate": {
                    "all": [
                        "action:track",
                        "hunted-prey"
                    ]
                },
                "selector": "survival",
                "type": "circumstance",
                "value": 2
            },
            {
                "key": "FlatModifier",
                "label": "Vs. hunted prey",
                "predicate": {
                    "all": [
                        "hunted-prey"
                    ]
                },
                "selector": "deception",
                "type": "circumstance",
                "value": 2
            },
            {
                "key": "FlatModifier",
                "label": "Vs. hunted prey",
                "predicate": {
                    "all": [
                        "hunted-prey"
                    ]
                },
                "selector": "intimidation",
                "type": "circumstance",
                "value": 2
            },
            {
                "key": "FlatModifier",
                "label": "Vs. hunted prey",
                "predicate": {
                    "all": [
                        "hunted-prey"
                    ]
                },
                "selector": "stealth",
                "type": "circumstance",
                "value": 2
            },
            {
                "key": "FlatModifier",
                "label": "Recall knowledge on hunted prey",
                "predicate": {
                    "all": [
                        "action:recall-knowledge",
                        "hunted-prey"
                    ]
                },
                "selector": "skill-check",
                "type": "circumstance",
                "value": 2
            },
            {
                "key": "FlatModifier",
                "label": "Vs. attacks from hunted prey",
                "predicate": {
                    "all": [
                        "hunted-prey"
                    ]
                },
                "selector": "ac",
                "type": "circumstance",
                "value": 1
            }
        ],
        "source": {
            "value": ""
        },
        "start": {
            "initiative": null,
            "value": 3648
        },
        "target": null,
        "tokenIcon": {
            "show": true
        },
        "traits": {
            "custom": "",
            "rarity": "common",
            "value": []
        }
    },
    "effects": [],
    "flags": {},
    "img": "systems/pf2e/icons/features/classes/outwit.webp",
    "name": "Effect: Hunter's Edge, Outwit",
    "type": "effect"
}
