{
    "_id": "JF2xCqL6t4UJZtUi",
    "data": {
        "badge": null,
        "description": {
            "value": "<p>You gain resistance 10 to physical damage and weakness 10 to force damage. You gain a fly speed of 40 feet.</p>"
        },
        "duration": {
            "expiry": "turn-start",
            "sustained": false,
            "unit": "rounds",
            "value": 3
        },
        "level": {
            "value": 1
        },
        "rules": [
            {
                "key": "Resistance",
                "type": "physical",
                "value": "10"
            },
            {
                "key": "Weakness",
                "type": "force",
                "value": "10"
            },
            {
                "key": "BaseSpeed",
                "selector": "fly",
                "value": "40"
            }
        ],
        "source": {
            "value": ""
        },
        "start": {
            "initiative": null,
            "value": 0
        },
        "target": null,
        "tokenIcon": {
            "show": true
        },
        "traits": {
            "custom": "",
            "rarity": "common",
            "value": []
        }
    },
    "effects": [],
    "flags": {},
    "img": "systems/pf2e/icons/spells/flowing-strike.webp",
    "name": "Effect: Blizzard Evasion",
    "type": "effect"
}
