{
    "_id": "LVPodfYEWKtK3fUW",
    "data": {
        "description": {
            "value": "<p>Granted by Formation Training</p>\n<hr />\n<p>You know how to fight in formation with your brethren. When you are adjacent to at least two hobgoblin allies, you gain a +1 circumstance bonus to AC and saving throws. This bonus increases to +2 on Reflex saves against area effects.</p>"
        },
        "duration": {
            "expiry": "turn-start",
            "sustained": false,
            "unit": "unlimited",
            "value": -1
        },
        "level": {
            "value": 5
        },
        "rules": [
            {
                "key": "FlatModifier",
                "selector": "saving-throw",
                "type": "circumstance",
                "value": 1
            },
            {
                "key": "FlatModifier",
                "selector": "ac",
                "type": "circumstance",
                "value": 1
            },
            {
                "key": "ToggleProperty",
                "label": "Saving Against an Area Effect",
                "property": "flags.pf2e.rollOptions.damage-roll.area-effect"
            },
            {
                "key": "FlatModifier",
                "predicate": {
                    "all": [
                        "area-effect"
                    ]
                },
                "selector": "reflex",
                "type": "circumstance",
                "value": 2
            }
        ],
        "source": {
            "value": "Pathfinder Lost Omens: Character Guide"
        },
        "start": {
            "initiative": null,
            "value": 0
        },
        "target": null,
        "tokenIcon": {
            "show": true
        },
        "traits": {
            "custom": "",
            "rarity": "common",
            "value": []
        }
    },
    "effects": [],
    "flags": {},
    "img": "systems/pf2e/icons/spells/anima-invocation.webp",
    "name": "Effect: Formation Training",
    "type": "effect"
}
