{
    "_id": "GGebXpRPyONZB3eS",
    "data": {
        "badge": null,
        "description": {
            "value": "<p>When in this stance, you wield the shield with both hands. When wielding a shield this way, increase the weapon damage die of the shield's boss or spikes by one step, and increase the shield's Hardness by 2 when using the @Compendium[pf2e.feats-srd.Shield Block]{Shield Block} reaction.</p>"
        },
        "duration": {
            "expiry": "turn-start",
            "sustained": false,
            "unit": "unlimited",
            "value": -1
        },
        "level": {
            "value": 1
        },
        "rules": [
            {
                "key": "ActiveEffectLike",
                "mode": "add",
                "path": "data.attributes.shield.hardness",
                "phase": "beforeDerived",
                "predicate": {
                    "all": [
                        "self:shield:equipped"
                    ]
                },
                "value": 2
            },
            {
                "key": "DamageDice",
                "override": {
                    "upgrade": true
                },
                "selector": "shield-boss-damage"
            },
            {
                "key": "DamageDice",
                "override": {
                    "upgrade": true
                },
                "selector": "shield-spikes-damage"
            }
        ],
        "source": {
            "value": "Pathfinder Lot Omens Character Guide"
        },
        "start": {
            "initiative": null,
            "value": 0
        },
        "target": null,
        "tokenIcon": {
            "show": true
        },
        "traits": {
            "custom": "",
            "rarity": "common",
            "value": []
        }
    },
    "effects": [],
    "flags": {},
    "img": "systems/pf2e/icons/equipment/shields/specific-shields/spellguard-shield.webp",
    "name": "Stance: Everstand Stance",
    "type": "effect"
}
