{
    "_id": "KiuBRoMFxL2Npt51",
    "data": {
        "description": {
            "value": "<p>Granted by @Compendium[pf2e.feats-srd.Dueling Dance (Swashbuckler)]{Dueling Dance (Swashbuckler)} or @Compendium[pf2e.feats-srd.Dueling Dance (Fighter)]{Dueling Dance (Fighter)}</p>\n<p>Automatically applied effects:</p>\n<ul>\n<li>+2 circumstance bonus to AC</li>\n</ul>"
        },
        "duration": {
            "expiry": "turn-start",
            "sustained": false,
            "unit": "encounter",
            "value": -1
        },
        "level": {
            "value": 1
        },
        "rules": [
            {
                "key": "FlatModifier",
                "label": "Dueling Parry",
                "selector": "ac",
                "type": "circumstance",
                "value": 2
            }
        ],
        "source": {
            "value": ""
        },
        "start": {
            "initiative": null,
            "value": 0
        },
        "target": null,
        "tokenIcon": {
            "show": true
        },
        "traits": {
            "custom": "",
            "rarity": "common",
            "value": []
        }
    },
    "effects": [],
    "flags": {},
    "img": "systems/pf2e/icons/equipment/weapons/rapier.webp",
    "name": "Stance: Dueling Dance",
    "type": "effect"
}
