{
    "_id": "9HPxAKpP3WJmICBx",
    "data": {
        "description": {
            "value": "<p>Granted by @Compendium[pf2e.feats-srd.Point-Blank Shot]{Point-Blank Shot}.</p>\n<p>When using a ranged weapon that doesn't have the volley trait, you gain a +2 circumstance bonus to damage rolls on attacks against targets within the weapon's first range increment.</p>"
        },
        "duration": {
            "expiry": "turn-start",
            "sustained": false,
            "unit": "encounter",
            "value": -1
        },
        "level": {
            "value": 1
        },
        "rules": [
            {
                "domain": "attack-roll",
                "key": "RollOption",
                "option": "self:ignore-volley-penalty"
            },
            {
                "key": "FlatModifier",
                "predicate": {
                    "all": [
                        "target:range-increment:1",
                        "weapon:ranged"
                    ],
                    "not": [
                        "weapon:trait:volley-20",
                        "weapon:trait:volley-30",
                        "weapon:trait:volley-50"
                    ]
                },
                "selector": "strike-damage",
                "type": "circumstance",
                "value": 2
            }
        ],
        "source": {
            "value": ""
        },
        "start": {
            "initiative": null,
            "value": 0
        },
        "target": null,
        "tokenIcon": {
            "show": true
        },
        "traits": {
            "custom": "",
            "rarity": "common",
            "value": []
        }
    },
    "effects": [],
    "flags": {},
    "img": "systems/pf2e/icons/equipment/weapons/daikyu.webp",
    "name": "Stance: Point-Blank Shot",
    "type": "effect"
}
