{
    "_id": "HeoH8hi5iieKPuJ2",
    "data": {
        "abilities": {
            "cha": {
                "mod": -2
            },
            "con": {
                "mod": 5
            },
            "dex": {
                "mod": 3
            },
            "int": {
                "mod": -5
            },
            "str": {
                "mod": 8
            },
            "wis": {
                "mod": 3
            }
        },
        "attributes": {
            "ac": {
                "details": "",
                "value": 31
            },
            "allSaves": {
                "value": ""
            },
            "hp": {
                "details": "",
                "max": 220,
                "temp": 0,
                "value": 220
            },
            "initiative": {
                "ability": "perception"
            },
            "perception": {
                "value": 20
            },
            "speed": {
                "otherSpeeds": [
                    {
                        "type": "climb",
                        "value": "50"
                    }
                ],
                "value": "50"
            }
        },
        "details": {
            "alignment": {
                "value": "N"
            },
            "blurb": "",
            "creatureType": "Animal",
            "level": {
                "value": 11
            },
            "privateNotes": "",
            "publicNotes": "<p>These gigantic mantids make their homes within deep jungles and prehistoric forests where they hunt and devour equally massive prey.</p>\n<hr />\n<p>These monstrously oversized insects are silent predators with lightning-quick forelegs and a bone-breaking bite.</p>",
            "source": {
                "value": "Pathfinder Bestiary"
            }
        },
        "resources": {},
        "saves": {
            "fortitude": {
                "saveDetail": "",
                "value": 24
            },
            "reflex": {
                "saveDetail": "",
                "value": 20
            },
            "will": {
                "saveDetail": "",
                "value": 18
            }
        },
        "traits": {
            "ci": [],
            "di": {
                "custom": "",
                "value": []
            },
            "dr": [],
            "dv": [],
            "languages": {
                "custom": "",
                "selected": [],
                "value": []
            },
            "rarity": "common",
            "senses": {
                "value": "darkvision"
            },
            "size": {
                "value": "grg"
            },
            "traits": {
                "custom": "",
                "value": [
                    "animal"
                ]
            }
        }
    },
    "effects": [],
    "flags": {},
    "img": "systems/pf2e/icons/default-icons/npc.svg",
    "items": [
        {
            "_id": "SDPanMrj394qVPdp",
            "data": {
                "attack": {
                    "value": ""
                },
                "attackEffects": {
                    "custom": "",
                    "value": []
                },
                "bonus": {
                    "value": 25
                },
                "damageRolls": {
                    "wjqd9dfjp5b251yn8xw8": {
                        "damage": "2d12+14",
                        "damageType": "piercing"
                    }
                },
                "description": {
                    "value": ""
                },
                "rules": [],
                "slug": null,
                "source": {
                    "value": ""
                },
                "traits": {
                    "custom": "",
                    "rarity": "common",
                    "value": [
                        "reach-10"
                    ]
                },
                "weaponType": {
                    "value": "melee"
                }
            },
            "effects": [],
            "flags": {},
            "img": "systems/pf2e/icons/default-icons/melee.svg",
            "name": "Mandibles",
            "sort": 100000,
            "type": "melee"
        },
        {
            "_id": "7WxioYo3ZgMSuL5O",
            "data": {
                "attack": {
                    "value": ""
                },
                "attackEffects": {
                    "custom": "",
                    "value": [
                        "grab"
                    ]
                },
                "bonus": {
                    "value": 24
                },
                "damageRolls": {
                    "yf8fwah17omnge9p7whx": {
                        "damage": "2d10+14",
                        "damageType": "piercing"
                    }
                },
                "description": {
                    "value": ""
                },
                "rules": [],
                "slug": null,
                "source": {
                    "value": ""
                },
                "traits": {
                    "custom": "",
                    "rarity": "common",
                    "value": [
                        "agile",
                        "reach-20"
                    ]
                },
                "weaponType": {
                    "value": "melee"
                }
            },
            "effects": [],
            "flags": {},
            "img": "systems/pf2e/icons/default-icons/melee.svg",
            "name": "Leg",
            "sort": 200000,
            "type": "melee"
        },
        {
            "_id": "rE3Xk58S3o4oHxdo",
            "data": {
                "actionCategory": {
                    "value": "interaction"
                },
                "actionType": {
                    "value": "passive"
                },
                "actions": {
                    "value": null
                },
                "description": {
                    "value": "<p>@Localize[PF2E.NPC.Abilities.Glossary.Darkvision]</p>"
                },
                "requirements": {
                    "value": ""
                },
                "rules": [],
                "slug": "darkvision",
                "source": {
                    "value": ""
                },
                "traits": {
                    "custom": "",
                    "rarity": "common",
                    "value": []
                },
                "trigger": {
                    "value": ""
                },
                "weapon": {
                    "value": ""
                }
            },
            "effects": [],
            "flags": {
                "core": {
                    "sourceId": "Compendium.pf2e.bestiary-ability-glossary-srd.qCCLZhnp2HhP3Ex6"
                }
            },
            "img": "systems/pf2e/icons/actions/Passive.webp",
            "name": "Darkvision",
            "sort": 300000,
            "type": "action"
        },
        {
            "_id": "rQVfc5bR7Xpe25cT",
            "data": {
                "actionCategory": {
                    "value": "offensive"
                },
                "actionType": {
                    "value": "action"
                },
                "actions": {
                    "value": 1
                },
                "description": {
                    "value": "<p>The deadly mantis flings a @Compendium[pf2e.conditionitems.Grabbed]{Grabbed} creature into the air, up to 30 feet overhead and up to 30 feet away from the mantis (the creature takes damage from the fall as normal). If the flung creature lands on another creature, the creature it lands on takes the same amount of bludgeoning damage. The creature being landed on can attempt a @Check[type:reflex|dc:31|basic:true] save.</p>"
                },
                "requirements": {
                    "value": ""
                },
                "rules": [],
                "slug": null,
                "source": {
                    "value": ""
                },
                "traits": {
                    "custom": "",
                    "rarity": "common",
                    "value": []
                },
                "trigger": {
                    "value": ""
                },
                "weapon": {
                    "value": ""
                }
            },
            "effects": [],
            "flags": {},
            "img": "systems/pf2e/icons/actions/OneAction.webp",
            "name": "Fling",
            "sort": 400000,
            "type": "action"
        },
        {
            "_id": "vXxTQUxFEXV4Ldxm",
            "data": {
                "actionCategory": {
                    "value": "offensive"
                },
                "actionType": {
                    "value": "action"
                },
                "actions": {
                    "value": 2
                },
                "description": {
                    "value": "<p>The mantis Leaps up to 40 feet vertically and 20 feet horizontally. At any point during the jump, it can make a leg Strike. If it hits, it automatically @Compendium[pf2e.conditionitems.Grabbed]{Grabs} the target, bringing the creature along until the end of the jump.</p>"
                },
                "requirements": {
                    "value": ""
                },
                "rules": [],
                "slug": null,
                "source": {
                    "value": ""
                },
                "traits": {
                    "custom": "",
                    "rarity": "common",
                    "value": []
                },
                "trigger": {
                    "value": ""
                },
                "weapon": {
                    "value": ""
                }
            },
            "effects": [],
            "flags": {},
            "img": "systems/pf2e/icons/actions/TwoActions.webp",
            "name": "Leaping Grab",
            "sort": 500000,
            "type": "action"
        },
        {
            "_id": "ZyTjl37PC8e0rtsy",
            "data": {
                "actionCategory": {
                    "value": "offensive"
                },
                "actionType": {
                    "value": "action"
                },
                "actions": {
                    "value": 1
                },
                "description": {
                    "value": "<p>The mantis makes a mandibles Strike against a creature it has @Compendium[pf2e.conditionitems.Grabbed]{Grabbed}. If that Strike hits and the creature is wearing armor with Hardness 12 or lower, the armor is @Compendium[pf2e.conditionitems.Broken]{Broken}. This Strike doesn't further damage armor that's already broken.</p>"
                },
                "requirements": {
                    "value": ""
                },
                "rules": [],
                "slug": null,
                "source": {
                    "value": ""
                },
                "traits": {
                    "custom": "",
                    "rarity": "common",
                    "value": []
                },
                "trigger": {
                    "value": ""
                },
                "weapon": {
                    "value": ""
                }
            },
            "effects": [],
            "flags": {},
            "img": "systems/pf2e/icons/actions/OneAction.webp",
            "name": "Rending Mandibles",
            "sort": 600000,
            "type": "action"
        },
        {
            "_id": "CUZdx9N2AmVtEjB4",
            "data": {
                "actionCategory": {
                    "value": "offensive"
                },
                "actionType": {
                    "value": "passive"
                },
                "actions": {
                    "value": null
                },
                "description": {
                    "value": "<p>On the first round of combat, creatures that haven't acted are @Compendium[pf2e.conditionitems.Flat-Footed]{Flat-Footed} to the deadly mantis.</p>"
                },
                "requirements": {
                    "value": ""
                },
                "rules": [],
                "slug": null,
                "source": {
                    "value": ""
                },
                "traits": {
                    "custom": "",
                    "rarity": "common",
                    "value": []
                },
                "trigger": {
                    "value": ""
                },
                "weapon": {
                    "value": ""
                }
            },
            "effects": [],
            "flags": {},
            "img": "systems/pf2e/icons/actions/Passive.webp",
            "name": "Sudden Strike",
            "sort": 700000,
            "type": "action"
        },
        {
            "_id": "LfYdkPPdY3ZvMyEk",
            "data": {
                "actionCategory": {
                    "value": "offensive"
                },
                "actionType": {
                    "value": "action"
                },
                "actions": {
                    "value": 1
                },
                "description": {
                    "value": "<p>@Localize[PF2E.NPC.Abilities.Glossary.Grab]</p>"
                },
                "requirements": {
                    "value": ""
                },
                "rules": [],
                "slug": "grab",
                "source": {
                    "value": ""
                },
                "traits": {
                    "custom": "",
                    "rarity": "common",
                    "value": []
                },
                "trigger": {
                    "value": ""
                },
                "weapon": {
                    "value": ""
                }
            },
            "effects": [],
            "flags": {
                "core": {
                    "sourceId": "Compendium.pf2e.bestiary-ability-glossary-srd.Tkd8sH4pwFIPzqTr"
                }
            },
            "img": "systems/pf2e/icons/actions/OneAction.webp",
            "name": "Grab",
            "sort": 800000,
            "type": "action"
        },
        {
            "_id": "dWvVhnysgvCW4usY",
            "data": {
                "description": {
                    "value": ""
                },
                "mod": {
                    "value": 18
                },
                "proficient": {
                    "value": 0
                },
                "rules": [],
                "slug": null,
                "source": {
                    "value": ""
                },
                "traits": {
                    "custom": "",
                    "rarity": "common",
                    "value": []
                }
            },
            "effects": [],
            "flags": {},
            "img": "systems/pf2e/icons/default-icons/lore.svg",
            "name": "Acrobatics",
            "sort": 900000,
            "type": "lore"
        },
        {
            "_id": "hagTVo2pUoNwWeyw",
            "data": {
                "description": {
                    "value": ""
                },
                "mod": {
                    "value": 25
                },
                "proficient": {
                    "value": 0
                },
                "rules": [],
                "slug": null,
                "source": {
                    "value": ""
                },
                "traits": {
                    "custom": "",
                    "rarity": "common",
                    "value": []
                }
            },
            "effects": [],
            "flags": {},
            "img": "systems/pf2e/icons/default-icons/lore.svg",
            "name": "Athletics",
            "sort": 1000000,
            "type": "lore"
        },
        {
            "_id": "CYYN9oIYnxgcnO6t",
            "data": {
                "description": {
                    "value": ""
                },
                "mod": {
                    "value": 22
                },
                "proficient": {
                    "value": 0
                },
                "rules": [],
                "slug": null,
                "source": {
                    "value": ""
                },
                "traits": {
                    "custom": "",
                    "rarity": "common",
                    "value": []
                }
            },
            "effects": [],
            "flags": {},
            "img": "systems/pf2e/icons/default-icons/lore.svg",
            "name": "Stealth",
            "sort": 1100000,
            "type": "lore"
        }
    ],
    "name": "Deadly Mantis",
    "token": {
        "disposition": -1,
        "height": 4,
        "img": "systems/pf2e/icons/default-icons/npc.svg",
        "name": "Deadly Mantis",
        "width": 4
    },
    "type": "npc"
}
