{
    "_id": "VUJrPHKOjYkIQnWn",
    "data": {
        "abilities": {
            "cha": {
                "mod": 9
            },
            "con": {
                "mod": 9
            },
            "dex": {
                "mod": 3
            },
            "int": {
                "mod": 4
            },
            "str": {
                "mod": 10
            },
            "wis": {
                "mod": 9
            }
        },
        "attributes": {
            "ac": {
                "details": "",
                "value": 45
            },
            "allSaves": {
                "value": ""
            },
            "hp": {
                "details": "regeneration 50 (deactivated by sonic)",
                "max": 350,
                "temp": 0,
                "value": 350
            },
            "initiative": {
                "ability": "perception"
            },
            "perception": {
                "value": 36
            },
            "speed": {
                "otherSpeeds": [
                    {
                        "type": "fly",
                        "value": "50"
                    }
                ],
                "value": "40"
            }
        },
        "details": {
            "alignment": {
                "value": "CN"
            },
            "blurb": "",
            "creatureType": "Fungus",
            "level": {
                "value": 21
            },
            "privateNotes": "",
            "publicNotes": "<p>A mu spore is a thankfully rare fungoid monstrosity of vast power and strange intellect. Even the smallest mu spores are never less than a hundred feet long from tentacle tip to tentacle tip, yet despite this vast bulk, they are capable of flying with an uncommon grace, venting jets of foul-smelling spores to guide their flight.</p>\n<p>Many societies tell tales of vast mu spores appearing over cities at the dawn of apocalyptic events, but they're more than just ravenous eaters of nations. Mu spores often possess rare or esoteric knowledge, and if peaceful contact can be made, this lore can be quite valuable. Their spores can also be used to craft certain foul drugs or deadly alchemical poisons, but harvesting these ingredients is dangerous, as the spores are not viable for long once they've been shed, forcing alchemists seeking to harvest them to operate in perilously close proximity to the abominations.</p>",
            "source": {
                "value": "Pathfinder Bestiary"
            }
        },
        "resources": {},
        "saves": {
            "fortitude": {
                "saveDetail": "",
                "value": 38
            },
            "reflex": {
                "saveDetail": "",
                "value": 32
            },
            "will": {
                "saveDetail": "",
                "value": 38
            }
        },
        "traits": {
            "ci": [],
            "di": {
                "custom": "",
                "value": []
            },
            "dr": [
                {
                    "exceptions": "",
                    "type": "acid",
                    "value": 20
                },
                {
                    "exceptions": "except sonic",
                    "type": "all",
                    "value": 10
                }
            ],
            "dv": [],
            "languages": {
                "custom": "",
                "selected": [],
                "value": [
                    "aklo",
                    "common",
                    "terran",
                    "undercommon"
                ]
            },
            "rarity": "common",
            "senses": {
                "value": "low-light vision, windsense 240 feet"
            },
            "size": {
                "value": "grg"
            },
            "traits": {
                "custom": "",
                "value": [
                    "fungus"
                ]
            }
        }
    },
    "effects": [],
    "flags": {},
    "img": "systems/pf2e/icons/default-icons/npc.svg",
    "items": [
        {
            "_id": "rGYOx7SHsrayrSsA",
            "data": {
                "attack": {
                    "value": ""
                },
                "attackEffects": {
                    "custom": "",
                    "value": [
                        "improved-grab"
                    ]
                },
                "bonus": {
                    "value": 40
                },
                "damageRolls": {
                    "h1baxzxwk0adq18a7lst": {
                        "damage": "4d12+18",
                        "damageType": "piercing"
                    }
                },
                "description": {
                    "value": ""
                },
                "rules": [],
                "slug": null,
                "source": {
                    "value": ""
                },
                "traits": {
                    "custom": "",
                    "rarity": "common",
                    "value": [
                        "deadly-3d12",
                        "reach-30"
                    ]
                },
                "weaponType": {
                    "value": "melee"
                }
            },
            "effects": [],
            "flags": {},
            "img": "systems/pf2e/icons/default-icons/melee.svg",
            "name": "Jaws",
            "sort": 100000,
            "type": "melee"
        },
        {
            "_id": "qfEnUMdNzlNIipCp",
            "data": {
                "attack": {
                    "value": ""
                },
                "attackEffects": {
                    "custom": "",
                    "value": [
                        "improved-grab"
                    ]
                },
                "bonus": {
                    "value": 40
                },
                "damageRolls": {
                    "10l0p7meojfaz1586cra": {
                        "damage": "4d10+18",
                        "damageType": "bludgeoning"
                    }
                },
                "description": {
                    "value": ""
                },
                "rules": [],
                "slug": null,
                "source": {
                    "value": ""
                },
                "traits": {
                    "custom": "",
                    "rarity": "common",
                    "value": [
                        "agile",
                        "reach-100"
                    ]
                },
                "weaponType": {
                    "value": "melee"
                }
            },
            "effects": [],
            "flags": {},
            "img": "systems/pf2e/icons/default-icons/melee.svg",
            "name": "Tentacle",
            "sort": 200000,
            "type": "melee"
        },
        {
            "_id": "47Ksb5cr0D7tx1KE",
            "data": {
                "actionCategory": {
                    "value": "interaction"
                },
                "actionType": {
                    "value": "passive"
                },
                "actions": {
                    "value": null
                },
                "description": {
                    "value": "<p>@Localize[PF2E.NPC.Abilities.Glossary.LowLightVision]</p>"
                },
                "requirements": {
                    "value": ""
                },
                "rules": [],
                "slug": "low-light-vision",
                "source": {
                    "value": ""
                },
                "traits": {
                    "custom": "",
                    "rarity": "common",
                    "value": []
                },
                "trigger": {
                    "value": ""
                },
                "weapon": {
                    "value": ""
                }
            },
            "effects": [],
            "flags": {
                "core": {
                    "sourceId": "Compendium.pf2e.bestiary-ability-glossary-srd.fFu2sZz4KB01fVRc"
                }
            },
            "img": "systems/pf2e/icons/actions/Passive.webp",
            "name": "Low-Light Vision",
            "sort": 300000,
            "type": "action"
        },
        {
            "_id": "Fzou6YacIfdWk8Rx",
            "data": {
                "actionCategory": {
                    "value": "interaction"
                },
                "actionType": {
                    "value": "passive"
                },
                "actions": {
                    "value": null
                },
                "description": {
                    "value": "<p>The mu spore senses vibrations in the air through its aerial spores.</p>"
                },
                "requirements": {
                    "value": ""
                },
                "rules": [],
                "slug": null,
                "source": {
                    "value": ""
                },
                "traits": {
                    "custom": "",
                    "rarity": "common",
                    "value": []
                },
                "trigger": {
                    "value": ""
                },
                "weapon": {
                    "value": ""
                }
            },
            "effects": [],
            "flags": {},
            "img": "systems/pf2e/icons/actions/Passive.webp",
            "name": "Windsense 240 feet",
            "sort": 400000,
            "type": "action"
        },
        {
            "_id": "82HFjbpYVotosFsA",
            "data": {
                "actionCategory": {
                    "value": "defensive"
                },
                "actionType": {
                    "value": "passive"
                },
                "actions": {
                    "value": null
                },
                "description": {
                    "value": "<p>@Localize[PF2E.NPC.Abilities.Glossary.Regeneration]</p>"
                },
                "requirements": {
                    "value": ""
                },
                "rules": [],
                "slug": "regeneration",
                "source": {
                    "value": ""
                },
                "traits": {
                    "custom": "",
                    "rarity": "common",
                    "value": []
                },
                "trigger": {
                    "value": ""
                },
                "weapon": {
                    "value": ""
                }
            },
            "effects": [],
            "flags": {
                "core": {
                    "sourceId": "Compendium.pf2e.bestiary-ability-glossary-srd.lR9R5Vld8Eu2Dha5"
                }
            },
            "img": "systems/pf2e/icons/actions/Passive.webp",
            "name": "Regeneration 50 (Deactivated by Sonic)",
            "sort": 500000,
            "type": "action"
        },
        {
            "_id": "JrkBo5yZM19wv3KX",
            "data": {
                "actionCategory": {
                    "value": "defensive"
                },
                "actionType": {
                    "value": "passive"
                },
                "actions": {
                    "value": null
                },
                "description": {
                    "value": "<p>A mu spore is a massive creature and takes up a space of 10 squares by 10 squares (50 feet by 50 feet).</p>"
                },
                "requirements": {
                    "value": ""
                },
                "rules": [],
                "slug": null,
                "source": {
                    "value": ""
                },
                "traits": {
                    "custom": "",
                    "rarity": "common",
                    "value": []
                },
                "trigger": {
                    "value": ""
                },
                "weapon": {
                    "value": ""
                }
            },
            "effects": [],
            "flags": {},
            "img": "systems/pf2e/icons/actions/Passive.webp",
            "name": "Enormous",
            "sort": 600000,
            "type": "action"
        },
        {
            "_id": "bZ4JNU36mcWHHrmR",
            "data": {
                "actionCategory": {
                    "value": "defensive"
                },
                "actionType": {
                    "value": "free"
                },
                "actions": {
                    "value": null
                },
                "description": {
                    "value": "<p data-visibility=\"gm\"><strong>Trigger</strong> A creature within 10 feet of the mu spore moves or attacks the mu spore.</p>\n<p><strong>Effect</strong> The spore uses @Compendium[pf2e.bestiary-ability-glossary-srd.Improved Grab]{Grab} on the triggering creature. There is no limit to how many creatures it can grab with the sticky tendrils that cover its body.</p>"
                },
                "requirements": {
                    "value": ""
                },
                "rules": [],
                "slug": null,
                "source": {
                    "value": ""
                },
                "traits": {
                    "custom": "",
                    "rarity": "common",
                    "value": []
                },
                "trigger": {
                    "value": ""
                },
                "weapon": {
                    "value": ""
                }
            },
            "effects": [],
            "flags": {},
            "img": "systems/pf2e/icons/actions/FreeAction.webp",
            "name": "Grasping Tendrils",
            "sort": 700000,
            "type": "action"
        },
        {
            "_id": "VJqYJwxq4m0v6j2M",
            "data": {
                "actionCategory": {
                    "value": "defensive"
                },
                "actionType": {
                    "value": "passive"
                },
                "actions": {
                    "value": null
                },
                "description": {
                    "value": "<p>@Template[type:emanation|distance:60]{60 feet} @Compendium[pf2e.bestiary-ability-glossary-srd.Aura]{Aura}</p>\n<hr />\n<p>A living creature that enters the area or ends its turn within it is corrupted by spores. It must succeed at a @Check[type:fortitude|dc:42] save or be @Compendium[pf2e.conditionitems.Clumsy]{Clumsy 1}, @Compendium[pf2e.conditionitems.Enfeebled]{Enfeebled 1}, and @Compendium[pf2e.conditionitems.Slowed]{Slowed 1} for 1 round. Fungi and plants are immune.</p>"
                },
                "requirements": {
                    "value": ""
                },
                "rules": [],
                "slug": null,
                "source": {
                    "value": ""
                },
                "traits": {
                    "custom": "",
                    "rarity": "common",
                    "value": [
                        "aura"
                    ]
                },
                "trigger": {
                    "value": ""
                },
                "weapon": {
                    "value": ""
                }
            },
            "effects": [],
            "flags": {},
            "img": "systems/pf2e/icons/actions/Passive.webp",
            "name": "Spores",
            "sort": 800000,
            "type": "action"
        },
        {
            "_id": "Xm0r5sx1GTiEAKc4",
            "data": {
                "actionCategory": {
                    "value": "offensive"
                },
                "actionType": {
                    "value": "action"
                },
                "actions": {
                    "value": 2
                },
                "description": {
                    "value": "<p>The mu spore releases a cloud of burrowing spores in a @Template[type:cone|distance:400]. The spores deal [[/r {22d6}[piercing]]]{22d6 piercing damage} to all creatures, objects, and wooden structures in the area, but not to plants or fungi (@Check[type:reflex|dc:46|basic:true] save).</p>\n<p>The mu spore can't use this ability again for [[/br 1d4 #Recharge Cough Spores]]{1d4 rounds}.</p>"
                },
                "requirements": {
                    "value": ""
                },
                "rules": [],
                "slug": null,
                "source": {
                    "value": ""
                },
                "traits": {
                    "custom": "",
                    "rarity": "common",
                    "value": []
                },
                "trigger": {
                    "value": ""
                },
                "weapon": {
                    "value": ""
                }
            },
            "effects": [],
            "flags": {},
            "img": "systems/pf2e/icons/actions/TwoActions.webp",
            "name": "Cough Spores",
            "sort": 900000,
            "type": "action"
        },
        {
            "_id": "S9z7EwyzhGnCFZDI",
            "data": {
                "actionCategory": {
                    "value": "offensive"
                },
                "actionType": {
                    "value": "action"
                },
                "actions": {
                    "value": 2
                },
                "description": {
                    "value": "<p>The mu spore pulls all creatures and objects in a @Template[type:cone|distance:400] 400 feet towards it's mouth. A successful @Check[type:fortitude|dc:43] save halves the distance, or avoids the pull on a critical success. The mu spore automatically attempts to Swallow Whole each creature adjacent to it at the end of the inhalation.</p>"
                },
                "requirements": {
                    "value": ""
                },
                "rules": [],
                "slug": null,
                "source": {
                    "value": ""
                },
                "traits": {
                    "custom": "",
                    "rarity": "common",
                    "value": []
                },
                "trigger": {
                    "value": ""
                },
                "weapon": {
                    "value": ""
                }
            },
            "effects": [],
            "flags": {},
            "img": "systems/pf2e/icons/actions/TwoActions.webp",
            "name": "Enormous Inhalation",
            "sort": 1000000,
            "type": "action"
        },
        {
            "_id": "bjN59WI6VS1niQFU",
            "data": {
                "actionCategory": {
                    "value": "offensive"
                },
                "actionType": {
                    "value": "reaction"
                },
                "actions": {
                    "value": null
                },
                "description": {
                    "value": "<p data-visibility=\"gm\"><strong>Trigger</strong> The mu spore @Compendium[pf2e.conditionitems.Grabbed]{Grabs} a creature with its jaws.</p>\n<p><strong>Effect</strong> The spore uses Swallow Whole.</p>"
                },
                "requirements": {
                    "value": ""
                },
                "rules": [],
                "slug": null,
                "source": {
                    "value": ""
                },
                "traits": {
                    "custom": "",
                    "rarity": "common",
                    "value": []
                },
                "trigger": {
                    "value": ""
                },
                "weapon": {
                    "value": ""
                }
            },
            "effects": [],
            "flags": {},
            "img": "systems/pf2e/icons/actions/Reaction.webp",
            "name": "Fast Swallow",
            "sort": 1100000,
            "type": "action"
        },
        {
            "_id": "fSUvadSPPhS9kOAB",
            "data": {
                "actionCategory": {
                    "value": "offensive"
                },
                "actionType": {
                    "value": "action"
                },
                "actions": {
                    "value": 1
                },
                "description": {
                    "value": "<p>[[/r {15}[bludgeoning]]]{15 bludgeoning damage}, @Check[type:fortitude|dc:45|basic:true] save</p>\n<hr />\n<p>@Localize[PF2E.NPC.Abilities.Glossary.GreaterConstrict]</p>"
                },
                "requirements": {
                    "value": ""
                },
                "rules": [],
                "slug": "greater-constrict",
                "source": {
                    "value": ""
                },
                "traits": {
                    "custom": "",
                    "rarity": "common",
                    "value": []
                },
                "trigger": {
                    "value": ""
                },
                "weapon": {
                    "value": ""
                }
            },
            "effects": [],
            "flags": {
                "core": {
                    "sourceId": "Compendium.pf2e.bestiary-ability-glossary-srd.OmV6E3aELvq9CkK1"
                }
            },
            "img": "systems/pf2e/icons/actions/OneAction.webp",
            "name": "Greater Constrict",
            "sort": 1200000,
            "type": "action"
        },
        {
            "_id": "zpUaHpTkfVbbw7sX",
            "data": {
                "actionCategory": {
                    "value": "offensive"
                },
                "actionType": {
                    "value": "passive"
                },
                "actions": {
                    "value": null
                },
                "description": {
                    "value": "<p>The mu spore still deals [[/r {18}[piercing]]]{18 piercing damage} if its jaws Strike is a failure</p>"
                },
                "requirements": {
                    "value": ""
                },
                "rules": [
                    {
                        "key": "Note",
                        "outcome": [
                            "failure"
                        ],
                        "selector": "jaws-attack",
                        "text": "<div data-visibility='gm'><p><strong>{item|name}</strong></p>{item|data.description.value}</div>"
                    }
                ],
                "slug": null,
                "source": {
                    "value": ""
                },
                "traits": {
                    "custom": "",
                    "rarity": "common",
                    "value": []
                },
                "trigger": {
                    "value": ""
                },
                "weapon": {
                    "value": ""
                }
            },
            "effects": [],
            "flags": {},
            "img": "systems/pf2e/icons/actions/Passive.webp",
            "name": "Overpowering Jaws",
            "sort": 1300000,
            "type": "action"
        },
        {
            "_id": "lYUnEWGhnlYFvH6B",
            "data": {
                "actionCategory": {
                    "value": "offensive"
                },
                "actionType": {
                    "value": "action"
                },
                "actions": {
                    "value": 1
                },
                "description": {
                    "value": "<p>Gargantuan, [[/r {20d6+9}[acid]]]{20d6+9 acid damage}, Rupture 37.</p>\n<hr />\n<p>@Localize[PF2E.NPC.Abilities.Glossary.SwallowWhole]</p>"
                },
                "requirements": {
                    "value": ""
                },
                "rules": [],
                "slug": "swallow-whole",
                "source": {
                    "value": ""
                },
                "traits": {
                    "custom": "",
                    "rarity": "common",
                    "value": [
                        "attack"
                    ]
                },
                "trigger": {
                    "value": ""
                },
                "weapon": {
                    "value": ""
                }
            },
            "effects": [],
            "flags": {
                "core": {
                    "sourceId": "Compendium.pf2e.bestiary-ability-glossary-srd.uJSseLa57HZYSMUu"
                }
            },
            "img": "systems/pf2e/icons/actions/OneAction.webp",
            "name": "Swallow Whole",
            "sort": 1400000,
            "type": "action"
        },
        {
            "_id": "Sjf1HpLuxn9U6lr2",
            "data": {
                "actionCategory": {
                    "value": "offensive"
                },
                "actionType": {
                    "value": "free"
                },
                "actions": {
                    "value": null
                },
                "description": {
                    "value": "<p>@Localize[PF2E.NPC.Abilities.Glossary.ImprovedGrab]</p>"
                },
                "requirements": {
                    "value": ""
                },
                "rules": [],
                "slug": "improved-grab",
                "source": {
                    "value": ""
                },
                "traits": {
                    "custom": "",
                    "rarity": "common",
                    "value": []
                },
                "trigger": {
                    "value": ""
                },
                "weapon": {
                    "value": ""
                }
            },
            "effects": [],
            "flags": {
                "core": {
                    "sourceId": "Compendium.pf2e.bestiary-ability-glossary-srd.i18TlebMzwONyPhI"
                }
            },
            "img": "systems/pf2e/icons/actions/FreeAction.webp",
            "name": "Improved Grab",
            "sort": 1500000,
            "type": "action"
        },
        {
            "_id": "LU3yulUnVqpnDjJf",
            "data": {
                "description": {
                    "value": ""
                },
                "mod": {
                    "value": 26
                },
                "proficient": {
                    "value": 0
                },
                "rules": [],
                "slug": null,
                "source": {
                    "value": ""
                },
                "traits": {
                    "custom": "",
                    "rarity": "common",
                    "value": []
                }
            },
            "effects": [],
            "flags": {},
            "img": "systems/pf2e/icons/default-icons/lore.svg",
            "name": "Acrobatics",
            "sort": 1600000,
            "type": "lore"
        },
        {
            "_id": "aJe4JBIAC2lgphEZ",
            "data": {
                "description": {
                    "value": ""
                },
                "mod": {
                    "value": 41
                },
                "proficient": {
                    "value": 0
                },
                "rules": [],
                "slug": null,
                "source": {
                    "value": ""
                },
                "traits": {
                    "custom": "",
                    "rarity": "common",
                    "value": []
                }
            },
            "effects": [],
            "flags": {},
            "img": "systems/pf2e/icons/default-icons/lore.svg",
            "name": "Athletics",
            "sort": 1700000,
            "type": "lore"
        },
        {
            "_id": "WwsfVz7eDwhf6ZkF",
            "data": {
                "description": {
                    "value": ""
                },
                "mod": {
                    "value": 38
                },
                "proficient": {
                    "value": 0
                },
                "rules": [],
                "slug": null,
                "source": {
                    "value": ""
                },
                "traits": {
                    "custom": "",
                    "rarity": "common",
                    "value": []
                }
            },
            "effects": [],
            "flags": {},
            "img": "systems/pf2e/icons/default-icons/lore.svg",
            "name": "Nature",
            "sort": 1800000,
            "type": "lore"
        },
        {
            "_id": "I3wkCiabKnyqkSej",
            "data": {
                "description": {
                    "value": ""
                },
                "mod": {
                    "value": 36
                },
                "proficient": {
                    "value": 0
                },
                "rules": [],
                "slug": null,
                "source": {
                    "value": ""
                },
                "traits": {
                    "custom": "",
                    "rarity": "common",
                    "value": []
                }
            },
            "effects": [],
            "flags": {},
            "img": "systems/pf2e/icons/default-icons/lore.svg",
            "name": "Occultism",
            "sort": 1900000,
            "type": "lore"
        }
    ],
    "name": "Mu Spore",
    "token": {
        "disposition": -1,
        "height": 10,
        "img": "systems/pf2e/icons/default-icons/npc.svg",
        "name": "Mu Spore",
        "width": 10
    },
    "type": "npc"
}
