{
    "_id": "KxN9aGFGPxl6oLGF",
    "data": {
        "abilities": {
            "cha": {
                "mod": -2
            },
            "con": {
                "mod": 3
            },
            "dex": {
                "mod": -2
            },
            "int": {
                "mod": -5
            },
            "str": {
                "mod": 4
            },
            "wis": {
                "mod": 0
            }
        },
        "attributes": {
            "ac": {
                "details": "",
                "value": 13
            },
            "allSaves": {
                "value": ""
            },
            "hp": {
                "details": "negative healing",
                "max": 50,
                "temp": 0,
                "value": 50
            },
            "initiative": {
                "ability": "perception"
            },
            "perception": {
                "value": 3
            },
            "speed": {
                "otherSpeeds": [],
                "value": "25"
            }
        },
        "details": {
            "alignment": {
                "value": "NE"
            },
            "blurb": "",
            "creatureType": "Undead",
            "level": {
                "value": 1
            },
            "privateNotes": "",
            "publicNotes": "<p>Plague zombies are infested with hideous contagions.</p>\n<hr />\n<p>A zombie's only desire is to consume the living. Unthinking and ever-shambling harbingers of death, zombies stop only when they're destroyed.</p>",
            "source": {
                "value": "Pathfinder Bestiary"
            }
        },
        "resources": {},
        "saves": {
            "fortitude": {
                "saveDetail": "",
                "value": 6
            },
            "reflex": {
                "saveDetail": "",
                "value": 3
            },
            "will": {
                "saveDetail": "",
                "value": 4
            }
        },
        "traits": {
            "attitude": {
                "value": "hostile"
            },
            "ci": [],
            "di": {
                "custom": "",
                "value": [
                    "death-effects",
                    "disease",
                    "mental",
                    "paralyzed",
                    "poison",
                    "unconscious"
                ]
            },
            "dr": [],
            "dv": [
                {
                    "type": "positive",
                    "value": 10
                },
                {
                    "type": "slashing",
                    "value": 10
                }
            ],
            "languages": {
                "custom": "",
                "selected": [],
                "value": []
            },
            "rarity": "common",
            "senses": {
                "value": "darkvision"
            },
            "size": {
                "value": "med"
            },
            "traits": {
                "custom": "",
                "value": [
                    "mindless",
                    "undead",
                    "zombie"
                ]
            }
        }
    },
    "effects": [],
    "flags": {},
    "img": "systems/pf2e/icons/default-icons/npc.svg",
    "items": [
        {
            "_id": "xe58zyk07wl19azb",
            "data": {
                "active": true,
                "alsoApplies": {
                    "linked": [],
                    "unlinked": []
                },
                "base": "Slowed",
                "description": {
                    "value": "<p>You have fewer actions. Slowed always includes a value. When you regain your actions at the start of your turn, reduce the number of actions you regain by your slowed value. Because slowed has its effect at the start of your turn, you don't immediately lose actions if you become slowed during your turn.</p>"
                },
                "duration": {
                    "perpetual": true,
                    "text": "",
                    "value": 0
                },
                "group": "",
                "hud": {
                    "img": {
                        "useStatusName": true,
                        "value": "systems/pf2e/icons/conditions-2/slowed.webp"
                    },
                    "selectable": true,
                    "statusName": "slowed"
                },
                "modifiers": [],
                "overrides": [],
                "references": {
                    "children": [],
                    "immunityFrom": [],
                    "overriddenBy": [],
                    "overrides": []
                },
                "removable": true,
                "rules": [],
                "slug": "slowed",
                "source": {
                    "value": ""
                },
                "sources": {
                    "hud": true,
                    "values": []
                },
                "traits": {
                    "custom": "",
                    "rarity": "common",
                    "value": []
                },
                "value": {
                    "immutable": false,
                    "isValued": true,
                    "modifiers": [],
                    "value": 1
                }
            },
            "effects": [],
            "flags": {
                "core": {
                    "sourceId": "Compendium.pf2e.conditionitems.xYTAsEpcJE1Ccni3"
                },
                "pf2e": {
                    "condition": true
                }
            },
            "img": "systems/pf2e/icons/conditions/slowed.webp",
            "name": "Slowed",
            "sort": 100000,
            "type": "condition"
        },
        {
            "_id": "tvnn3d6VCprLkoQ2",
            "data": {
                "attack": {
                    "value": ""
                },
                "attackEffects": {
                    "custom": "",
                    "value": [
                        "grab",
                        "zombie-rot"
                    ]
                },
                "bonus": {
                    "value": 9
                },
                "damageRolls": {
                    "ka33amlykrcrv5nq90lv": {
                        "damage": "1d8+4",
                        "damageType": "bludgeoning"
                    }
                },
                "description": {
                    "value": ""
                },
                "rules": [],
                "slug": null,
                "source": {
                    "value": ""
                },
                "traits": {
                    "custom": "",
                    "rarity": "common",
                    "value": []
                },
                "weaponType": {
                    "value": "melee"
                }
            },
            "effects": [],
            "flags": {},
            "img": "systems/pf2e/icons/default-icons/melee.svg",
            "name": "Fist",
            "sort": 200000,
            "type": "melee"
        },
        {
            "_id": "MuiyXm8KyQF57NaW",
            "data": {
                "attack": {
                    "value": ""
                },
                "attackEffects": {
                    "custom": "",
                    "value": [
                        "zombie-rot"
                    ]
                },
                "bonus": {
                    "value": 9
                },
                "damageRolls": {
                    "2rof0t3ang89c3dtvwyr": {
                        "damage": "1d12+4",
                        "damageType": "piercing"
                    }
                },
                "description": {
                    "value": "<p data-visibility=\"gm\"><strong>Requirement</strong> The zombie has a creature @Compendium[pf2e.conditionitems.Grabbed]{Grabbed} or @Compendium[pf2e.conditionitems.Restrained]{Restrained}.</p>"
                },
                "rules": [],
                "slug": null,
                "source": {
                    "value": ""
                },
                "traits": {
                    "custom": "",
                    "rarity": "common",
                    "value": []
                },
                "weaponType": {
                    "value": "melee"
                }
            },
            "effects": [],
            "flags": {},
            "img": "systems/pf2e/icons/default-icons/melee.svg",
            "name": "Jaws",
            "sort": 300000,
            "type": "melee"
        },
        {
            "_id": "fTPjypXzhscP42dn",
            "data": {
                "actionCategory": {
                    "value": "interaction"
                },
                "actionType": {
                    "value": "passive"
                },
                "actions": {
                    "value": null
                },
                "description": {
                    "value": "<p>@Localize[PF2E.NPC.Abilities.Glossary.Darkvision]</p>"
                },
                "requirements": {
                    "value": ""
                },
                "rules": [],
                "slug": "darkvision",
                "source": {
                    "value": ""
                },
                "traits": {
                    "custom": "",
                    "rarity": "common",
                    "value": []
                },
                "trigger": {
                    "value": ""
                },
                "weapon": {
                    "value": ""
                }
            },
            "effects": [],
            "flags": {
                "core": {
                    "sourceId": "Compendium.pf2e.bestiary-ability-glossary-srd.qCCLZhnp2HhP3Ex6"
                }
            },
            "img": "systems/pf2e/icons/actions/Passive.webp",
            "name": "Darkvision",
            "sort": 400000,
            "type": "action"
        },
        {
            "_id": "a2pZeef5wn9y5xAA",
            "data": {
                "actionCategory": {
                    "value": "interaction"
                },
                "actionType": {
                    "value": "passive"
                },
                "actions": {
                    "value": null
                },
                "description": {
                    "value": "<p>A zombie is permanently @Compendium[pf2e.conditionitems.Slowed]{Slowed 1} and can't use reactions.</p>"
                },
                "requirements": {
                    "value": ""
                },
                "rules": [],
                "slug": null,
                "source": {
                    "value": ""
                },
                "traits": {
                    "custom": "",
                    "rarity": "common",
                    "value": []
                },
                "trigger": {
                    "value": ""
                },
                "weapon": {
                    "value": ""
                }
            },
            "effects": [],
            "flags": {},
            "img": "systems/pf2e/icons/actions/Passive.webp",
            "name": "Slow",
            "sort": 500000,
            "type": "action"
        },
        {
            "_id": "Jcl5rz38QkHYDfHx",
            "data": {
                "actionCategory": {
                    "value": "defensive"
                },
                "actionType": {
                    "value": "passive"
                },
                "actions": {
                    "value": null
                },
                "description": {
                    "value": "<p>@Localize[PF2E.NPC.Abilities.Glossary.NegativeHealing]</p>"
                },
                "requirements": {
                    "value": ""
                },
                "rules": [
                    {
                        "key": "ActiveEffectLike",
                        "mode": "override",
                        "path": "data.attributes.hp.negativeHealing",
                        "value": true
                    }
                ],
                "slug": "negative-healing",
                "source": {
                    "value": ""
                },
                "traits": {
                    "custom": "",
                    "rarity": "common",
                    "value": []
                },
                "trigger": {
                    "value": ""
                },
                "weapon": {
                    "value": ""
                }
            },
            "effects": [],
            "flags": {
                "core": {
                    "sourceId": "Compendium.pf2e.bestiary-ability-glossary-srd.TTCw5NusiSSkJU1x"
                }
            },
            "img": "systems/pf2e/icons/actions/Passive.webp",
            "name": "Negative Healing",
            "sort": 600000,
            "type": "action"
        },
        {
            "_id": "RhGXKyPEo0bWS5D1",
            "data": {
                "actionCategory": {
                    "value": "offensive"
                },
                "actionType": {
                    "value": "passive"
                },
                "actions": {
                    "value": null
                },
                "description": {
                    "value": "<p>An infected creature can't heal damage it takes from zombie rot until it has been cured of the disease.</p>\n<hr />\n<p><strong>Saving Throw</strong> @Check[type:fortitude|dc:18]</p>\n<p><strong>Stage 1</strong> carrier with no ill effect (1 day)</p>\n<p><strong>Stage 2</strong> [[/r {1d6}[negative]]]{1d6 negative damage} (1 day)</p>\n<p><strong>Stage 3</strong> [[/r {1d6}[negative]]]{1d6 negative damage} (1 day)</p>\n<p><strong>Stage 4</strong> [[/r {1d6}[negative]]]{1d6 negative damage} (1 day)</p>\n<p><strong>Stage 5</strong> dead, rising as a plague zombie immediately</p>"
                },
                "requirements": {
                    "value": ""
                },
                "rules": [],
                "slug": null,
                "source": {
                    "value": ""
                },
                "traits": {
                    "custom": "",
                    "rarity": "common",
                    "value": [
                        "disease",
                        "necromancy"
                    ]
                },
                "trigger": {
                    "value": ""
                },
                "weapon": {
                    "value": ""
                }
            },
            "effects": [],
            "flags": {},
            "img": "systems/pf2e/icons/actions/Passive.webp",
            "name": "Zombie Rot",
            "sort": 700000,
            "type": "action"
        },
        {
            "_id": "MRMj6jc7E8e5c7UF",
            "data": {
                "actionCategory": {
                    "value": "offensive"
                },
                "actionType": {
                    "value": "action"
                },
                "actions": {
                    "value": 1
                },
                "description": {
                    "value": "<p>@Localize[PF2E.NPC.Abilities.Glossary.Grab]</p>"
                },
                "requirements": {
                    "value": ""
                },
                "rules": [],
                "slug": "grab",
                "source": {
                    "value": ""
                },
                "traits": {
                    "custom": "",
                    "rarity": "common",
                    "value": []
                },
                "trigger": {
                    "value": ""
                },
                "weapon": {
                    "value": ""
                }
            },
            "effects": [],
            "flags": {
                "core": {
                    "sourceId": "Compendium.pf2e.bestiary-ability-glossary-srd.Tkd8sH4pwFIPzqTr"
                }
            },
            "img": "systems/pf2e/icons/actions/OneAction.webp",
            "name": "Grab",
            "sort": 800000,
            "type": "action"
        },
        {
            "_id": "oHfpeGrwDyT2otQO",
            "data": {
                "description": {
                    "value": ""
                },
                "mod": {
                    "value": 7
                },
                "proficient": {
                    "value": 0
                },
                "rules": [],
                "slug": null,
                "source": {
                    "value": ""
                },
                "traits": {
                    "custom": "",
                    "rarity": "common",
                    "value": []
                }
            },
            "effects": [],
            "flags": {},
            "img": "systems/pf2e/icons/default-icons/lore.svg",
            "name": "Athletics",
            "sort": 900000,
            "type": "lore"
        }
    ],
    "name": "Plague Zombie",
    "token": {
        "disposition": -1,
        "height": 1,
        "img": "systems/pf2e/icons/default-icons/npc.svg",
        "name": "Plague Zombie",
        "width": 1
    },
    "type": "npc"
}
