{
    "_id": "ScZ8tlV5zS0Jwnqn",
    "data": {
        "badge": null,
        "description": {
            "value": "<p>The creature gains temporary hit points and other effects based on the specific creature.</p>"
        },
        "duration": {
            "expiry": "turn-start",
            "sustained": false,
            "unit": "minutes",
            "value": 1
        },
        "level": {
            "value": 1
        },
        "rules": [
            {
                "key": "TempHP",
                "value": "@actor.level + @actor.abilities.con.mod + @actor.data.data.custom.modifiers.frenzyMod"
            },
            {
                "key": "ActiveEffectLike",
                "mode": "add",
                "path": "data.custom.modifiers.frenzyMod",
                "value": 0
            }
        ],
        "source": {
            "value": "Pathfinder Bestiary"
        },
        "start": {
            "initiative": null,
            "value": 0
        },
        "target": null,
        "tokenIcon": {
            "show": true
        },
        "traits": {
            "custom": "",
            "rarity": "common",
            "value": []
        }
    },
    "effects": [],
    "flags": {},
    "img": "systems/pf2e/icons/features/classes/hunt-prey.webp",
    "name": "Effect: Blood Frenzy",
    "type": "effect"
}
