{
    "_id": "wX9L6fbqVMLP05hn",
    "data": {
        "badge": null,
        "description": {
            "value": "<p>The creature takes a -2 circumstance penalty to saves against disease.</p>"
        },
        "duration": {
            "expiry": "turn-start",
            "sustained": false,
            "unit": "unlimited",
            "value": -1
        },
        "level": {
            "value": 1
        },
        "rules": [
            {
                "key": "FlatModifier",
                "predicate": {
                    "all": [
                        "disease"
                    ]
                },
                "selector": "saving-throw",
                "type": "circumstance",
                "value": -2
            }
        ],
        "source": {
            "value": ""
        },
        "start": {
            "initiative": null,
            "value": 0
        },
        "target": null,
        "tokenIcon": {
            "show": true
        },
        "traits": {
            "custom": "",
            "rarity": "common",
            "value": []
        }
    },
    "effects": [],
    "flags": {},
    "img": "systems/pf2e/icons/spells/grease.webp",
    "name": "Effect: Stench",
    "type": "effect"
}
