{
    "_id": "2zFd5Huu1Yf8RDFE",
    "content": "<p>Play at the end of your turn.</p>\n<hr />\n<p>Select yourself or an ally within 30 feet. The creature you choose must have fewer than half their total Hit Points. The creature gains a number of temporary Hit Points equal to twice your level, which last until the end of the combat.</p>",
    "flags": {},
    "name": "Catch your Breath",
    "permission": {
        "default": 0
    }
}
