{
    "_id": "O2oSUauTcoBXcv42",
    "content": "<p>Play when an incapacitated ally or noncombatant NPC within sight takes damage from an attack or effect.</p>\n<hr />\n<p>Prevent all of the damage. You take half of the damage they would have taken (in addition to the damage you would normally take from the attack or effect, if any). You can only use this to prevent damage to an ally if that ally is unable to act, such as when they are @Compendium[pf2e.conditionitems.Unconscious]{Unconscious} or @Compendium[pf2e.conditionitems.Paralyzed]{Paralyzed}.</p>",
    "flags": {},
    "name": "Protect the Innocent",
    "permission": {
        "default": 0
    }
}
