{
    "_id": "HfHDVaEEtG2wUmOZ",
    "content": "<p>Play when you have the @Compendium[pf2e.conditionitems.Frightened]{Frightened} condition.</p>\n<hr />\n<p>You lose that condition and instead gain a +2 status bonus to attack rolls and skill checks until the end of your next turn.</p>",
    "flags": {},
    "name": "Spark of Courage",
    "permission": {
        "default": 0
    }
}
