{
    "_id": "NQkc5rKoeFemdVHr",
    "actorIds": [],
    "author": "ru9MkwAaWXaeSZph",
    "command": "const tokens = canvas.tokens.controlled;\nif (tokens.length === 0) {\n    ui.notifications.error(`You must select at least one pc token`);\n} else {\n    game.pf2e.gm.launchTravelSheet(tokens.map((p) => p.actor));\n}",
    "flags": {},
    "img": "systems/pf2e/icons/equipment/adventuring-gear/cartographers-kit.webp",
    "name": "Travel Duration",
    "permission": {
        "default": 0
    },
    "scope": "global",
    "type": "script"
}
