{
    "_id": "bUwBenWXjdUIKXkm",
    "data": {
        "attributes": {
            "ac": {
                "check": 0,
                "details": "",
                "value": 24
            },
            "collisionDC": {
                "value": 26
            },
            "collisionDamage": {
                "value": "6d10 piercing"
            },
            "hardness": 15,
            "hp": {
                "brokenThreshold": 5,
                "details": "",
                "max": 110,
                "temp": 0,
                "value": 110
            }
        },
        "details": {
            "AC": 0,
            "crew": "1 pilot",
            "description": "<p>A clockwork borer is essentially a huge adamantine drill attached to a large wheeled carriage. The clockwork gears within move the borer itself and spin the drill, allowing it to burrow through loose material quickly and even through solid stone at a slower rate.</p>",
            "level": {
                "value": 9
            },
            "passengers": "5",
            "pilotingCheck": "Driving Lore (DC 26) or Crafting (DC 28)",
            "price": 2100,
            "space": {
                "high": 8,
                "long": 20,
                "wide": 8
            },
            "speed": "20 feet, burrow 10 feet (clockwork)"
        },
        "saves": {
            "fortitude": {
                "item": 0,
                "rank": 0,
                "saveDetail": "",
                "value": 18
            }
        },
        "source": {
            "value": "Pathfinder Guns & Gears"
        },
        "traits": {
            "ci": [],
            "di": {
                "custom": "",
                "value": [
                    "critical-hits",
                    "object-immunities",
                    "precision"
                ]
            },
            "dr": [],
            "dv": [],
            "rarity": "rare",
            "size": {
                "value": "huge"
            },
            "traits": {
                "custom": "",
                "value": []
            }
        }
    },
    "effects": [],
    "flags": {},
    "img": "systems/pf2e/icons/default-icons/vehicle.svg",
    "items": [
        {
            "_id": "TPj4AFDezXubgaJm",
            "data": {
                "actionCategory": {
                    "value": ""
                },
                "actionType": {
                    "value": "passive"
                },
                "actions": {
                    "value": null
                },
                "description": {
                    "value": "<p>While most burrow Speeds only allow a creature or vehicle to move through loose dirt or earth, this vehicle is equipped with an adamantine drill and can burrow through bedrock and stone at a rate of 5 feet per minute.</p>"
                },
                "requirements": {
                    "value": ""
                },
                "rules": [],
                "slug": null,
                "source": {
                    "value": ""
                },
                "traits": {
                    "custom": "",
                    "rarity": "common",
                    "value": []
                },
                "trigger": {
                    "value": ""
                }
            },
            "effects": [],
            "flags": {},
            "img": "systems/pf2e/icons/actions/Passive.webp",
            "name": "Adamantine Drill",
            "sort": 0,
            "type": "action"
        },
        {
            "_id": "scXXuno9YNm1GWXK",
            "data": {
                "actionCategory": {
                    "value": ""
                },
                "actionType": {
                    "value": "passive"
                },
                "actions": {
                    "value": null
                },
                "description": {
                    "value": "<p>This vehicle's seats are mounted on a weighted platform that pivots as the vehicle moves, automatically adjusting position with gravity. Seated creatures remain upright no matter the position or angle of the vehicle.</p>"
                },
                "requirements": {
                    "value": ""
                },
                "rules": [],
                "slug": null,
                "source": {
                    "value": ""
                },
                "traits": {
                    "custom": "",
                    "rarity": "common",
                    "value": []
                },
                "trigger": {
                    "value": ""
                }
            },
            "effects": [],
            "flags": {},
            "img": "systems/pf2e/icons/actions/Passive.webp",
            "name": "Pivoting Seats",
            "sort": 0,
            "type": "action"
        },
        {
            "_id": "hCwx6Q30DbNVZa88",
            "data": {
                "actionCategory": {
                    "value": ""
                },
                "actionType": {
                    "value": "passive"
                },
                "actions": {
                    "value": null
                },
                "description": {
                    "value": "<p>Because it is sluggish, this vehicle must move twice its length for each 90-degree turn it makes.</p>"
                },
                "requirements": {
                    "value": ""
                },
                "rules": [],
                "slug": null,
                "source": {
                    "value": ""
                },
                "traits": {
                    "custom": "",
                    "rarity": "common",
                    "value": []
                },
                "trigger": {
                    "value": ""
                }
            },
            "effects": [],
            "flags": {},
            "img": "systems/pf2e/icons/actions/Passive.webp",
            "name": "Sluggish",
            "sort": 0,
            "type": "action"
        },
        {
            "_id": "kQbyDtF75cOAr2Lc",
            "data": {
                "actionCategory": {
                    "value": ""
                },
                "actionType": {
                    "value": "passive"
                },
                "actions": {
                    "value": null
                },
                "description": {
                    "value": "<p>10 minutes of wind-up, 1 hour of operational time, DC 26, standby</p>"
                },
                "requirements": {
                    "value": ""
                },
                "rules": [],
                "slug": null,
                "source": {
                    "value": ""
                },
                "traits": {
                    "custom": "",
                    "rarity": "common",
                    "value": []
                },
                "trigger": {
                    "value": ""
                }
            },
            "effects": [],
            "flags": {},
            "img": "systems/pf2e/icons/actions/Passive.webp",
            "name": "Wind-Up",
            "sort": 0,
            "type": "action"
        }
    ],
    "name": "Clockwork Borer",
    "token": {
        "disposition": 0,
        "height": 4,
        "img": "systems/pf2e/icons/default-icons/vehicle.svg",
        "name": "Clockwork Borer",
        "width": 2
    },
    "type": "vehicle"
}
