{
    "_id": "R2ga1eyeSQA9w6KF",
    "data": {
        "attributes": {
            "ac": {
                "check": 0,
                "details": "",
                "value": 23
            },
            "collisionDC": {
                "value": 26
            },
            "collisionDamage": {
                "value": "6d10"
            },
            "hardness": 15,
            "hp": {
                "brokenThreshold": 5,
                "details": "",
                "max": 150,
                "temp": 0,
                "value": 150
            }
        },
        "details": {
            "AC": 0,
            "crew": "1 pilot, 8 crew",
            "description": "",
            "level": {
                "value": 9
            },
            "passengers": "10",
            "pilotingCheck": "Sailing Lore (DC 26), Diplomacy (DC 28), or Intimidation (DC 28)",
            "price": "2000",
            "space": {
                "high": 25,
                "long": 75,
                "wide": 20
            },
            "speed": "swim 40 feet (wind)"
        },
        "saves": {
            "fortitude": {
                "item": 0,
                "rank": 0,
                "saveDetail": "",
                "value": 18
            }
        },
        "source": {
            "value": "Pathfinder Gamemastery Guide"
        },
        "traits": {
            "ci": [],
            "di": {
                "custom": "",
                "value": [
                    "critical-hits",
                    "object-immunities",
                    "precision"
                ]
            },
            "dr": [],
            "dv": [],
            "rarity": "common",
            "size": {
                "value": "grg"
            },
            "traits": {
                "custom": "",
                "value": []
            }
        }
    },
    "effects": [],
    "flags": {},
    "img": "systems/pf2e/icons/default-icons/vehicle.svg",
    "items": [
        {
            "_id": "2UISHdYECuDVkedh",
            "data": {
                "actionCategory": {
                    "value": "interaction"
                },
                "actionType": {
                    "value": "passive"
                },
                "actions": {
                    "value": null
                },
                "description": {
                    "value": "<p>This vehicle must move twice its length for each 90-degree turn it makes.</p>"
                },
                "requirements": {
                    "value": ""
                },
                "rules": [],
                "slug": null,
                "source": {
                    "value": ""
                },
                "traits": {
                    "custom": "",
                    "rarity": "common",
                    "value": []
                },
                "trigger": {
                    "value": ""
                },
                "weapon": {
                    "value": ""
                }
            },
            "effects": [],
            "flags": {},
            "img": "systems/pf2e/icons/actions/Passive.webp",
            "name": "Sluggish",
            "sort": 0,
            "type": "action"
        }
    ],
    "name": "Sailing Ship",
    "token": {
        "disposition": 0,
        "height": 15,
        "img": "systems/pf2e/icons/default-icons/vehicle.svg",
        "name": "Sailing Ship",
        "width": 4
    },
    "type": "vehicle"
}
