{
    "_id": "HmyF3aYbHxm8RDWf",
    "data": {
        "attributes": {
            "ac": {
                "value": 0
            },
            "hardness": 0,
            "hasHealth": true,
            "hp": {
                "details": "",
                "max": 0,
                "temp": 0,
                "value": 0
            },
            "stealth": {
                "details": "<p>(trained)</p>",
                "value": 8
            }
        },
        "creatureType": "",
        "details": {
            "description": "<p>A patch of treacherous bog attempts to submerge creatures that step onto it.</p>",
            "disable": "<p>@Check[type:survival|dc:15|name:Disturb Surface|traits:secret,action:sense-direction,exploration] (trained) to disturb the surface and make the quagmire plainly visible</p>",
            "isComplex": true,
            "level": {
                "value": 1
            },
            "reset": "<p>The hazard still submerges anyone who walks in, but the surface doesn't become hidden again until it settles over the course of 24 hours</p>",
            "routine": "<p><span class=\"pf2-icon\">1</span> On its initiative, the quagmire pulls each creature within it 1 square toward the center of the quagmire and 1 step further submerged; a creature that is submerged up to its waist becomes submerged up to its neck, and a creature that is submerged up to its neck is pulled under and has to hold its breath to avoid suffocation.</p>\n<p>A creature in the quagmire can attempt a @Check[type:athletics|dc:17|name:Swim Out of Quagmire|traits:environmental,hazard,action:swim] check to Swim to either raise itself by 1 step if its submerged to its neck or worse, or to swim out of the quagmire if its submerged up to only its waist. On a critical failure, the creature is pulled down 1 step. A creature that Swims out of the quagmire escapes the hazard and is @Compendium[pf2e.conditionitems.Prone]{Prone} adjacent to the quagmire. Other creatures can @Compendium[pf2e.actionspf2e.Aid]{Aid} the creature, typically by using a rope or similar tool, or attempt to pull a creature within their reach out with a @Check[type:athletics|dc:17|name:Pull Out of Quagmire|traits:environmental,hazard,action:aid] check, with the same results as if the creature attempted the check.</p>"
        },
        "saves": {
            "fortitude": {
                "saveDetail": "",
                "value": 0
            },
            "reflex": {
                "saveDetail": "",
                "value": 0
            },
            "will": {
                "saveDetail": "",
                "value": 0
            }
        },
        "source": {
            "value": "Pathfinder Society Scenario #1-08: Revolution on the Riverside"
        },
        "statusEffects": [],
        "traits": {
            "ci": [],
            "di": {
                "custom": "",
                "selected": {},
                "value": []
            },
            "dr": [],
            "dv": [],
            "rarity": "common",
            "size": {
                "value": "med"
            },
            "traits": {
                "custom": "",
                "value": [
                    "environmental"
                ]
            }
        }
    },
    "effects": [],
    "flags": {},
    "img": "systems/pf2e/icons/default-icons/hazard.svg",
    "items": [
        {
            "_id": "6wt62h1nmVgSx3aD",
            "data": {
                "actionCategory": {
                    "value": "offensive"
                },
                "actionType": {
                    "value": "free"
                },
                "actions": {
                    "value": null
                },
                "description": {
                    "value": "<p><strong>Trigger</strong> A Small or larger creature walks into a quagmire.</p>\n<p><strong>Effect</strong> The triggering creature sinks into the quagmire up to its waist. The quagmire rolls initiative if it hasn't already.</p>"
                },
                "requirements": {
                    "value": ""
                },
                "rules": [],
                "slug": null,
                "source": {
                    "value": ""
                },
                "traits": {
                    "custom": "",
                    "rarity": "common",
                    "value": []
                },
                "trigger": {
                    "value": ""
                }
            },
            "effects": [],
            "flags": {},
            "img": "systems/pf2e/icons/actions/FreeAction.webp",
            "name": "Submerge",
            "sort": 0,
            "type": "action"
        }
    ],
    "name": "Quagmire",
    "token": {
        "disposition": 0,
        "height": 5,
        "img": "systems/pf2e/icons/default-icons/hazard.svg",
        "name": "Quagmire",
        "width": 5
    },
    "type": "hazard"
}
